M48
;DRILL file {KiCad 5.0.1-1.fc30} date Mon 19 Nov 2018 01:36:21 PM EST
;FORMAT={-:-/ absolute / inch / decimal}
FMAT,2
INCH,TZ
T1C0.0315
T2C0.0394
%
G90
G05
M72
T1
X4.5315Y-3.0394
X4.5551Y-3.1614
X4.6732Y-2.685
X4.8701Y-3.1693
X4.9173Y-2.685
X5.0531Y-3.1683
X5.313Y-2.7717
X5.313Y-2.8917
X5.4429Y-3.0906
X5.4429Y-3.2185
X5.874Y-2.8031
X5.874Y-2.9843
X5.874Y-3.2402
X5.9488Y-2.8268
X5.9488Y-3.2165
T2
X4.325Y-2.7252
X4.325Y-2.8252
X4.325Y-2.9252
X4.325Y-3.0252
X4.325Y-3.1252
X4.325Y-3.2252
X4.325Y-3.3252
X4.325Y-3.4252
T0
M30
