M48
;DRILL file {KiCad 5.0.1-1.fc30} date Mon 19 Nov 2018 03:23:22 PM EST
;FORMAT={-:-/ absolute / inch / decimal}
FMAT,2
INCH,TZ
T1C0.0315
T2C0.0394
%
G90
G05
M72
T1
X6.0748Y-2.4469
X6.5748Y-2.4469
X5.7Y-1.775
X6.0748Y-1.9213
X6.5748Y-1.9213
X6.0709Y-2.6969
X6.5709Y-2.6969
X6.0709Y-2.8425
X6.5709Y-2.8425
X6.0748Y-2.0689
X6.5748Y-2.0689
X6.0748Y-1.5394
X6.5748Y-1.5394
X5.7Y-2.275
X6.0669Y-3.0846
X6.5669Y-3.0846
X5.85Y-1.775
X5.85Y-2.275
X6.0669Y-3.2323
X6.5669Y-3.2323
X6.0748Y-1.685
X6.5748Y-1.685
X6.0748Y-2.2992
X6.5748Y-2.2992
T2
X5.275Y-1.825
X5.5706Y-2.4794
X5.575Y-2.0689
X5.6Y-1.675
X5.6Y-3.225
X5.625Y-2.675
X5.7255Y-2.485
X5.825Y-3.4
X6.875Y-2.4
X6.875Y-2.5
X7.775Y-2.1
X7.775Y-2.2
X7.775Y-2.3
X7.775Y-2.4
X7.775Y-2.5
X7.752Y-3.3047
X7.752Y-3.4047
X7.752Y-3.5047
X7.752Y-3.6047
X7.752Y-3.7047
X6.9882Y-1.5055
X6.9882Y-1.6055
X6.9882Y-1.7055
X6.9882Y-1.8055
X6.9882Y-1.9055
X6.9882Y-2.0055
X6.9882Y-2.1055
X6.9882Y-2.2055
X6.9882Y-2.3055
X6.9882Y-2.4055
X6.9882Y-2.5055
X6.9882Y-2.6055
X6.9882Y-2.7055
X6.9882Y-2.8055
X6.9882Y-2.9055
X7.5882Y-1.5055
X7.5882Y-1.6055
X7.5882Y-1.7055
X7.5882Y-1.8055
X7.5882Y-1.9055
X7.5882Y-2.0055
X7.5882Y-2.1055
X7.5882Y-2.2055
X7.5882Y-2.3055
X7.5882Y-2.4055
X7.5882Y-2.5055
X7.5882Y-2.6055
X7.5882Y-2.7055
X7.5882Y-2.8055
X7.5882Y-2.9055
X5.4252Y-2.5205
X5.4252Y-2.6205
X5.4252Y-2.7205
X5.4252Y-2.8205
X5.4252Y-2.9205
X5.4252Y-3.0205
X5.4252Y-3.1205
X5.4252Y-3.2205
X5.3764Y-1.6693
X5.3764Y-1.7693
X5.3764Y-1.8693
X5.3764Y-1.9693
X5.3764Y-2.0693
X5.3764Y-2.1693
X5.3764Y-2.2693
X5.4764Y-1.6693
X5.4764Y-1.7693
X5.4764Y-1.8693
X5.4764Y-1.9693
X5.4764Y-2.0693
X5.4764Y-2.1693
X5.4764Y-2.2693
T0
M30
