EESchema Schematic File Version 4
LIBS:Sensor_Board-cache
EELAYER 26 0
EELAYER END
$Descr A4 11693 8268
encoding utf-8
Sheet 1 1
Title ""
Date ""
Rev ""
Comp ""
Comment1 ""
Comment2 ""
Comment3 ""
Comment4 ""
$EndDescr
$Comp
L Device:Thermistor_NTC TH1
U 1 1 5BE65E8A
P 6750 4850
F 0 "TH1" H 6550 4850 50  0000 L CNN
F 1 "Therm" H 6400 4650 50  0000 L CNN
F 2 "Resistor_SMD:R_0603_1608Metric_Pad1.05x0.95mm_HandSolder" H 6750 4900 50  0001 C CNN
F 3 "~" H 6750 4900 50  0001 C CNN
	1    6750 4850
	1    0    0    -1  
$EndComp
$Comp
L capstone_library:TMP235A4DCKT U1
U 1 1 5BE65F36
P 8750 2800
F 0 "U1" H 9178 2751 50  0000 L CNN
F 1 "TMP235A4DCKT" H 9178 2660 50  0000 L CNN
F 2 "Package_TO_SOT_SMD:SOT-353_SC-70-5_Handsoldering" H 8750 2800 50  0001 C CNN
F 3 "" H 8750 2800 50  0001 C CNN
	1    8750 2800
	1    0    0    -1  
$EndComp
$Comp
L Device:R R1
U 1 1 5BE668AF
P 6750 4450
F 0 "R1" H 6820 4496 50  0000 L CNN
F 1 "22k" H 6820 4405 50  0000 L CNN
F 2 "Resistor_SMD:R_0603_1608Metric_Pad1.05x0.95mm_HandSolder" V 6680 4450 50  0001 C CNN
F 3 "~" H 6750 4450 50  0001 C CNN
	1    6750 4450
	1    0    0    -1  
$EndComp
$Comp
L Device:C CBp1
U 1 1 5BE676CE
P 4700 3150
F 0 "CBp1" V 4952 3150 50  0000 C CNN
F 1 "0.1uF" V 4861 3150 50  0000 C CNN
F 2 "Capacitor_SMD:C_0603_1608Metric_Pad1.05x0.95mm_HandSolder" H 4738 3000 50  0001 C CNN
F 3 "~" H 4700 3150 50  0001 C CNN
	1    4700 3150
	1    0    0    -1  
$EndComp
$Comp
L Device:C C3
U 1 1 5BE67726
P 8150 4400
F 0 "C3" H 8265 4446 50  0000 L CNN
F 1 "0.1 uF" H 8265 4355 50  0000 L CNN
F 2 "Capacitor_SMD:C_0603_1608Metric_Pad1.05x0.95mm_HandSolder" H 8188 4250 50  0001 C CNN
F 3 "~" H 8150 4400 50  0001 C CNN
	1    8150 4400
	1    0    0    -1  
$EndComp
$Comp
L power:GND #PWR01
U 1 1 5BE75E27
P 4700 3300
F 0 "#PWR01" H 4700 3050 50  0001 C CNN
F 1 "GND" H 4705 3127 50  0000 C CNN
F 2 "" H 4700 3300 50  0001 C CNN
F 3 "" H 4700 3300 50  0001 C CNN
	1    4700 3300
	1    0    0    -1  
$EndComp
$Comp
L power:GND #PWR05
U 1 1 5BE78563
P 8150 4550
F 0 "#PWR05" H 8150 4300 50  0001 C CNN
F 1 "GND" H 8155 4377 50  0000 C CNN
F 2 "" H 8150 4550 50  0001 C CNN
F 3 "" H 8150 4550 50  0001 C CNN
	1    8150 4550
	1    0    0    -1  
$EndComp
$Comp
L Device:R_PHOTO NS-5112
U 1 1 5BE8D0AC
P 7600 4750
F 0 "NS-5112" H 7670 4796 50  0000 L CNN
F 1 "R_PHOTO" H 7670 4705 50  0000 L CNN
F 2 "OptoDevice:R_LDR_4.9x4.2mm_P2.54mm_Vertical" V 7650 4500 50  0001 L CNN
F 3 "~" H 7600 4700 50  0001 C CNN
	1    7600 4750
	1    0    0    -1  
$EndComp
$Comp
L power:GND #PWR02
U 1 1 5BE9DA78
P 5700 5200
F 0 "#PWR02" H 5700 4950 50  0001 C CNN
F 1 "GND" H 5705 5027 50  0000 C CNN
F 2 "" H 5700 5200 50  0001 C CNN
F 3 "" H 5700 5200 50  0001 C CNN
	1    5700 5200
	1    0    0    -1  
$EndComp
$Comp
L Device:R R2
U 1 1 5BE8D26C
P 7600 4350
F 0 "R2" H 7670 4396 50  0000 L CNN
F 1 "10k" H 7670 4305 50  0000 L CNN
F 2 "Resistor_SMD:R_0603_1608Metric_Pad1.05x0.95mm_HandSolder" V 7530 4350 50  0001 C CNN
F 3 "~" H 7600 4350 50  0001 C CNN
	1    7600 4350
	1    0    0    -1  
$EndComp
Wire Wire Line
	5700 5100 5700 5200
$Comp
L Device:C C2
U 1 1 5BEA2E4F
P 7100 4450
F 0 "C2" H 7215 4496 50  0000 L CNN
F 1 "0.1 uF" H 7215 4405 50  0000 L CNN
F 2 "Capacitor_SMD:C_0603_1608Metric_Pad1.05x0.95mm_HandSolder" H 7138 4300 50  0001 C CNN
F 3 "~" H 7100 4450 50  0001 C CNN
	1    7100 4450
	1    0    0    -1  
$EndComp
$Comp
L power:GND #PWR04
U 1 1 5BEA2E56
P 7100 4600
F 0 "#PWR04" H 7100 4350 50  0001 C CNN
F 1 "GND" H 7105 4427 50  0000 C CNN
F 2 "" H 7100 4600 50  0001 C CNN
F 3 "" H 7100 4600 50  0001 C CNN
	1    7100 4600
	1    0    0    -1  
$EndComp
$Comp
L Device:C C1
U 1 1 5BEA2E94
P 6300 4450
F 0 "C1" H 6415 4496 50  0000 L CNN
F 1 "0.1 uF" H 6415 4405 50  0000 L CNN
F 2 "Capacitor_SMD:C_0603_1608Metric_Pad1.05x0.95mm_HandSolder" H 6338 4300 50  0001 C CNN
F 3 "~" H 6300 4450 50  0001 C CNN
	1    6300 4450
	1    0    0    -1  
$EndComp
$Comp
L power:GND #PWR03
U 1 1 5BEA2E9B
P 6300 4600
F 0 "#PWR03" H 6300 4350 50  0001 C CNN
F 1 "GND" H 6305 4427 50  0000 C CNN
F 2 "" H 6300 4600 50  0001 C CNN
F 3 "" H 6300 4600 50  0001 C CNN
	1    6300 4600
	1    0    0    -1  
$EndComp
Wire Wire Line
	6150 4300 6300 4300
Wire Wire Line
	7100 4200 7100 4300
Wire Wire Line
	7600 4500 7600 4550
Wire Wire Line
	6750 4600 6750 4650
Wire Wire Line
	6150 4100 8150 4100
Wire Wire Line
	6150 4200 7100 4200
Wire Wire Line
	7600 5100 7600 4900
Wire Wire Line
	6750 5000 6750 5100
Connection ~ 6750 5100
Wire Wire Line
	6750 5100 7600 5100
Wire Wire Line
	6300 4300 6550 4300
Wire Wire Line
	6550 4300 6550 4650
Wire Wire Line
	6550 4650 6750 4650
Connection ~ 6300 4300
Connection ~ 6750 4650
Wire Wire Line
	6750 4650 6750 4700
Wire Wire Line
	7100 4200 7450 4200
Wire Wire Line
	7450 4200 7450 4550
Wire Wire Line
	7450 4550 7600 4550
Connection ~ 7100 4200
Connection ~ 7600 4550
Wire Wire Line
	7600 4550 7600 4600
Wire Wire Line
	8650 5100 7600 5100
Connection ~ 7600 5100
Text Label 7200 4200 0    50   ~ 0
V_Photo
Text Label 6300 4300 0    50   ~ 0
V_Therm
Connection ~ 5850 3000
Wire Wire Line
	5850 3000 6750 3000
Wire Wire Line
	6750 3000 6750 4300
Connection ~ 6750 3000
Wire Wire Line
	7600 3000 7600 4200
Wire Wire Line
	6750 3000 7600 3000
Wire Wire Line
	8150 2900 8750 2900
Wire Wire Line
	7600 3000 8750 3000
Connection ~ 7600 3000
Text Label 7200 3000 0    50   ~ 0
5V
Wire Wire Line
	8150 4100 8150 4250
Connection ~ 8150 4100
Wire Wire Line
	4700 3000 5850 3000
$Comp
L Device:R R3
U 1 1 5BEA7ABC
P 8150 3550
F 0 "R3" H 8220 3596 50  0000 L CNN
F 1 "22k" H 8220 3505 50  0000 L CNN
F 2 "Resistor_SMD:R_0603_1608Metric_Pad1.05x0.95mm_HandSolder" V 8080 3550 50  0001 C CNN
F 3 "~" H 8150 3550 50  0001 C CNN
	1    8150 3550
	1    0    0    -1  
$EndComp
Wire Wire Line
	8150 2900 8150 3400
Wire Wire Line
	8150 3700 8150 4100
Wire Wire Line
	8750 2800 8650 2800
Wire Wire Line
	8650 2800 8650 5100
$Comp
L Connector_Generic:Conn_01x05 J1
U 1 1 5BECDD91
P 5950 4200
F 0 "J1" H 5870 3775 50  0000 C CNN
F 1 "Conn_01x05" H 5870 3866 50  0000 C CNN
F 2 "Connector_PinHeader_2.54mm:PinHeader_1x05_P2.54mm_Vertical" H 5950 4200 50  0001 C CNN
F 3 "~" H 5950 4200 50  0001 C CNN
	1    5950 4200
	-1   0    0    1   
$EndComp
Wire Wire Line
	6150 4400 6150 5100
Wire Wire Line
	5700 5100 6150 5100
Connection ~ 6150 5100
Wire Wire Line
	6150 5100 6750 5100
Wire Wire Line
	5850 3650 6300 3650
Wire Wire Line
	6300 3650 6300 4000
Wire Wire Line
	6300 4000 6150 4000
Wire Wire Line
	5850 3000 5850 3650
Text Label 6250 4100 0    50   ~ 0
V_TMP23
$EndSCHEMATC
