EESchema Schematic File Version 4
LIBS:ltc-battery-power-cache
EELAYER 26 0
EELAYER END
$Descr A4 11693 8268
encoding utf-8
Sheet 1 1
Title ""
Date ""
Rev ""
Comp ""
Comment1 ""
Comment2 ""
Comment3 ""
Comment4 ""
$EndDescr
$Comp
L Device:C_Small C4
U 1 1 5BE15114
P 6950 3650
F 0 "C4" H 7042 3696 50  0000 L CNN
F 1 "10uF" H 7042 3605 50  0000 L CNN
F 2 "Capacitor_SMD:C_1206_3216Metric_Pad1.42x1.75mm_HandSolder" H 6950 3650 50  0001 C CNN
F 3 "~" H 6950 3650 50  0001 C CNN
	1    6950 3650
	1    0    0    -1  
$EndComp
$Comp
L Device:L_Small L1
U 1 1 5BE1524E
P 5250 2850
F 0 "L1" V 5435 2850 50  0000 C CNN
F 1 "10uH" V 5344 2850 50  0000 C CNN
F 2 "Inductor_SMD:L_VLCF4020" H 5250 2850 50  0001 C CNN
F 3 "~" H 5250 2850 50  0001 C CNN
	1    5250 2850
	0    -1   -1   0   
$EndComp
NoConn ~ 4700 3650
Wire Wire Line
	5150 2850 4700 2850
Wire Wire Line
	4700 2850 4700 3050
Wire Wire Line
	5350 2850 5800 2850
Wire Wire Line
	5800 2850 5800 3050
$Comp
L Device:R_Small_US R1
U 1 1 5BE16868
P 4200 4100
F 0 "R1" H 4268 4146 50  0000 L CNN
F 1 "0R" H 4268 4055 50  0000 L CNN
F 2 "Resistor_SMD:R_0603_1608Metric_Pad1.05x0.95mm_HandSolder" H 4200 4100 50  0001 C CNN
F 3 "~" H 4200 4100 50  0001 C CNN
	1    4200 4100
	1    0    0    -1  
$EndComp
$Comp
L Device:C_Small C2
U 1 1 5BE1697C
P 4600 4250
F 0 "C2" H 4692 4296 50  0000 L CNN
F 1 "1uF" H 4692 4205 50  0000 L CNN
F 2 "Capacitor_SMD:C_0603_1608Metric_Pad1.05x0.95mm_HandSolder" H 4600 4250 50  0001 C CNN
F 3 "~" H 4600 4250 50  0001 C CNN
	1    4600 4250
	1    0    0    -1  
$EndComp
$Comp
L Device:R_Small_US R2
U 1 1 5BE16A6E
P 6550 3500
F 0 "R2" H 6400 3450 50  0000 C CNN
F 1 "1MR" H 6400 3550 50  0000 C CNN
F 2 "Resistor_SMD:R_0603_1608Metric_Pad1.05x0.95mm_HandSolder" H 6550 3500 50  0001 C CNN
F 3 "~" H 6550 3500 50  0001 C CNN
	1    6550 3500
	-1   0    0    1   
$EndComp
$Comp
L Device:R_Small_US R3
U 1 1 5BE16B07
P 6550 3800
F 0 "R3" H 6618 3846 50  0000 L CNN
F 1 "301kR" H 6618 3755 50  0000 L CNN
F 2 "Resistor_SMD:R_0603_1608Metric_Pad1.05x0.95mm_HandSolder" H 6550 3800 50  0001 C CNN
F 3 "~" H 6550 3800 50  0001 C CNN
	1    6550 3800
	1    0    0    -1  
$EndComp
$Comp
L power:GND #PWR0101
U 1 1 5BE17B9C
P 5250 4550
F 0 "#PWR0101" H 5250 4300 50  0001 C CNN
F 1 "GND" H 5255 4377 50  0000 C CNN
F 2 "" H 5250 4550 50  0001 C CNN
F 3 "" H 5250 4550 50  0001 C CNN
	1    5250 4550
	1    0    0    -1  
$EndComp
Wire Wire Line
	5800 3250 6550 3250
Wire Wire Line
	6550 3400 6550 3250
Wire Wire Line
	6950 3550 6950 3250
NoConn ~ 5800 3850
Wire Wire Line
	6550 3600 6550 3650
Connection ~ 6550 3250
Wire Wire Line
	6550 3250 6950 3250
Wire Wire Line
	6550 3650 6400 3650
Wire Wire Line
	6400 3650 6400 3450
Wire Wire Line
	6400 3450 5800 3450
Connection ~ 6550 3650
Wire Wire Line
	6550 3650 6550 3700
Wire Wire Line
	4600 4350 4600 4400
Wire Wire Line
	4600 4400 5200 4400
Wire Wire Line
	5250 4400 5250 4550
Wire Wire Line
	5200 4250 5200 4400
Connection ~ 5200 4400
Wire Wire Line
	5200 4400 5250 4400
Wire Wire Line
	5250 4400 5300 4400
Wire Wire Line
	5300 4400 5300 4250
Connection ~ 5250 4400
Wire Wire Line
	5300 4400 6100 4400
Wire Wire Line
	6550 4400 6550 3900
Connection ~ 5300 4400
Wire Wire Line
	6950 3750 6950 4400
Wire Wire Line
	6950 4400 6550 4400
Connection ~ 6550 4400
Wire Wire Line
	4600 4150 4600 4050
Wire Wire Line
	4600 4050 4700 4050
Wire Wire Line
	4700 3850 4200 3850
Wire Wire Line
	4200 3850 4200 4000
Wire Wire Line
	4200 4200 4200 4400
Wire Wire Line
	4200 4400 4600 4400
Connection ~ 4600 4400
Wire Wire Line
	4000 3450 4000 2850
Connection ~ 4700 2850
Wire Wire Line
	4000 3650 4000 4400
Wire Wire Line
	5800 4050 6100 4050
Wire Wire Line
	6100 4050 6100 4400
Connection ~ 6100 4400
Wire Wire Line
	6100 4400 6550 4400
$Comp
L Device:C_Small C1
U 1 1 5BE152FE
P 4000 3550
F 0 "C1" H 4092 3596 50  0000 L CNN
F 1 "10uF" H 4092 3505 50  0000 L CNN
F 2 "Capacitor_SMD:C_1206_3216Metric_Pad1.42x1.75mm_HandSolder" H 4000 3550 50  0001 C CNN
F 3 "~" H 4000 3550 50  0001 C CNN
	1    4000 3550
	1    0    0    -1  
$EndComp
$Comp
L capstone_library:LTC3105 U1
U 1 1 5BE24B21
P 5250 3550
F 0 "U1" H 4450 3800 50  0000 C CNN
F 1 "LTC3105" H 4450 3700 50  0000 C CNN
F 2 "Package_SO:MSOP-12_3x4mm_P0.65mm" H 5250 2500 50  0001 C CNN
F 3 "https://www.analog.com/media/en/technical-documentation/data-sheets/3105fb.pdf" H 5250 2350 50  0001 C CNN
	1    5250 3550
	1    0    0    -1  
$EndComp
$Comp
L Connector:Conn_01x06_Male J1
U 1 1 5BE2A8A8
P 2100 3600
F 0 "J1" H 2206 3978 50  0000 C CNN
F 1 "MAIN-CCA" H 2206 3887 50  0000 C CNN
F 2 "Connector_PinHeader_2.54mm:PinHeader_1x06_P2.54mm_Vertical" H 2100 3600 50  0001 C CNN
F 3 "~" H 2100 3600 50  0001 C CNN
	1    2100 3600
	1    0    0    -1  
$EndComp
Wire Wire Line
	3000 3400 3000 2850
Wire Wire Line
	3100 2550 6550 2550
Wire Wire Line
	6550 2550 6550 3250
Text Notes 1700 3400 0    50   ~ 0
SOLAR
Wire Wire Line
	3100 2550 3100 3600
$Comp
L power:GND #PWR0102
U 1 1 5BE38C62
P 2800 4050
F 0 "#PWR0102" H 2800 3800 50  0001 C CNN
F 1 "GND" H 2805 3877 50  0000 C CNN
F 2 "" H 2800 4050 50  0001 C CNN
F 3 "" H 2800 4050 50  0001 C CNN
	1    2800 4050
	1    0    0    -1  
$EndComp
Wire Wire Line
	2800 4050 2800 3900
Text Notes 1700 3600 0    50   ~ 0
POWER
Wire Wire Line
	2300 3400 3000 3400
Wire Wire Line
	2300 3600 3100 3600
Text Label 2550 3400 0    50   ~ 0
V_SOLAR
Text Label 2550 3600 0    50   ~ 0
V_OUT
Wire Wire Line
	2300 3900 2800 3900
Text Label 2550 3900 0    50   ~ 0
GND
$Comp
L Device:C_Small C3
U 1 1 5BE7AAEB
P 5250 2050
F 0 "C3" H 5342 2096 50  0000 L CNN
F 1 "0.1uF" H 5342 2005 50  0000 L CNN
F 2 "Capacitor_SMD:C_0603_1608Metric_Pad1.05x0.95mm_HandSolder" H 5250 2050 50  0001 C CNN
F 3 "~" H 5250 2050 50  0001 C CNN
	1    5250 2050
	1    0    0    -1  
$EndComp
$Comp
L power:GND #PWR0103
U 1 1 5BE7AD28
P 5250 2150
F 0 "#PWR0103" H 5250 1900 50  0001 C CNN
F 1 "GND" H 5255 1977 50  0000 C CNN
F 2 "" H 5250 2150 50  0001 C CNN
F 3 "" H 5250 2150 50  0001 C CNN
	1    5250 2150
	1    0    0    -1  
$EndComp
Text Label 5250 1950 1    50   ~ 0
V_SOLAR_PP
Text Notes 5450 2750 0    50   ~ 0
LOW DCR
Text Notes 6600 2500 0    50   ~ 0
TO LOAD
Connection ~ 4000 2850
Wire Wire Line
	4000 2850 4700 2850
Wire Wire Line
	4200 4400 4000 4400
Connection ~ 4200 4400
$Comp
L Device:D_Zener_Small_ALT D1
U 1 1 5BE88F36
P 3650 3550
F 0 "D1" V 3604 3618 50  0000 L CNN
F 1 "5.1V" V 3695 3618 50  0000 L CNN
F 2 "Diode_THT:D_DO-35_SOD27_P7.62mm_Horizontal" V 3650 3550 50  0001 C CNN
F 3 "~" V 3650 3550 50  0001 C CNN
	1    3650 3550
	0    1    1    0   
$EndComp
Wire Wire Line
	3650 3450 3650 2850
Wire Wire Line
	3650 2850 4000 2850
Wire Wire Line
	3650 3650 3650 4400
Wire Wire Line
	3650 4400 4000 4400
Connection ~ 4000 4400
Text Notes 3950 2750 0    50   ~ 0
6V MAX on SW and VIN
Text Notes 6650 3150 0    50   ~ 0
~~4.3V
Text Label 5850 3650 0    50   ~ 0
PG_CHRG
$Comp
L Device:D_Schottky_Small_ALT D2
U 1 1 5BE4B654
P 3350 2850
F 0 "D2" H 3350 2750 50  0000 C CNN
F 1 "~~0.3V" H 3350 2950 50  0000 C CNN
F 2 "Diode_SMD:D_SC-80_HandSoldering" V 3350 2850 50  0001 C CNN
F 3 "~" V 3350 2850 50  0001 C CNN
	1    3350 2850
	-1   0    0    1   
$EndComp
Wire Wire Line
	3250 2850 3000 2850
Wire Wire Line
	3450 2850 3650 2850
Connection ~ 3650 2850
NoConn ~ 2300 3700
NoConn ~ 2300 3800
Text Notes 1700 3900 0    50   ~ 0
GND
$Comp
L Connector:TestPoint TP1
U 1 1 5BE59B44
P 6300 2200
F 0 "TP1" H 6358 2320 50  0000 L CNN
F 1 "PG_CHRG" H 6358 2229 50  0000 L CNN
F 2 "TestPoint:TestPoint_Pad_3.0x3.0mm" H 6500 2200 50  0001 C CNN
F 3 "~" H 6500 2200 50  0001 C CNN
	1    6300 2200
	1    0    0    -1  
$EndComp
Wire Wire Line
	6300 3650 6300 2200
Wire Wire Line
	5800 3650 6300 3650
Text Label 4150 2850 0    50   ~ 0
V_SOLAR_PP
NoConn ~ 2300 3500
$Comp
L Device:R_Small_US R4
U 1 1 5BEA0C26
P 7450 3700
F 0 "R4" H 7300 3650 50  0000 C CNN
F 1 "1MR" H 7300 3750 50  0000 C CNN
F 2 "Resistor_SMD:R_0603_1608Metric_Pad1.05x0.95mm_HandSolder" H 7450 3700 50  0001 C CNN
F 3 "~" H 7450 3700 50  0001 C CNN
	1    7450 3700
	-1   0    0    1   
$EndComp
Wire Wire Line
	7450 3600 7450 3250
Wire Wire Line
	7450 3250 6950 3250
Connection ~ 6950 3250
Wire Wire Line
	7450 3800 7450 4400
Wire Wire Line
	7450 4400 6950 4400
Connection ~ 6950 4400
$EndSCHEMATC
