EESchema Schematic File Version 4
LIBS:ltc-battery-power-cache
EELAYER 26 0
EELAYER END
$Descr A4 11693 8268
encoding utf-8
Sheet 1 1
Title ""
Date ""
Rev ""
Comp ""
Comment1 ""
Comment2 ""
Comment3 ""
Comment4 ""
$EndDescr
NoConn ~ 8400 2000
$Comp
L power:GND #PWR020
U 1 1 5BE1B7BB
P 8850 2850
F 0 "#PWR020" H 8850 2600 50  0001 C CNN
F 1 "GND" H 8855 2677 50  0000 C CNN
F 2 "" H 8850 2850 50  0001 C CNN
F 3 "" H 8850 2850 50  0001 C CNN
	1    8850 2850
	1    0    0    -1  
$EndComp
Wire Wire Line
	8800 2750 8800 2800
Wire Wire Line
	8800 2800 8850 2800
Wire Wire Line
	8900 2800 8900 2750
Wire Wire Line
	8850 2800 8850 2850
Connection ~ 8850 2800
Wire Wire Line
	8850 2800 8900 2800
$Comp
L capstone_library:LTC4071 U1
U 1 1 5BE25083
P 8850 2350
F 0 "U1" H 8550 3500 50  0000 C CNN
F 1 "LTC4071" H 8550 3400 50  0000 C CNN
F 2 "Package_SO:MSOP-8-1EP_3x3mm_P0.65mm_EP2.54x2.8mm" H 8850 1450 50  0001 C CNN
F 3 "https://www.analog.com/media/en/technical-documentation/data-sheets/4071fc.pdf" H 8850 1300 50  0001 C CNN
	1    8850 2350
	1    0    0    -1  
$EndComp
$Comp
L Device:R_Small_US R21
U 1 1 5BE4CDA4
P 7650 2100
F 0 "R21" H 7718 2146 50  0000 L CNN
F 1 "0R" H 7718 2055 50  0000 L CNN
F 2 "Resistor_SMD:R_0603_1608Metric_Pad1.05x0.95mm_HandSolder" H 7650 2100 50  0001 C CNN
F 3 "~" H 7650 2100 50  0001 C CNN
	1    7650 2100
	1    0    0    -1  
$EndComp
$Comp
L Device:R_Small_US R22
U 1 1 5BE50013
P 7650 2600
F 0 "R22" H 7718 2646 50  0000 L CNN
F 1 "0R" H 7718 2555 50  0000 L CNN
F 2 "Resistor_SMD:R_0603_1608Metric_Pad1.05x0.95mm_HandSolder" H 7650 2600 50  0001 C CNN
F 3 "~" H 7650 2600 50  0001 C CNN
	1    7650 2600
	1    0    0    -1  
$EndComp
Wire Wire Line
	7650 2200 7650 2400
Connection ~ 7650 2400
Wire Wire Line
	7650 2400 7650 2500
Wire Notes Line
	7900 1950 7900 2250
Wire Notes Line
	7550 2250 7550 1950
Text Notes 7750 1950 0    50   ~ 0
DNP
$Comp
L Device:C_Small C10
U 1 1 5BE7AC02
P 9700 1300
F 0 "C10" H 9792 1346 50  0000 L CNN
F 1 "0.1uF" H 9792 1255 50  0000 L CNN
F 2 "Capacitor_SMD:C_0603_1608Metric_Pad1.05x0.95mm_HandSolder" H 9700 1300 50  0001 C CNN
F 3 "~" H 9700 1300 50  0001 C CNN
	1    9700 1300
	1    0    0    -1  
$EndComp
$Comp
L power:GND #PWR021
U 1 1 5BE7AD58
P 9700 1400
F 0 "#PWR021" H 9700 1150 50  0001 C CNN
F 1 "GND" H 9705 1227 50  0000 C CNN
F 2 "" H 9700 1400 50  0001 C CNN
F 3 "" H 9700 1400 50  0001 C CNN
	1    9700 1400
	1    0    0    -1  
$EndComp
Text Notes 7750 3300 0    50   ~ 0
LSBEL\nLow battery limit select.\nGND -> 3.2V\nVcc -> 2.7V
Wire Wire Line
	8850 1500 8850 1450
$Comp
L Device:C_Small C8
U 1 1 5BEA79D7
P 7300 2300
F 0 "C8" H 7392 2346 50  0000 L CNN
F 1 "1uF" H 7392 2255 50  0000 L CNN
F 2 "Capacitor_SMD:C_0603_1608Metric_Pad1.05x0.95mm_HandSolder" H 7300 2300 50  0001 C CNN
F 3 "~" H 7300 2300 50  0001 C CNN
	1    7300 2300
	1    0    0    -1  
$EndComp
Wire Wire Line
	7300 2200 7300 1450
Text Label 6900 1450 1    50   ~ 0
V_IN_RPP
Wire Wire Line
	7300 2400 7300 2800
$Comp
L MCU_Module:Arduino_Nano_v3.x A1
U 1 1 5BEB2E64
P 3000 4300
F 0 "A1" H 2350 5400 50  0000 C CNN
F 1 "MCU" H 2350 5300 50  0000 C CNN
F 2 "Module:Arduino_Nano" H 3150 3350 50  0001 L CNN
F 3 "http://www.mouser.com/pdfdocs/Gravitech_Arduino_Nano3_0.pdf" H 3000 3300 50  0001 C CNN
	1    3000 4300
	1    0    0    -1  
$EndComp
$Comp
L Device:R_Small_US R20
U 1 1 5BEB43D2
P 7100 1450
F 0 "R20" V 6895 1450 50  0000 C CNN
F 1 "150R" V 6986 1450 50  0000 C CNN
F 2 "Resistor_THT:R_Axial_DIN0207_L6.3mm_D2.5mm_P7.62mm_Horizontal" H 7100 1450 50  0001 C CNN
F 3 "~" H 7100 1450 50  0001 C CNN
	1    7100 1450
	0    1    1    0   
$EndComp
Wire Wire Line
	7650 1450 7650 2000
Wire Wire Line
	7950 1450 7950 2200
Connection ~ 7950 1450
$Comp
L Device:CP1_Small C11
U 1 1 5BEB600C
P 9800 2650
F 0 "C11" H 9891 2696 50  0000 L CNN
F 1 "1mF" H 9891 2605 50  0000 L CNN
F 2 "Capacitor_THT:CP_Radial_D13.0mm_P5.00mm" H 9800 2650 50  0001 C CNN
F 3 "~" H 9800 2650 50  0001 C CNN
	1    9800 2650
	1    0    0    -1  
$EndComp
$Comp
L Connector:Conn_01x02_Male J3
U 1 1 5BEB60DF
P 10550 1850
F 0 "J3" H 10523 1823 50  0000 R CNN
F 1 "BATTERY" H 10523 1732 50  0000 R CNN
F 2 "Connector_PinSocket_2.54mm:PinSocket_1x02_P2.54mm_Horizontal" H 10550 1850 50  0001 C CNN
F 3 "~" H 10550 1850 50  0001 C CNN
	1    10550 1850
	-1   0    0    -1  
$EndComp
$Comp
L Jumper:Jumper_3_Bridged12 JP1
U 1 1 5BEBC4DC
P 9800 2200
F 0 "JP1" V 9846 2267 50  0000 L CNN
F 1 "P_SEL" V 9755 2267 50  0000 L CNN
F 2 "Connector_PinHeader_2.54mm:PinHeader_1x03_P2.54mm_Vertical" H 9800 2200 50  0001 C CNN
F 3 "~" H 9800 2200 50  0001 C CNN
	1    9800 2200
	0    1    -1   0   
$EndComp
Wire Wire Line
	9800 2450 9800 2550
$Comp
L power:GND #PWR022
U 1 1 5BEBD7AA
P 10150 2950
F 0 "#PWR022" H 10150 2700 50  0001 C CNN
F 1 "GND" H 10155 2777 50  0000 C CNN
F 2 "" H 10150 2950 50  0001 C CNN
F 3 "" H 10150 2950 50  0001 C CNN
	1    10150 2950
	1    0    0    -1  
$EndComp
Wire Wire Line
	9800 2750 9800 2850
Wire Wire Line
	9800 2850 10150 2850
Wire Wire Line
	9800 1850 9800 1950
Wire Wire Line
	10150 2950 10150 2850
Text Label 9400 2200 0    50   ~ 0
V_BAT
Text Label 4950 3800 1    50   ~ 0
V_BAT
Text Label 4950 2900 1    50   ~ 0
V_IN_CL
Text Label 4950 1850 1    50   ~ 0
V_IN_RPP
Text Label 9400 2000 0    50   ~ 0
HBO
Text Label 7300 1450 1    50   ~ 0
V_IN_CL
Text Label 9700 1200 1    50   ~ 0
V_IN_CL
$Comp
L Device:R_Small_US R8
U 1 1 5BEC0100
P 4950 1950
F 0 "R8" H 5018 1996 50  0000 L CNN
F 1 "100kR" H 5018 1905 50  0000 L CNN
F 2 "Resistor_THT:R_Axial_DIN0207_L6.3mm_D2.5mm_P7.62mm_Horizontal" H 4950 1950 50  0001 C CNN
F 3 "~" H 4950 1950 50  0001 C CNN
	1    4950 1950
	1    0    0    -1  
$EndComp
$Comp
L Device:R_Small_US R9
U 1 1 5BEC029C
P 4950 2150
F 0 "R9" H 5018 2196 50  0000 L CNN
F 1 "100kR" H 5018 2105 50  0000 L CNN
F 2 "Resistor_THT:R_Axial_DIN0207_L6.3mm_D2.5mm_P7.62mm_Horizontal" H 4950 2150 50  0001 C CNN
F 3 "~" H 4950 2150 50  0001 C CNN
	1    4950 2150
	1    0    0    -1  
$EndComp
$Comp
L Device:C_Small C2
U 1 1 5BEC0346
P 4550 2150
F 0 "C2" H 4642 2196 50  0000 L CNN
F 1 "0.1uF" H 4642 2105 50  0000 L CNN
F 2 "Capacitor_SMD:C_0603_1608Metric_Pad1.05x0.95mm_HandSolder" H 4550 2150 50  0001 C CNN
F 3 "~" H 4550 2150 50  0001 C CNN
	1    4550 2150
	1    0    0    -1  
$EndComp
Wire Wire Line
	4950 2050 4550 2050
Connection ~ 4950 2050
$Comp
L power:GND #PWR09
U 1 1 5BEC0AA4
P 4550 2250
F 0 "#PWR09" H 4550 2000 50  0001 C CNN
F 1 "GND" H 4555 2077 50  0000 C CNN
F 2 "" H 4550 2250 50  0001 C CNN
F 3 "" H 4550 2250 50  0001 C CNN
	1    4550 2250
	1    0    0    -1  
$EndComp
$Comp
L power:GND #PWR014
U 1 1 5BEC0AE3
P 4950 2250
F 0 "#PWR014" H 4950 2000 50  0001 C CNN
F 1 "GND" H 4955 2077 50  0000 C CNN
F 2 "" H 4950 2250 50  0001 C CNN
F 3 "" H 4950 2250 50  0001 C CNN
	1    4950 2250
	1    0    0    -1  
$EndComp
$Comp
L Device:R_Small_US R10
U 1 1 5BEC1C78
P 4950 3000
F 0 "R10" H 5018 3046 50  0000 L CNN
F 1 "100kR" H 5018 2955 50  0000 L CNN
F 2 "Resistor_THT:R_Axial_DIN0207_L6.3mm_D2.5mm_P7.62mm_Horizontal" H 4950 3000 50  0001 C CNN
F 3 "~" H 4950 3000 50  0001 C CNN
	1    4950 3000
	1    0    0    -1  
$EndComp
$Comp
L Device:R_Small_US R11
U 1 1 5BEC1C7F
P 4950 3200
F 0 "R11" H 5018 3246 50  0000 L CNN
F 1 "100kR" H 5018 3155 50  0000 L CNN
F 2 "Resistor_THT:R_Axial_DIN0207_L6.3mm_D2.5mm_P7.62mm_Horizontal" H 4950 3200 50  0001 C CNN
F 3 "~" H 4950 3200 50  0001 C CNN
	1    4950 3200
	1    0    0    -1  
$EndComp
$Comp
L Device:C_Small C3
U 1 1 5BEC1C86
P 4550 3200
F 0 "C3" H 4642 3246 50  0000 L CNN
F 1 "0.1uF" H 4642 3155 50  0000 L CNN
F 2 "Capacitor_SMD:C_0603_1608Metric_Pad1.05x0.95mm_HandSolder" H 4550 3200 50  0001 C CNN
F 3 "~" H 4550 3200 50  0001 C CNN
	1    4550 3200
	1    0    0    -1  
$EndComp
Wire Wire Line
	4950 3100 4550 3100
Connection ~ 4950 3100
$Comp
L power:GND #PWR010
U 1 1 5BEC1C8F
P 4550 3300
F 0 "#PWR010" H 4550 3050 50  0001 C CNN
F 1 "GND" H 4555 3127 50  0000 C CNN
F 2 "" H 4550 3300 50  0001 C CNN
F 3 "" H 4550 3300 50  0001 C CNN
	1    4550 3300
	1    0    0    -1  
$EndComp
$Comp
L power:GND #PWR015
U 1 1 5BEC1C95
P 4950 3300
F 0 "#PWR015" H 4950 3050 50  0001 C CNN
F 1 "GND" H 4955 3127 50  0000 C CNN
F 2 "" H 4950 3300 50  0001 C CNN
F 3 "" H 4950 3300 50  0001 C CNN
	1    4950 3300
	1    0    0    -1  
$EndComp
$Comp
L Device:R_Small_US R12
U 1 1 5BEC23D4
P 4950 3900
F 0 "R12" H 5018 3946 50  0000 L CNN
F 1 "100kR" H 5018 3855 50  0000 L CNN
F 2 "Resistor_THT:R_Axial_DIN0207_L6.3mm_D2.5mm_P7.62mm_Horizontal" H 4950 3900 50  0001 C CNN
F 3 "~" H 4950 3900 50  0001 C CNN
	1    4950 3900
	1    0    0    -1  
$EndComp
$Comp
L Device:R_Small_US R13
U 1 1 5BEC23DB
P 4950 4100
F 0 "R13" H 5018 4146 50  0000 L CNN
F 1 "100kR" H 5018 4055 50  0000 L CNN
F 2 "Resistor_THT:R_Axial_DIN0207_L6.3mm_D2.5mm_P7.62mm_Horizontal" H 4950 4100 50  0001 C CNN
F 3 "~" H 4950 4100 50  0001 C CNN
	1    4950 4100
	1    0    0    -1  
$EndComp
$Comp
L Device:C_Small C4
U 1 1 5BEC23E2
P 4550 4100
F 0 "C4" H 4642 4146 50  0000 L CNN
F 1 "0.1uF" H 4642 4055 50  0000 L CNN
F 2 "Capacitor_SMD:C_0603_1608Metric_Pad1.05x0.95mm_HandSolder" H 4550 4100 50  0001 C CNN
F 3 "~" H 4550 4100 50  0001 C CNN
	1    4550 4100
	1    0    0    -1  
$EndComp
Connection ~ 4950 4000
$Comp
L power:GND #PWR011
U 1 1 5BEC23EB
P 4550 4200
F 0 "#PWR011" H 4550 3950 50  0001 C CNN
F 1 "GND" H 4555 4027 50  0000 C CNN
F 2 "" H 4550 4200 50  0001 C CNN
F 3 "" H 4550 4200 50  0001 C CNN
	1    4550 4200
	1    0    0    -1  
$EndComp
$Comp
L power:GND #PWR016
U 1 1 5BEC23F1
P 4950 4200
F 0 "#PWR016" H 4950 3950 50  0001 C CNN
F 1 "GND" H 4955 4027 50  0000 C CNN
F 2 "" H 4950 4200 50  0001 C CNN
F 3 "" H 4950 4200 50  0001 C CNN
	1    4950 4200
	1    0    0    -1  
$EndComp
Text Label 1200 3900 1    50   ~ 0
HBO
$Comp
L Device:R_Small_US R2
U 1 1 5BEC4B0F
P 1200 4000
F 0 "R2" H 1268 4046 50  0000 L CNN
F 1 "100kR" H 1268 3955 50  0000 L CNN
F 2 "Resistor_THT:R_Axial_DIN0207_L6.3mm_D2.5mm_P7.62mm_Horizontal" H 1200 4000 50  0001 C CNN
F 3 "~" H 1200 4000 50  0001 C CNN
	1    1200 4000
	-1   0    0    -1  
$EndComp
$Comp
L Device:R_Small_US R3
U 1 1 5BEC4B16
P 1200 4200
F 0 "R3" H 1268 4246 50  0000 L CNN
F 1 "100kR" H 1268 4155 50  0000 L CNN
F 2 "Resistor_THT:R_Axial_DIN0207_L6.3mm_D2.5mm_P7.62mm_Horizontal" H 1200 4200 50  0001 C CNN
F 3 "~" H 1200 4200 50  0001 C CNN
	1    1200 4200
	-1   0    0    -1  
$EndComp
$Comp
L Device:C_Small C1
U 1 1 5BEC4B1D
P 1600 4200
F 0 "C1" H 1692 4246 50  0000 L CNN
F 1 "0.1uF" H 1692 4155 50  0000 L CNN
F 2 "Capacitor_SMD:C_0603_1608Metric_Pad1.05x0.95mm_HandSolder" H 1600 4200 50  0001 C CNN
F 3 "~" H 1600 4200 50  0001 C CNN
	1    1600 4200
	-1   0    0    -1  
$EndComp
Wire Wire Line
	1200 4100 1600 4100
Connection ~ 1200 4100
$Comp
L power:GND #PWR03
U 1 1 5BEC4B26
P 1600 4300
F 0 "#PWR03" H 1600 4050 50  0001 C CNN
F 1 "GND" H 1605 4127 50  0000 C CNN
F 2 "" H 1600 4300 50  0001 C CNN
F 3 "" H 1600 4300 50  0001 C CNN
	1    1600 4300
	-1   0    0    -1  
$EndComp
$Comp
L power:GND #PWR02
U 1 1 5BEC4B2C
P 1200 4300
F 0 "#PWR02" H 1200 4050 50  0001 C CNN
F 1 "GND" H 1205 4127 50  0000 C CNN
F 2 "" H 1200 4300 50  0001 C CNN
F 3 "" H 1200 4300 50  0001 C CNN
	1    1200 4300
	-1   0    0    -1  
$EndComp
Wire Wire Line
	3750 4300 3500 4300
Wire Wire Line
	3500 4400 3850 4400
Wire Wire Line
	4550 4000 4950 4000
NoConn ~ 2900 3300
NoConn ~ 3100 3300
Text Label 3200 3100 1    50   ~ 0
P5V
Wire Wire Line
	3200 3100 3200 3300
NoConn ~ 3500 3700
NoConn ~ 3500 3800
NoConn ~ 3500 4100
NoConn ~ 2500 4000
NoConn ~ 2500 4900
NoConn ~ 2500 5000
$Comp
L power:GND #PWR08
U 1 1 5BEDC5AF
P 3050 5500
F 0 "#PWR08" H 3050 5250 50  0001 C CNN
F 1 "GND" H 3055 5327 50  0000 C CNN
F 2 "" H 3050 5500 50  0001 C CNN
F 3 "" H 3050 5500 50  0001 C CNN
	1    3050 5500
	1    0    0    -1  
$EndComp
Wire Wire Line
	3000 5300 3000 5400
Wire Wire Line
	3000 5400 3050 5400
Wire Wire Line
	3100 5400 3100 5300
Wire Wire Line
	3050 5400 3050 5500
Connection ~ 3050 5400
Wire Wire Line
	3050 5400 3100 5400
$Comp
L Device:CP1_Small C7
U 1 1 5BEE0E10
P 6900 2300
F 0 "C7" H 6991 2346 50  0000 L CNN
F 1 "47uF" H 6991 2255 50  0000 L CNN
F 2 "Capacitor_THT:CP_Radial_D6.3mm_P2.50mm" H 6900 2300 50  0001 C CNN
F 3 "~" H 6900 2300 50  0001 C CNN
	1    6900 2300
	1    0    0    -1  
$EndComp
Wire Wire Line
	6900 2200 6900 1450
Wire Wire Line
	6900 2400 6900 2800
Wire Wire Line
	6900 2800 7300 2800
Connection ~ 7300 2800
Wire Wire Line
	7650 1450 7950 1450
Wire Wire Line
	7300 2800 7650 2800
Wire Wire Line
	7650 2700 7650 2800
Connection ~ 7650 2800
Wire Wire Line
	7950 1450 8100 1450
Wire Wire Line
	7650 2800 8100 2800
Connection ~ 8800 2800
Wire Wire Line
	7950 2200 8400 2200
Wire Wire Line
	7650 2400 8400 2400
$Comp
L Device:R_Small_US R23
U 1 1 5BEF007A
P 8100 1650
F 0 "R23" H 8168 1696 50  0000 L CNN
F 1 "0R" H 8168 1605 50  0000 L CNN
F 2 "Resistor_SMD:R_0603_1608Metric_Pad1.05x0.95mm_HandSolder" H 8100 1650 50  0001 C CNN
F 3 "~" H 8100 1650 50  0001 C CNN
	1    8100 1650
	1    0    0    -1  
$EndComp
Text Notes 8000 1400 0    50   ~ 0
DNP
Wire Notes Line
	8000 1500 8350 1500
Wire Wire Line
	9400 2000 9300 2000
Wire Wire Line
	8100 1800 8100 1750
Wire Wire Line
	8100 1800 8400 1800
Wire Wire Line
	8100 1550 8100 1450
Connection ~ 8100 1450
Wire Wire Line
	8100 1450 8850 1450
$Comp
L Device:R_Small_US R24
U 1 1 5BEBA8E6
P 8100 2000
F 0 "R24" H 8168 2046 50  0000 L CNN
F 1 "0R" H 8168 1955 50  0000 L CNN
F 2 "Resistor_SMD:R_0603_1608Metric_Pad1.05x0.95mm_HandSolder" H 8100 2000 50  0001 C CNN
F 3 "~" H 8100 2000 50  0001 C CNN
	1    8100 2000
	1    0    0    -1  
$EndComp
Wire Wire Line
	8100 1900 8100 1800
Connection ~ 8100 1800
Wire Notes Line
	8350 2150 8000 2150
Wire Notes Line
	8350 1500 8350 2150
Wire Notes Line
	8000 1500 8000 2150
Wire Wire Line
	8100 2100 8100 2800
Connection ~ 8100 2800
Wire Wire Line
	8100 2800 8800 2800
Connection ~ 1600 4100
$Comp
L Connector:Conn_01x03_Male J1
U 1 1 5BEC0B78
P 1600 3600
F 0 "J1" H 1400 3650 50  0000 C CNN
F 1 "COMMS" H 1400 3550 50  0000 C CNN
F 2 "Connector_PinHeader_2.54mm:PinHeader_1x03_P2.54mm_Horizontal" H 1600 3600 50  0001 C CNN
F 3 "~" H 1600 3600 50  0001 C CNN
	1    1600 3600
	1    0    0    -1  
$EndComp
$Comp
L power:GND #PWR05
U 1 1 5BEC0C21
P 1900 3800
F 0 "#PWR05" H 1900 3550 50  0001 C CNN
F 1 "GND" H 1905 3627 50  0000 C CNN
F 2 "" H 1900 3800 50  0001 C CNN
F 3 "" H 1900 3800 50  0001 C CNN
	1    1900 3800
	1    0    0    -1  
$EndComp
Wire Wire Line
	1800 3700 1900 3700
Wire Wire Line
	1800 3600 2000 3600
Wire Wire Line
	2000 3600 2000 3800
Wire Wire Line
	2000 3800 2500 3800
Wire Wire Line
	2500 3700 2100 3700
Wire Wire Line
	2100 3700 2100 3500
Wire Wire Line
	2100 3500 1800 3500
NoConn ~ 3500 4800
NoConn ~ 3500 4900
NoConn ~ 3500 5000
Text Notes 5800 750  0    79   ~ 16
BATTERY
Text Notes 5800 3700 0    79   ~ 16
SOLAR
Text Notes 650  750  0    79   ~ 16
MCU
Wire Notes Line
	5750 3550 11100 3550
Wire Notes Line
	5750 6400 11100 6400
Wire Notes Line
	11100 600  11100 6400
Wire Wire Line
	3500 4500 3950 4500
Wire Wire Line
	3750 2050 4550 2050
Wire Wire Line
	3750 2050 3750 4300
Connection ~ 4550 2050
Wire Wire Line
	3850 3100 4550 3100
Wire Wire Line
	3850 3100 3850 4400
Connection ~ 4550 3100
Wire Wire Line
	3950 4000 4550 4000
Wire Wire Line
	3950 4000 3950 4500
Connection ~ 4550 4000
Wire Notes Line
	600  600  600  7650
Wire Notes Line
	600  7650 5750 7650
Wire Notes Line
	600  600  11100 600 
Wire Notes Line
	5750 600  5750 7650
$Comp
L Device:LED_Small_ALT D1
U 1 1 5BEF5ED5
P 1200 2250
F 0 "D1" V 1246 2182 50  0000 R CNN
F 1 "LED1" V 1155 2182 50  0000 R CNN
F 2 "LED_THT:LED_D5.0mm_Clear" V 1200 2250 50  0001 C CNN
F 3 "~" V 1200 2250 50  0001 C CNN
	1    1200 2250
	0    -1   -1   0   
$EndComp
$Comp
L Device:R_Small_US R1
U 1 1 5BEF627F
P 1200 2450
F 0 "R1" H 1268 2496 50  0000 L CNN
F 1 "1kR" H 1268 2405 50  0000 L CNN
F 2 "Resistor_THT:R_Axial_DIN0207_L6.3mm_D2.5mm_P7.62mm_Horizontal" H 1200 2450 50  0001 C CNN
F 3 "~" H 1200 2450 50  0001 C CNN
	1    1200 2450
	1    0    0    -1  
$EndComp
Text Label 1200 2150 1    50   ~ 0
P5V
$Comp
L power:GND #PWR01
U 1 1 5BEF6355
P 1200 2550
F 0 "#PWR01" H 1200 2300 50  0001 C CNN
F 1 "GND" H 1205 2377 50  0000 C CNN
F 2 "" H 1200 2550 50  0001 C CNN
F 3 "" H 1200 2550 50  0001 C CNN
	1    1200 2550
	1    0    0    -1  
$EndComp
$Comp
L Device:LED_Small_ALT D2
U 1 1 5BEFCBCD
P 1650 2250
F 0 "D2" V 1696 2182 50  0000 R CNN
F 1 "LED2" V 1605 2182 50  0000 R CNN
F 2 "LED_THT:LED_D5.0mm_Clear" V 1650 2250 50  0001 C CNN
F 3 "~" V 1650 2250 50  0001 C CNN
	1    1650 2250
	0    -1   -1   0   
$EndComp
$Comp
L Device:R_Small_US R4
U 1 1 5BEFCBD4
P 1650 2450
F 0 "R4" H 1718 2496 50  0000 L CNN
F 1 "1kR" H 1718 2405 50  0000 L CNN
F 2 "Resistor_THT:R_Axial_DIN0207_L6.3mm_D2.5mm_P7.62mm_Horizontal" H 1650 2450 50  0001 C CNN
F 3 "~" H 1650 2450 50  0001 C CNN
	1    1650 2450
	1    0    0    -1  
$EndComp
$Comp
L power:GND #PWR04
U 1 1 5BEFCBDC
P 1650 2550
F 0 "#PWR04" H 1650 2300 50  0001 C CNN
F 1 "GND" H 1655 2377 50  0000 C CNN
F 2 "" H 1650 2550 50  0001 C CNN
F 3 "" H 1650 2550 50  0001 C CNN
	1    1650 2550
	1    0    0    -1  
$EndComp
$Comp
L Device:LED_Small_ALT D4
U 1 1 5BEFE6CC
P 2100 2250
F 0 "D4" V 2146 2182 50  0000 R CNN
F 1 "LED3" V 2055 2182 50  0000 R CNN
F 2 "LED_THT:LED_D5.0mm_Clear" V 2100 2250 50  0001 C CNN
F 3 "~" V 2100 2250 50  0001 C CNN
	1    2100 2250
	0    -1   -1   0   
$EndComp
$Comp
L Device:R_Small_US R6
U 1 1 5BEFE6D3
P 2100 2450
F 0 "R6" H 2168 2496 50  0000 L CNN
F 1 "1kR" H 2168 2405 50  0000 L CNN
F 2 "Resistor_THT:R_Axial_DIN0207_L6.3mm_D2.5mm_P7.62mm_Horizontal" H 2100 2450 50  0001 C CNN
F 3 "~" H 2100 2450 50  0001 C CNN
	1    2100 2450
	1    0    0    -1  
$EndComp
$Comp
L power:GND #PWR06
U 1 1 5BEFE6DB
P 2100 2550
F 0 "#PWR06" H 2100 2300 50  0001 C CNN
F 1 "GND" H 2105 2377 50  0000 C CNN
F 2 "" H 2100 2550 50  0001 C CNN
F 3 "" H 2100 2550 50  0001 C CNN
	1    2100 2550
	1    0    0    -1  
$EndComp
$Comp
L Device:LED_Small_ALT D5
U 1 1 5BF001F7
P 2550 2250
F 0 "D5" V 2596 2182 50  0000 R CNN
F 1 "LED4" V 2505 2182 50  0000 R CNN
F 2 "LED_THT:LED_D5.0mm_Clear" V 2550 2250 50  0001 C CNN
F 3 "~" V 2550 2250 50  0001 C CNN
	1    2550 2250
	0    -1   -1   0   
$EndComp
$Comp
L Device:R_Small_US R7
U 1 1 5BF001FE
P 2550 2450
F 0 "R7" H 2618 2496 50  0000 L CNN
F 1 "1kR" H 2618 2405 50  0000 L CNN
F 2 "Resistor_THT:R_Axial_DIN0207_L6.3mm_D2.5mm_P7.62mm_Horizontal" H 2550 2450 50  0001 C CNN
F 3 "~" H 2550 2450 50  0001 C CNN
	1    2550 2450
	1    0    0    -1  
$EndComp
$Comp
L power:GND #PWR07
U 1 1 5BF00206
P 2550 2550
F 0 "#PWR07" H 2550 2300 50  0001 C CNN
F 1 "GND" H 2555 2377 50  0000 C CNN
F 2 "" H 2550 2550 50  0001 C CNN
F 3 "" H 2550 2550 50  0001 C CNN
	1    2550 2550
	1    0    0    -1  
$EndComp
$Comp
L Connector:Conn_01x02_Male J2
U 1 1 5BF05CD8
P 7100 5000
F 0 "J2" H 6750 5000 50  0000 R CNN
F 1 "SOLAR_POWER" H 7000 4900 50  0000 R CNN
F 2 "Connector_PinSocket_2.54mm:PinSocket_1x02_P2.54mm_Horizontal" H 7100 5000 50  0001 C CNN
F 3 "~" H 7100 5000 50  0001 C CNN
	1    7100 5000
	1    0    0    -1  
$EndComp
NoConn ~ 2500 3900
Wire Wire Line
	1600 4100 2500 4100
Text Notes 7700 1200 0    50   ~ 0
ADJ\nVCC -> 4.2V\nFLOAT -> 4.1V\nGND -> 4.0V
Wire Notes Line
	7550 1950 7900 1950
Wire Notes Line
	7550 2250 7900 2250
$Comp
L Device:R_Small_US R25
U 1 1 5BF2B4B8
P 8300 4700
F 0 "R25" V 8095 4700 50  0000 C CNN
F 1 "100R" V 8186 4700 50  0000 C CNN
F 2 "Resistor_THT:R_Axial_DIN0207_L6.3mm_D2.5mm_P7.62mm_Horizontal" H 8300 4700 50  0001 C CNN
F 3 "~" H 8300 4700 50  0001 C CNN
	1    8300 4700
	0    1    1    0   
$EndComp
$Comp
L Device:R_Small_US R26
U 1 1 5BF2B5E3
P 9250 5000
F 0 "R26" H 9182 4954 50  0000 R CNN
F 1 "500R" H 9182 5045 50  0000 R CNN
F 2 "Resistor_THT:R_Axial_DIN0207_L6.3mm_D2.5mm_P7.62mm_Horizontal" H 9250 5000 50  0001 C CNN
F 3 "~" H 9250 5000 50  0001 C CNN
	1    9250 5000
	-1   0    0    1   
$EndComp
Wire Wire Line
	7300 5000 7450 5000
Wire Wire Line
	9250 4700 9250 4900
Wire Wire Line
	9250 5100 9250 5350
Wire Wire Line
	9250 5350 8650 5350
Wire Wire Line
	7450 5100 7300 5100
$Comp
L power:GND #PWR019
U 1 1 5BF32AFD
P 8650 5450
F 0 "#PWR019" H 8650 5200 50  0001 C CNN
F 1 "GND" H 8655 5277 50  0000 C CNN
F 2 "" H 8650 5450 50  0001 C CNN
F 3 "" H 8650 5450 50  0001 C CNN
	1    8650 5450
	1    0    0    -1  
$EndComp
Wire Wire Line
	8650 5450 8650 5350
Connection ~ 8650 5350
Text Label 8150 4700 1    50   ~ 0
V_SOLAR
Text Label 8550 4700 1    50   ~ 0
V_SOLAR_CM
Text Label 5000 4800 1    50   ~ 0
V_SOLAR
$Comp
L Device:R_Small_US R14
U 1 1 5BF3EE61
P 5000 4900
F 0 "R14" H 5068 4946 50  0000 L CNN
F 1 "100kR" H 5068 4855 50  0000 L CNN
F 2 "Resistor_THT:R_Axial_DIN0207_L6.3mm_D2.5mm_P7.62mm_Horizontal" H 5000 4900 50  0001 C CNN
F 3 "~" H 5000 4900 50  0001 C CNN
	1    5000 4900
	1    0    0    -1  
$EndComp
$Comp
L Device:R_Small_US R15
U 1 1 5BF3EE68
P 5000 5100
F 0 "R15" H 5068 5146 50  0000 L CNN
F 1 "100kR" H 5068 5055 50  0000 L CNN
F 2 "Resistor_THT:R_Axial_DIN0207_L6.3mm_D2.5mm_P7.62mm_Horizontal" H 5000 5100 50  0001 C CNN
F 3 "~" H 5000 5100 50  0001 C CNN
	1    5000 5100
	1    0    0    -1  
$EndComp
$Comp
L Device:C_Small C5
U 1 1 5BF3EE6F
P 4600 5100
F 0 "C5" H 4692 5146 50  0000 L CNN
F 1 "0.1uF" H 4692 5055 50  0000 L CNN
F 2 "Capacitor_SMD:C_0603_1608Metric_Pad1.05x0.95mm_HandSolder" H 4600 5100 50  0001 C CNN
F 3 "~" H 4600 5100 50  0001 C CNN
	1    4600 5100
	1    0    0    -1  
$EndComp
Connection ~ 5000 5000
$Comp
L power:GND #PWR012
U 1 1 5BF3EE77
P 4600 5200
F 0 "#PWR012" H 4600 4950 50  0001 C CNN
F 1 "GND" H 4605 5027 50  0000 C CNN
F 2 "" H 4600 5200 50  0001 C CNN
F 3 "" H 4600 5200 50  0001 C CNN
	1    4600 5200
	1    0    0    -1  
$EndComp
$Comp
L power:GND #PWR017
U 1 1 5BF3EE7D
P 5000 5200
F 0 "#PWR017" H 5000 4950 50  0001 C CNN
F 1 "GND" H 5005 5027 50  0000 C CNN
F 2 "" H 5000 5200 50  0001 C CNN
F 3 "" H 5000 5200 50  0001 C CNN
	1    5000 5200
	1    0    0    -1  
$EndComp
Wire Wire Line
	4600 5000 5000 5000
Connection ~ 4600 5000
Text Label 5000 5950 1    50   ~ 0
V_SOLAR_CM
$Comp
L Device:R_Small_US R16
U 1 1 5BF41188
P 5000 6050
F 0 "R16" H 5068 6096 50  0000 L CNN
F 1 "100kR" H 5068 6005 50  0000 L CNN
F 2 "Resistor_THT:R_Axial_DIN0207_L6.3mm_D2.5mm_P7.62mm_Horizontal" H 5000 6050 50  0001 C CNN
F 3 "~" H 5000 6050 50  0001 C CNN
	1    5000 6050
	1    0    0    -1  
$EndComp
$Comp
L Device:R_Small_US R17
U 1 1 5BF4118F
P 5000 6250
F 0 "R17" H 5068 6296 50  0000 L CNN
F 1 "100kR" H 5068 6205 50  0000 L CNN
F 2 "Resistor_THT:R_Axial_DIN0207_L6.3mm_D2.5mm_P7.62mm_Horizontal" H 5000 6250 50  0001 C CNN
F 3 "~" H 5000 6250 50  0001 C CNN
	1    5000 6250
	1    0    0    -1  
$EndComp
$Comp
L Device:C_Small C6
U 1 1 5BF41196
P 4600 6250
F 0 "C6" H 4692 6296 50  0000 L CNN
F 1 "0.1uF" H 4692 6205 50  0000 L CNN
F 2 "Capacitor_SMD:C_0603_1608Metric_Pad1.05x0.95mm_HandSolder" H 4600 6250 50  0001 C CNN
F 3 "~" H 4600 6250 50  0001 C CNN
	1    4600 6250
	1    0    0    -1  
$EndComp
Connection ~ 5000 6150
$Comp
L power:GND #PWR013
U 1 1 5BF4119E
P 4600 6350
F 0 "#PWR013" H 4600 6100 50  0001 C CNN
F 1 "GND" H 4605 6177 50  0000 C CNN
F 2 "" H 4600 6350 50  0001 C CNN
F 3 "" H 4600 6350 50  0001 C CNN
	1    4600 6350
	1    0    0    -1  
$EndComp
$Comp
L power:GND #PWR018
U 1 1 5BF411A4
P 5000 6350
F 0 "#PWR018" H 5000 6100 50  0001 C CNN
F 1 "GND" H 5005 6177 50  0000 C CNN
F 2 "" H 5000 6350 50  0001 C CNN
F 3 "" H 5000 6350 50  0001 C CNN
	1    5000 6350
	1    0    0    -1  
$EndComp
Wire Wire Line
	4600 6150 5000 6150
Connection ~ 4600 6150
Wire Wire Line
	3500 4600 3950 4600
Wire Wire Line
	3950 4600 3950 5000
Wire Wire Line
	3950 5000 4600 5000
Wire Wire Line
	3500 4700 3850 4700
Wire Wire Line
	3850 4700 3850 6150
Wire Wire Line
	3850 6150 4600 6150
$Comp
L Device:CP1_Small C9
U 1 1 5BF55111
P 8000 5000
F 0 "C9" H 8091 5046 50  0000 L CNN
F 1 "47uF" H 8091 4955 50  0000 L CNN
F 2 "Capacitor_THT:CP_Radial_D6.3mm_P2.50mm" H 8000 5000 50  0001 C CNN
F 3 "~" H 8000 5000 50  0001 C CNN
	1    8000 5000
	1    0    0    -1  
$EndComp
Wire Wire Line
	7600 4700 7450 4700
Wire Wire Line
	7450 4700 7450 5000
Wire Wire Line
	7450 5100 7450 5350
Wire Wire Line
	7450 5350 8000 5350
Wire Wire Line
	7800 4700 8000 4700
Wire Wire Line
	8000 4900 8000 4700
Wire Wire Line
	8000 5100 8000 5350
Connection ~ 8000 4700
Connection ~ 8000 5350
Wire Wire Line
	8000 4700 8200 4700
Wire Wire Line
	8000 5350 8650 5350
Connection ~ 7650 1450
$Comp
L Device:D_Schottky_Small_ALT D7
U 1 1 5BF6F231
P 7700 4700
F 0 "D7" H 7700 4495 50  0000 C CNN
F 1 "D_RVP" H 7700 4586 50  0000 C CNN
F 2 "Diode_SMD:D_0603_1608Metric_Castellated" V 7700 4700 50  0001 C CNN
F 3 "~" V 7700 4700 50  0001 C CNN
	1    7700 4700
	-1   0    0    1   
$EndComp
Text Label 2500 4200 2    50   ~ 0
VSL
Text Label 2500 4300 2    50   ~ 0
VBL
Text Label 2500 4400 2    50   ~ 0
CHRG_C
Text Label 1650 2150 1    50   ~ 0
VSL
Text Label 2100 2150 1    50   ~ 0
VBL
Text Label 2550 2150 1    50   ~ 0
CHRG_C
Text Notes 7400 7500 0    50   ~ 10
POWER PROOF OF CONCEPT
Text Notes 8150 7650 0    50   ~ 0
NOV 2018
Text Notes 7000 7100 0    50   ~ 10
DESIGNED:
Text Notes 7450 7100 0    50   ~ 0
A. MERCIK
Wire Wire Line
	7200 1450 7300 1450
Wire Wire Line
	7000 1450 6900 1450
Text Label 2500 4500 2    50   ~ 0
B_CHRG
Text Label 1350 5000 2    50   ~ 0
B_DRAIN
$Comp
L Device:D_Schottky_Small_ALT D6
U 1 1 5BF8269F
P 6650 1450
F 0 "D6" H 6550 1500 50  0000 C CNN
F 1 "D_RVP" H 6550 1600 50  0000 C CNN
F 2 "Diode_SMD:D_0603_1608Metric_Castellated" V 6650 1450 50  0001 C CNN
F 3 "~" V 6650 1450 50  0001 C CNN
	1    6650 1450
	-1   0    0    1   
$EndComp
Wire Wire Line
	7300 1450 7650 1450
Connection ~ 7300 1450
Text Label 9050 1450 0    50   ~ 0
B_DRAIN
Wire Wire Line
	8850 1450 9050 1450
Connection ~ 8850 1450
$Comp
L Device:R_Small_US R5
U 1 1 5BF98312
P 2050 5000
F 0 "R5" V 2255 5000 50  0000 C CNN
F 1 "500R" V 2164 5000 50  0000 C CNN
F 2 "Resistor_THT:R_Axial_DIN0207_L6.3mm_D2.5mm_P7.62mm_Horizontal" H 2050 5000 50  0001 C CNN
F 3 "~" H 2050 5000 50  0001 C CNN
	1    2050 5000
	0    -1   -1   0   
$EndComp
Wire Wire Line
	1750 5000 1950 5000
Wire Wire Line
	2150 5000 2300 5000
Wire Wire Line
	2300 5000 2300 4600
Wire Wire Line
	2300 4600 2500 4600
$Comp
L Device:LED_Small_ALT D3
U 1 1 5BF9F48E
P 1650 5000
F 0 "D3" H 1650 4795 50  0000 C CNN
F 1 "LED5" H 1650 4886 50  0000 C CNN
F 2 "LED_THT:LED_D5.0mm_Clear" V 1650 5000 50  0001 C CNN
F 3 "~" V 1650 5000 50  0001 C CNN
	1    1650 5000
	-1   0    0    1   
$EndComp
Wire Wire Line
	1350 5000 1550 5000
Text Label 6400 1150 2    50   ~ 0
B_CHRG
Text Label 6250 1750 2    50   ~ 0
P5V
Wire Wire Line
	6750 1450 6900 1450
Connection ~ 6900 1450
Wire Wire Line
	6400 1450 6550 1450
$Comp
L Device:R_Small_US R19
U 1 1 5BFAF49B
P 6400 1600
F 0 "R19" H 6468 1646 50  0000 L CNN
F 1 "0R" H 6468 1555 50  0000 L CNN
F 2 "Resistor_SMD:R_0603_1608Metric_Pad1.05x0.95mm_HandSolder" H 6400 1600 50  0001 C CNN
F 3 "~" H 6400 1600 50  0001 C CNN
	1    6400 1600
	1    0    0    -1  
$EndComp
$Comp
L Device:R_Small_US R18
U 1 1 5BFB01AB
P 6400 1300
F 0 "R18" H 6468 1346 50  0000 L CNN
F 1 "0R" H 6468 1255 50  0000 L CNN
F 2 "Resistor_SMD:R_0603_1608Metric_Pad1.05x0.95mm_HandSolder" H 6400 1300 50  0001 C CNN
F 3 "~" H 6400 1300 50  0001 C CNN
	1    6400 1300
	1    0    0    -1  
$EndComp
Wire Wire Line
	6250 1750 6400 1750
Wire Wire Line
	6400 1750 6400 1700
Wire Wire Line
	6400 1150 6400 1200
Wire Wire Line
	6400 1400 6400 1450
Connection ~ 6400 1450
Wire Wire Line
	6400 1450 6400 1500
Text Notes 6300 1900 0    50   ~ 0
DNP
Wire Notes Line
	6300 1500 6600 1500
Wire Notes Line
	6600 1500 6600 1800
Wire Notes Line
	6600 1800 6300 1800
Wire Notes Line
	6300 1800 6300 1500
Wire Wire Line
	10350 1850 9800 1850
Wire Wire Line
	10350 1950 10350 2850
Wire Wire Line
	10350 2850 10150 2850
Connection ~ 10150 2850
Wire Wire Line
	9650 2200 9300 2200
Wire Wire Line
	1900 3700 1900 3800
NoConn ~ 2500 4700
NoConn ~ 2500 4800
Text Notes 1250 2100 0    50   ~ 0
GRN
Text Notes 1700 2100 0    50   ~ 0
RED
Text Notes 2150 2100 0    50   ~ 0
RED
Text Notes 2600 2100 0    50   ~ 0
BLU
Text Notes 1600 5200 0    50   ~ 0
RED
$Comp
L Device:R_Small_US R27
U 1 1 5BECA065
P 8850 4700
F 0 "R27" V 8645 4700 50  0000 C CNN
F 1 "JMP" V 8736 4700 50  0000 C CNN
F 2 "Connector_PinHeader_2.54mm:PinHeader_1x02_P2.54mm_Vertical" H 8850 4700 50  0001 C CNN
F 3 "~" H 8850 4700 50  0001 C CNN
	1    8850 4700
	0    1    1    0   
$EndComp
Wire Wire Line
	8400 4700 8750 4700
Wire Wire Line
	8950 4700 9250 4700
$EndSCHEMATC
