EESchema Schematic File Version 4
LIBS:ltc-battery-power-cache
EELAYER 26 0
EELAYER END
$Descr A4 11693 8268
encoding utf-8
Sheet 1 1
Title ""
Date ""
Rev ""
Comp ""
Comment1 ""
Comment2 ""
Comment3 ""
Comment4 ""
$EndDescr
NoConn ~ 7300 3450
$Comp
L power:GND #PWR02
U 1 1 5BE1B7BB
P 7750 4300
F 0 "#PWR02" H 7750 4050 50  0001 C CNN
F 1 "GND" H 7755 4127 50  0000 C CNN
F 2 "" H 7750 4300 50  0001 C CNN
F 3 "" H 7750 4300 50  0001 C CNN
	1    7750 4300
	1    0    0    -1  
$EndComp
Wire Wire Line
	7700 4200 7700 4250
Wire Wire Line
	7700 4250 7750 4250
Wire Wire Line
	7800 4250 7800 4200
Wire Wire Line
	7750 4250 7750 4300
Connection ~ 7750 4250
Wire Wire Line
	7750 4250 7800 4250
$Comp
L capstone_library:LTC4071 U1
U 1 1 5BE25083
P 7750 3800
F 0 "U1" H 7450 4950 50  0000 C CNN
F 1 "LTC4071" H 7450 4850 50  0000 C CNN
F 2 "Package_SO:MSOP-8-1EP_3x3mm_P0.65mm_EP2.54x2.8mm" H 7750 2900 50  0001 C CNN
F 3 "https://www.analog.com/media/en/technical-documentation/data-sheets/4071fc.pdf" H 7750 2750 50  0001 C CNN
	1    7750 3800
	1    0    0    -1  
$EndComp
$Comp
L Device:R_Small_US R1
U 1 1 5BE4CDA4
P 6550 3550
F 0 "R1" H 6618 3596 50  0000 L CNN
F 1 "0R" H 6618 3505 50  0000 L CNN
F 2 "Resistor_SMD:R_0603_1608Metric_Pad1.05x0.95mm_HandSolder" H 6550 3550 50  0001 C CNN
F 3 "~" H 6550 3550 50  0001 C CNN
	1    6550 3550
	1    0    0    -1  
$EndComp
$Comp
L Device:R_Small_US R2
U 1 1 5BE50013
P 6550 4050
F 0 "R2" H 6618 4096 50  0000 L CNN
F 1 "0R" H 6618 4005 50  0000 L CNN
F 2 "Resistor_SMD:R_0603_1608Metric_Pad1.05x0.95mm_HandSolder" H 6550 4050 50  0001 C CNN
F 3 "~" H 6550 4050 50  0001 C CNN
	1    6550 4050
	1    0    0    -1  
$EndComp
Wire Wire Line
	6550 3650 6550 3850
Connection ~ 6550 3850
Wire Wire Line
	6550 3850 6550 3950
Wire Notes Line
	6450 3400 6750 3400
Wire Notes Line
	6750 3400 6750 3700
Wire Notes Line
	6750 3700 6450 3700
Wire Notes Line
	6450 3700 6450 3400
Text Notes 6600 3400 0    50   ~ 0
DNP
$Comp
L Device:C_Small C2
U 1 1 5BE7AC02
P 8050 2550
F 0 "C2" H 8142 2596 50  0000 L CNN
F 1 "0.1uF" H 8142 2505 50  0000 L CNN
F 2 "Capacitor_SMD:C_0603_1608Metric_Pad1.05x0.95mm_HandSolder" H 8050 2550 50  0001 C CNN
F 3 "~" H 8050 2550 50  0001 C CNN
	1    8050 2550
	1    0    0    -1  
$EndComp
$Comp
L power:GND #PWR03
U 1 1 5BE7AD58
P 8050 2650
F 0 "#PWR03" H 8050 2400 50  0001 C CNN
F 1 "GND" H 8055 2477 50  0000 C CNN
F 2 "" H 8050 2650 50  0001 C CNN
F 3 "" H 8050 2650 50  0001 C CNN
	1    8050 2650
	1    0    0    -1  
$EndComp
Text Notes 6500 4900 0    50   ~ 0
LSBEL\nLow battery limit select.\nGND -> 3.2V\nVcc -> 2.7V
Wire Wire Line
	7750 2950 7750 2900
$Comp
L Device:C_Small C1
U 1 1 5BEA79D7
P 6200 3750
F 0 "C1" H 6292 3796 50  0000 L CNN
F 1 "1uF" H 6292 3705 50  0000 L CNN
F 2 "Capacitor_SMD:C_0603_1608Metric_Pad1.05x0.95mm_HandSolder" H 6200 3750 50  0001 C CNN
F 3 "~" H 6200 3750 50  0001 C CNN
	1    6200 3750
	1    0    0    -1  
$EndComp
Wire Wire Line
	6200 3650 6200 2900
Text Label 5700 2900 2    50   ~ 0
P5V
Wire Wire Line
	6200 3850 6200 4250
$Comp
L MCU_Module:Arduino_Nano_v3.x A?
U 1 1 5BEB2E64
P 2800 3800
F 0 "A?" H 2150 4900 50  0000 C CNN
F 1 "MCU" H 2150 4800 50  0000 C CNN
F 2 "Module:Arduino_Nano" H 2950 2850 50  0001 L CNN
F 3 "http://www.mouser.com/pdfdocs/Gravitech_Arduino_Nano3_0.pdf" H 2800 2800 50  0001 C CNN
	1    2800 3800
	1    0    0    -1  
$EndComp
$Comp
L Device:R_Small_US R?
U 1 1 5BEB43D2
P 6050 2900
F 0 "R?" V 5845 2900 50  0000 C CNN
F 1 "150R" V 5936 2900 50  0000 C CNN
F 2 "" H 6050 2900 50  0001 C CNN
F 3 "~" H 6050 2900 50  0001 C CNN
	1    6050 2900
	0    1    1    0   
$EndComp
Wire Wire Line
	5700 2900 5800 2900
Wire Wire Line
	6150 2900 6200 2900
Wire Wire Line
	6550 2900 6550 3450
Wire Wire Line
	6850 2900 6850 3650
Connection ~ 6850 2900
$Comp
L Device:CP1_Small C?
U 1 1 5BEB600C
P 8800 4100
F 0 "C?" H 8891 4146 50  0000 L CNN
F 1 "CP1_Small" H 8891 4055 50  0000 L CNN
F 2 "" H 8800 4100 50  0001 C CNN
F 3 "~" H 8800 4100 50  0001 C CNN
	1    8800 4100
	1    0    0    -1  
$EndComp
$Comp
L Connector:Conn_01x02_Male J?
U 1 1 5BEB60DF
P 9850 3300
F 0 "J?" H 9823 3273 50  0000 R CNN
F 1 "Conn_01x02_Male" H 9823 3182 50  0000 R CNN
F 2 "" H 9850 3300 50  0001 C CNN
F 3 "~" H 9850 3300 50  0001 C CNN
	1    9850 3300
	-1   0    0    -1  
$EndComp
$Comp
L Jumper:Jumper_3_Bridged12 JP?
U 1 1 5BEBC4DC
P 8800 3650
F 0 "JP?" V 8846 3717 50  0000 L CNN
F 1 "P_SEL" V 8755 3717 50  0000 L CNN
F 2 "" H 8800 3650 50  0001 C CNN
F 3 "~" H 8800 3650 50  0001 C CNN
	1    8800 3650
	0    1    -1   0   
$EndComp
Wire Wire Line
	8800 3900 8800 4000
$Comp
L power:GND #PWR?
U 1 1 5BEBD7AA
P 9150 4400
F 0 "#PWR?" H 9150 4150 50  0001 C CNN
F 1 "GND" H 9155 4227 50  0000 C CNN
F 2 "" H 9150 4400 50  0001 C CNN
F 3 "" H 9150 4400 50  0001 C CNN
	1    9150 4400
	1    0    0    -1  
$EndComp
Wire Wire Line
	8800 4200 8800 4300
Wire Wire Line
	8800 4300 9150 4300
Wire Wire Line
	9500 4300 9500 3400
Wire Wire Line
	9500 3400 9650 3400
Wire Wire Line
	9650 3300 8800 3300
Wire Wire Line
	8800 3300 8800 3400
Wire Wire Line
	9150 4400 9150 4300
Connection ~ 9150 4300
Wire Wire Line
	9150 4300 9500 4300
Text Label 8300 3650 0    50   ~ 0
V_BAT
Text Label 4300 4400 1    50   ~ 0
V_BAT
Text Label 4900 3550 1    50   ~ 0
V_IN_CL
Text Label 4300 2800 1    50   ~ 0
V_IN
Text Label 8300 3450 0    50   ~ 0
HBO
Text Label 7300 2900 0    50   ~ 0
V_IN_CL
Text Label 8050 2450 1    50   ~ 0
V_IN_CL
$Comp
L Device:R_Small_US R?
U 1 1 5BEC0100
P 4300 2900
F 0 "R?" H 4368 2946 50  0000 L CNN
F 1 "100kR" H 4368 2855 50  0000 L CNN
F 2 "Resistor_SMD:R_0603_1608Metric_Pad1.05x0.95mm_HandSolder" H 4300 2900 50  0001 C CNN
F 3 "~" H 4300 2900 50  0001 C CNN
	1    4300 2900
	1    0    0    -1  
$EndComp
$Comp
L Device:R_Small_US R?
U 1 1 5BEC029C
P 4300 3100
F 0 "R?" H 4368 3146 50  0000 L CNN
F 1 "100kR" H 4368 3055 50  0000 L CNN
F 2 "Resistor_SMD:R_0603_1608Metric_Pad1.05x0.95mm_HandSolder" H 4300 3100 50  0001 C CNN
F 3 "~" H 4300 3100 50  0001 C CNN
	1    4300 3100
	1    0    0    -1  
$EndComp
$Comp
L Device:C_Small C?
U 1 1 5BEC0346
P 3900 3100
F 0 "C?" H 3992 3146 50  0000 L CNN
F 1 "0.1uF" H 3992 3055 50  0000 L CNN
F 2 "Capacitor_SMD:C_0603_1608Metric_Pad1.05x0.95mm_HandSolder" H 3900 3100 50  0001 C CNN
F 3 "~" H 3900 3100 50  0001 C CNN
	1    3900 3100
	1    0    0    -1  
$EndComp
Wire Wire Line
	4300 3000 3900 3000
Connection ~ 4300 3000
$Comp
L power:GND #PWR?
U 1 1 5BEC0AA4
P 3900 3200
F 0 "#PWR?" H 3900 2950 50  0001 C CNN
F 1 "GND" H 3905 3027 50  0000 C CNN
F 2 "" H 3900 3200 50  0001 C CNN
F 3 "" H 3900 3200 50  0001 C CNN
	1    3900 3200
	1    0    0    -1  
$EndComp
$Comp
L power:GND #PWR?
U 1 1 5BEC0AE3
P 4300 3200
F 0 "#PWR?" H 4300 2950 50  0001 C CNN
F 1 "GND" H 4305 3027 50  0000 C CNN
F 2 "" H 4300 3200 50  0001 C CNN
F 3 "" H 4300 3200 50  0001 C CNN
	1    4300 3200
	1    0    0    -1  
$EndComp
$Comp
L Device:R_Small_US R?
U 1 1 5BEC1C78
P 4900 3650
F 0 "R?" H 4968 3696 50  0000 L CNN
F 1 "100kR" H 4968 3605 50  0000 L CNN
F 2 "Resistor_SMD:R_0603_1608Metric_Pad1.05x0.95mm_HandSolder" H 4900 3650 50  0001 C CNN
F 3 "~" H 4900 3650 50  0001 C CNN
	1    4900 3650
	1    0    0    -1  
$EndComp
$Comp
L Device:R_Small_US R?
U 1 1 5BEC1C7F
P 4900 3850
F 0 "R?" H 4968 3896 50  0000 L CNN
F 1 "100kR" H 4968 3805 50  0000 L CNN
F 2 "Resistor_SMD:R_0603_1608Metric_Pad1.05x0.95mm_HandSolder" H 4900 3850 50  0001 C CNN
F 3 "~" H 4900 3850 50  0001 C CNN
	1    4900 3850
	1    0    0    -1  
$EndComp
$Comp
L Device:C_Small C?
U 1 1 5BEC1C86
P 4500 3850
F 0 "C?" H 4592 3896 50  0000 L CNN
F 1 "0.1uF" H 4592 3805 50  0000 L CNN
F 2 "Capacitor_SMD:C_0603_1608Metric_Pad1.05x0.95mm_HandSolder" H 4500 3850 50  0001 C CNN
F 3 "~" H 4500 3850 50  0001 C CNN
	1    4500 3850
	1    0    0    -1  
$EndComp
Wire Wire Line
	4900 3750 4500 3750
Connection ~ 4900 3750
$Comp
L power:GND #PWR?
U 1 1 5BEC1C8F
P 4500 3950
F 0 "#PWR?" H 4500 3700 50  0001 C CNN
F 1 "GND" H 4505 3777 50  0000 C CNN
F 2 "" H 4500 3950 50  0001 C CNN
F 3 "" H 4500 3950 50  0001 C CNN
	1    4500 3950
	1    0    0    -1  
$EndComp
$Comp
L power:GND #PWR?
U 1 1 5BEC1C95
P 4900 3950
F 0 "#PWR?" H 4900 3700 50  0001 C CNN
F 1 "GND" H 4905 3777 50  0000 C CNN
F 2 "" H 4900 3950 50  0001 C CNN
F 3 "" H 4900 3950 50  0001 C CNN
	1    4900 3950
	1    0    0    -1  
$EndComp
$Comp
L Device:R_Small_US R?
U 1 1 5BEC23D4
P 4300 4500
F 0 "R?" H 4368 4546 50  0000 L CNN
F 1 "100kR" H 4368 4455 50  0000 L CNN
F 2 "Resistor_SMD:R_0603_1608Metric_Pad1.05x0.95mm_HandSolder" H 4300 4500 50  0001 C CNN
F 3 "~" H 4300 4500 50  0001 C CNN
	1    4300 4500
	1    0    0    -1  
$EndComp
$Comp
L Device:R_Small_US R?
U 1 1 5BEC23DB
P 4300 4700
F 0 "R?" H 4368 4746 50  0000 L CNN
F 1 "100kR" H 4368 4655 50  0000 L CNN
F 2 "Resistor_SMD:R_0603_1608Metric_Pad1.05x0.95mm_HandSolder" H 4300 4700 50  0001 C CNN
F 3 "~" H 4300 4700 50  0001 C CNN
	1    4300 4700
	1    0    0    -1  
$EndComp
$Comp
L Device:C_Small C?
U 1 1 5BEC23E2
P 3900 4700
F 0 "C?" H 3992 4746 50  0000 L CNN
F 1 "0.1uF" H 3992 4655 50  0000 L CNN
F 2 "Capacitor_SMD:C_0603_1608Metric_Pad1.05x0.95mm_HandSolder" H 3900 4700 50  0001 C CNN
F 3 "~" H 3900 4700 50  0001 C CNN
	1    3900 4700
	1    0    0    -1  
$EndComp
Connection ~ 4300 4600
$Comp
L power:GND #PWR?
U 1 1 5BEC23EB
P 3900 4800
F 0 "#PWR?" H 3900 4550 50  0001 C CNN
F 1 "GND" H 3905 4627 50  0000 C CNN
F 2 "" H 3900 4800 50  0001 C CNN
F 3 "" H 3900 4800 50  0001 C CNN
	1    3900 4800
	1    0    0    -1  
$EndComp
$Comp
L power:GND #PWR?
U 1 1 5BEC23F1
P 4300 4800
F 0 "#PWR?" H 4300 4550 50  0001 C CNN
F 1 "GND" H 4305 4627 50  0000 C CNN
F 2 "" H 4300 4800 50  0001 C CNN
F 3 "" H 4300 4800 50  0001 C CNN
	1    4300 4800
	1    0    0    -1  
$EndComp
Text Label 1300 3200 1    50   ~ 0
HBO
$Comp
L Device:R_Small_US R?
U 1 1 5BEC4B0F
P 1300 3300
F 0 "R?" H 1368 3346 50  0000 L CNN
F 1 "100kR" H 1368 3255 50  0000 L CNN
F 2 "Resistor_SMD:R_0603_1608Metric_Pad1.05x0.95mm_HandSolder" H 1300 3300 50  0001 C CNN
F 3 "~" H 1300 3300 50  0001 C CNN
	1    1300 3300
	-1   0    0    -1  
$EndComp
$Comp
L Device:R_Small_US R?
U 1 1 5BEC4B16
P 1300 3500
F 0 "R?" H 1368 3546 50  0000 L CNN
F 1 "100kR" H 1368 3455 50  0000 L CNN
F 2 "Resistor_SMD:R_0603_1608Metric_Pad1.05x0.95mm_HandSolder" H 1300 3500 50  0001 C CNN
F 3 "~" H 1300 3500 50  0001 C CNN
	1    1300 3500
	-1   0    0    -1  
$EndComp
$Comp
L Device:C_Small C?
U 1 1 5BEC4B1D
P 1700 3500
F 0 "C?" H 1792 3546 50  0000 L CNN
F 1 "0.1uF" H 1792 3455 50  0000 L CNN
F 2 "Capacitor_SMD:C_0603_1608Metric_Pad1.05x0.95mm_HandSolder" H 1700 3500 50  0001 C CNN
F 3 "~" H 1700 3500 50  0001 C CNN
	1    1700 3500
	-1   0    0    -1  
$EndComp
Wire Wire Line
	1300 3400 1700 3400
Connection ~ 1300 3400
$Comp
L power:GND #PWR?
U 1 1 5BEC4B26
P 1700 3600
F 0 "#PWR?" H 1700 3350 50  0001 C CNN
F 1 "GND" H 1705 3427 50  0000 C CNN
F 2 "" H 1700 3600 50  0001 C CNN
F 3 "" H 1700 3600 50  0001 C CNN
	1    1700 3600
	-1   0    0    -1  
$EndComp
$Comp
L power:GND #PWR?
U 1 1 5BEC4B2C
P 1300 3600
F 0 "#PWR?" H 1300 3350 50  0001 C CNN
F 1 "GND" H 1305 3427 50  0000 C CNN
F 2 "" H 1300 3600 50  0001 C CNN
F 3 "" H 1300 3600 50  0001 C CNN
	1    1300 3600
	-1   0    0    -1  
$EndComp
Wire Wire Line
	2300 3400 1700 3400
Connection ~ 1700 3400
Wire Wire Line
	3900 3000 3550 3000
Wire Wire Line
	3550 3000 3550 3800
Wire Wire Line
	3550 3800 3300 3800
Connection ~ 3900 3000
Wire Wire Line
	3300 3900 3650 3900
Wire Wire Line
	3650 3900 3650 3750
Wire Wire Line
	3650 3750 4500 3750
Connection ~ 4500 3750
Wire Wire Line
	3300 4000 3650 4000
Wire Wire Line
	3650 4000 3650 4600
Wire Wire Line
	3650 4600 3900 4600
Connection ~ 3900 4600
Wire Wire Line
	3900 4600 4300 4600
NoConn ~ 2700 2800
NoConn ~ 2900 2800
Text Label 3000 2600 1    50   ~ 0
P5V
Wire Wire Line
	3000 2600 3000 2800
NoConn ~ 3300 3200
NoConn ~ 3300 3300
NoConn ~ 3300 3600
NoConn ~ 2300 3200
NoConn ~ 2300 3300
NoConn ~ 2300 3500
NoConn ~ 2300 3600
NoConn ~ 2300 3700
NoConn ~ 2300 3800
NoConn ~ 2300 3900
NoConn ~ 2300 4000
NoConn ~ 2300 4100
NoConn ~ 2300 4200
NoConn ~ 2300 4300
NoConn ~ 2300 4400
NoConn ~ 2300 4500
$Comp
L power:GND #PWR?
U 1 1 5BEDC5AF
P 2850 5000
F 0 "#PWR?" H 2850 4750 50  0001 C CNN
F 1 "GND" H 2855 4827 50  0000 C CNN
F 2 "" H 2850 5000 50  0001 C CNN
F 3 "" H 2850 5000 50  0001 C CNN
	1    2850 5000
	1    0    0    -1  
$EndComp
Wire Wire Line
	2800 4800 2800 4900
Wire Wire Line
	2800 4900 2850 4900
Wire Wire Line
	2900 4900 2900 4800
Wire Wire Line
	2850 4900 2850 5000
Connection ~ 2850 4900
Wire Wire Line
	2850 4900 2900 4900
$Comp
L Device:CP1_Small C?
U 1 1 5BEE0E10
P 5800 3750
F 0 "C?" H 5891 3796 50  0000 L CNN
F 1 "47uF" H 5891 3705 50  0000 L CNN
F 2 "" H 5800 3750 50  0001 C CNN
F 3 "~" H 5800 3750 50  0001 C CNN
	1    5800 3750
	1    0    0    -1  
$EndComp
Wire Wire Line
	5800 3650 5800 2900
Connection ~ 5800 2900
Wire Wire Line
	5800 2900 5950 2900
Wire Wire Line
	5800 3850 5800 4250
Wire Wire Line
	5800 4250 6200 4250
Connection ~ 6200 2900
Connection ~ 6200 4250
Wire Wire Line
	6200 2900 6550 2900
Connection ~ 6550 2900
Wire Wire Line
	6550 2900 6850 2900
Wire Wire Line
	6200 4250 6550 4250
Wire Wire Line
	6550 4150 6550 4250
Connection ~ 6550 4250
Wire Wire Line
	6850 2900 7050 2900
Wire Wire Line
	6550 4250 7700 4250
Connection ~ 7700 4250
Wire Wire Line
	6850 3650 7300 3650
Wire Wire Line
	6550 3850 7300 3850
$Comp
L Device:R_Small_US R?
U 1 1 5BEF007A
P 7050 3100
F 0 "R?" H 7118 3146 50  0000 L CNN
F 1 "0R" H 7118 3055 50  0000 L CNN
F 2 "Resistor_SMD:R_0603_1608Metric_Pad1.05x0.95mm_HandSolder" H 7050 3100 50  0001 C CNN
F 3 "~" H 7050 3100 50  0001 C CNN
	1    7050 3100
	1    0    0    -1  
$EndComp
Text Notes 6900 3400 0    50   ~ 0
DNP
Wire Wire Line
	7050 3200 7050 3250
Wire Wire Line
	7050 3250 7300 3250
Wire Wire Line
	7050 3000 7050 2900
Connection ~ 7050 2900
Wire Wire Line
	7050 2900 7750 2900
Wire Notes Line
	6900 2950 7250 2950
Wire Notes Line
	7250 2950 7250 3300
Wire Notes Line
	7250 3300 6900 3300
Wire Notes Line
	6900 3300 6900 2950
Wire Wire Line
	8200 3650 8650 3650
Wire Wire Line
	8300 3450 8200 3450
$EndSCHEMATC
