EESchema Schematic File Version 4
LIBS:ti-battery-power-cache
EELAYER 26 0
EELAYER END
$Descr A4 11693 8268
encoding utf-8
Sheet 1 1
Title ""
Date ""
Rev ""
Comp ""
Comment1 ""
Comment2 ""
Comment3 ""
Comment4 ""
$EndDescr
Wire Wire Line
	5800 4550 5800 4700
Wire Wire Line
	5300 4700 5300 4550
$Comp
L power:GND #PWR?
U 1 1 5BE6E39D
P 5600 4850
F 0 "#PWR?" H 5600 4600 50  0001 C CNN
F 1 "GND" H 5605 4677 50  0000 C CNN
F 2 "" H 5600 4850 50  0001 C CNN
F 3 "" H 5600 4850 50  0001 C CNN
	1    5600 4850
	1    0    0    -1  
$EndComp
Wire Wire Line
	5600 4550 5600 4700
Connection ~ 5600 4700
Wire Wire Line
	5600 4700 5300 4700
Wire Wire Line
	5600 4700 5600 4850
Wire Wire Line
	6000 2950 6000 2850
Wire Wire Line
	5600 4700 5800 4700
Wire Wire Line
	5200 2950 5200 2850
Connection ~ 5300 4700
Wire Wire Line
	4900 3850 4900 3950
Wire Wire Line
	4900 4700 5300 4700
Wire Wire Line
	5000 3850 4900 3850
Wire Wire Line
	5000 3950 4900 3950
Connection ~ 4900 3950
Wire Wire Line
	4900 3950 4900 4150
Wire Wire Line
	5000 4150 4900 4150
Connection ~ 4900 4150
Wire Wire Line
	4900 4150 4900 4700
$Comp
L Device:L_Small L?
U 1 1 5BE6E3BD
P 5450 2850
F 0 "L?" V 5635 2850 50  0000 C CNN
F 1 "22uH 20%" V 5544 2850 50  0000 C CNN
F 2 "" H 5450 2850 50  0001 C CNN
F 3 "~" H 5450 2850 50  0001 C CNN
	1    5450 2850
	0    -1   -1   0   
$EndComp
Wire Wire Line
	5200 2850 5350 2850
Wire Wire Line
	5550 2850 5700 2850
Wire Wire Line
	5700 2850 5700 2950
$Comp
L Device:R_Small_US R?
U 1 1 5BE6E3C7
P 3500 3300
F 0 "R?" H 3568 3346 50  0000 L CNN
F 1 "ROC2" H 3568 3255 50  0000 L CNN
F 2 "" H 3500 3300 50  0001 C CNN
F 3 "~" H 3500 3300 50  0001 C CNN
	1    3500 3300
	1    0    0    -1  
$EndComp
$Comp
L Device:R_Small_US R?
U 1 1 5BE6E3CE
P 3500 3600
F 0 "R?" H 3568 3646 50  0000 L CNN
F 1 "ROC1" H 3568 3555 50  0000 L CNN
F 2 "" H 3500 3600 50  0001 C CNN
F 3 "~" H 3500 3600 50  0001 C CNN
	1    3500 3600
	1    0    0    -1  
$EndComp
$Comp
L Device:C_Small C?
U 1 1 5BE6E3D5
P 6300 4350
F 0 "C?" H 6350 4450 50  0000 L CNN
F 1 "0.1uF" H 6350 4250 50  0000 L CNN
F 2 "" H 6300 4350 50  0001 C CNN
F 3 "~" H 6300 4350 50  0001 C CNN
	1    6300 4350
	1    0    0    -1  
$EndComp
$Comp
L Device:C_Small C?
U 1 1 5BE6E3DC
P 4750 4500
F 0 "C?" H 4550 4550 50  0000 L CNN
F 1 "0.01uF" H 4450 4400 50  0000 L CNN
F 2 "" H 4750 4500 50  0001 C CNN
F 3 "~" H 4750 4500 50  0001 C CNN
	1    4750 4500
	1    0    0    -1  
$EndComp
$Comp
L Device:R_Small_US R?
U 1 1 5BE6E3E3
P 3850 3750
F 0 "R?" H 3918 3796 50  0000 L CNN
F 1 "ROV2" H 3918 3705 50  0000 L CNN
F 2 "" H 3850 3750 50  0001 C CNN
F 3 "~" H 3850 3750 50  0001 C CNN
	1    3850 3750
	1    0    0    -1  
$EndComp
$Comp
L Device:R_Small_US R?
U 1 1 5BE6E3EA
P 3850 4050
F 0 "R?" H 3918 4096 50  0000 L CNN
F 1 "ROV1" H 3918 4005 50  0000 L CNN
F 2 "" H 3850 4050 50  0001 C CNN
F 3 "~" H 3850 4050 50  0001 C CNN
	1    3850 4050
	1    0    0    -1  
$EndComp
$Comp
L Device:R_Small_US R?
U 1 1 5BE6E3F1
P 4300 3950
F 0 "R?" H 4368 3996 50  0000 L CNN
F 1 "RUV2" H 4368 3905 50  0000 L CNN
F 2 "" H 4300 3950 50  0001 C CNN
F 3 "~" H 4300 3950 50  0001 C CNN
	1    4300 3950
	1    0    0    -1  
$EndComp
$Comp
L Device:R_Small_US R?
U 1 1 5BE6E3F8
P 4300 4250
F 0 "R?" H 4368 4296 50  0000 L CNN
F 1 "RUV1" H 4368 4205 50  0000 L CNN
F 2 "" H 4300 4250 50  0001 C CNN
F 3 "~" H 4300 4250 50  0001 C CNN
	1    4300 4250
	1    0    0    -1  
$EndComp
Connection ~ 4900 4700
Connection ~ 5200 2850
Wire Wire Line
	3500 3400 3500 3450
Connection ~ 3500 3450
Wire Wire Line
	3500 3450 3500 3500
Wire Wire Line
	5000 4050 4750 4050
Wire Wire Line
	4750 4050 4750 4400
Wire Wire Line
	4750 4600 4750 4700
Connection ~ 4750 4700
Wire Wire Line
	4750 4700 4900 4700
Wire Wire Line
	5000 3550 4300 3550
Wire Wire Line
	3850 3550 3850 3650
Wire Wire Line
	4300 3850 4300 3550
Wire Wire Line
	3850 3850 3850 3900
Wire Wire Line
	3850 3900 4150 3900
Wire Wire Line
	4150 3900 4150 3650
Wire Wire Line
	4150 3650 5000 3650
Connection ~ 3850 3900
Wire Wire Line
	3850 3900 3850 3950
Wire Wire Line
	4300 4050 4300 4100
Wire Wire Line
	4300 4100 4650 4100
Wire Wire Line
	4650 4100 4650 3750
Wire Wire Line
	4650 3750 5000 3750
Connection ~ 4300 4100
Wire Wire Line
	4300 4100 4300 4150
Wire Wire Line
	3850 4150 3850 4700
Connection ~ 3850 4700
Wire Wire Line
	4300 4350 4300 4700
Wire Wire Line
	3500 3700 3500 4700
Wire Wire Line
	3500 2850 3500 3200
Connection ~ 4300 3550
Connection ~ 4300 4700
Wire Wire Line
	4300 4700 4750 4700
Wire Wire Line
	3850 3550 4300 3550
Wire Wire Line
	3850 4700 4300 4700
Wire Wire Line
	3500 4700 3850 4700
Wire Wire Line
	3500 3450 5000 3450
$Comp
L Device:D_Zener_Small_ALT D?
U 1 1 5BE6E435
P 3200 3700
F 0 "D?" V 3154 3768 50  0000 L CNN
F 1 "D_OV" V 3245 3768 50  0000 L CNN
F 2 "" V 3200 3700 50  0001 C CNN
F 3 "~" V 3200 3700 50  0001 C CNN
	1    3200 3700
	0    1    1    0   
$EndComp
Wire Wire Line
	3200 2850 3200 3600
Wire Wire Line
	2950 2850 3200 2850
Wire Wire Line
	3200 3800 3200 4700
Wire Wire Line
	6600 4050 6300 4050
Connection ~ 6300 4050
Wire Wire Line
	6300 4700 5800 4700
Connection ~ 5800 4700
Connection ~ 6300 4700
$Comp
L Device:C_Small C?
U 1 1 5BE6E448
P 4500 2150
F 0 "C?" H 4550 2250 50  0000 L CNN
F 1 "0.1uF" H 4550 2050 50  0000 L CNN
F 2 "" H 4500 2150 50  0001 C CNN
F 3 "~" H 4500 2150 50  0001 C CNN
	1    4500 2150
	1    0    0    -1  
$EndComp
Text Label 3950 2850 0    50   ~ 0
V_SOLAR
Text Label 6450 2850 0    50   ~ 0
V_BAT
Text Label 4500 1950 1    50   ~ 0
V_SOLAR
Wire Wire Line
	4500 1950 4500 2050
$Comp
L power:GND #PWR?
U 1 1 5BE6E453
P 4500 2350
F 0 "#PWR?" H 4500 2100 50  0001 C CNN
F 1 "GND" H 4505 2177 50  0000 C CNN
F 2 "" H 4500 2350 50  0001 C CNN
F 3 "" H 4500 2350 50  0001 C CNN
	1    4500 2350
	1    0    0    -1  
$EndComp
Wire Wire Line
	4500 2350 4500 2250
Text Label 4900 1950 1    50   ~ 0
V_SOLAR
Wire Wire Line
	4900 1950 4900 2050
$Comp
L power:GND #PWR?
U 1 1 5BE6E45C
P 4900 2350
F 0 "#PWR?" H 4900 2100 50  0001 C CNN
F 1 "GND" H 4905 2177 50  0000 C CNN
F 2 "" H 4900 2350 50  0001 C CNN
F 3 "" H 4900 2350 50  0001 C CNN
	1    4900 2350
	1    0    0    -1  
$EndComp
Wire Wire Line
	4900 2350 4900 2250
$Comp
L Device:C_Small C?
U 1 1 5BE6E463
P 4900 2150
F 0 "C?" H 5000 2250 50  0000 L CNN
F 1 "4.7uF" H 4950 2050 50  0000 L CNN
F 2 "" H 4900 2150 50  0001 C CNN
F 3 "~" H 4900 2150 50  0001 C CNN
	1    4900 2150
	1    0    0    -1  
$EndComp
Wire Wire Line
	3500 2850 3200 2850
Connection ~ 3500 2850
Connection ~ 3200 2850
Wire Wire Line
	3200 4700 3500 4700
Connection ~ 3500 4700
Connection ~ 6600 4700
Wire Wire Line
	6600 4700 6300 4700
Wire Wire Line
	6200 4050 6300 4050
Wire Wire Line
	6600 4450 6600 4700
Wire Wire Line
	6300 4450 6300 4700
Wire Wire Line
	6300 4050 6300 4250
Wire Wire Line
	6600 4050 6600 4250
$Comp
L Device:C_Small C?
U 1 1 5BE6E47E
P 6600 4350
F 0 "C?" H 6650 4450 50  0000 L CNN
F 1 "4.7uF" H 6650 4250 50  0000 L CNN
F 2 "" H 6600 4350 50  0001 C CNN
F 3 "~" H 6600 4350 50  0001 C CNN
	1    6600 4350
	1    0    0    -1  
$EndComp
Wire Wire Line
	6300 3450 6200 3450
Text Notes 6450 4850 0    50   ~ 0
4.7uF Min
Text HLabel 2950 2750 1    50   Output ~ 0
V_SOLAR
Wire Wire Line
	3500 2850 5200 2850
Wire Wire Line
	2950 2750 2950 2850
Text HLabel 7000 2850 2    50   Output ~ 0
V_BAT
$Comp
L capstone_library:BQ25504 U?
U 1 1 5BE233B8
P 5600 3750
F 0 "U?" H 6241 3796 50  0000 L CNN
F 1 "BQ25504" H 6241 3705 50  0000 L CNN
F 2 "Package_DFN_QFN:QFN-16-1EP_3x3mm_P0.5mm_EP1.8x1.8mm" H 5650 2550 50  0001 C CNN
F 3 "http://www.ti.com/lit/ds/symlink/bq25504.pdf" H 5300 4550 50  0001 C CNN
	1    5600 3750
	1    0    0    -1  
$EndComp
Wire Wire Line
	6600 4700 6900 4700
Wire Wire Line
	6900 3900 6900 4700
Wire Wire Line
	6000 2850 6900 2850
Wire Wire Line
	6900 3700 6900 2850
$Comp
L Device:CP1_Small C?
U 1 1 5BE6E3FF
P 6900 3800
F 0 "C?" H 6991 3846 50  0000 L CNN
F 1 "30uF" H 6991 3755 50  0000 L CNN
F 2 "" H 6900 3800 50  0001 C CNN
F 3 "~" H 6900 3800 50  0001 C CNN
	1    6900 3800
	1    0    0    -1  
$EndComp
$Comp
L Connector:Conn_01x06_Male J?
U 1 1 5BE659ED
P 9100 3350
F 0 "J?" H 9072 3323 50  0000 R CNN
F 1 "MAIN-CCA" H 9072 3232 50  0000 R CNN
F 2 "" H 9100 3350 50  0001 C CNN
F 3 "~" H 9100 3350 50  0001 C CNN
	1    9100 3350
	-1   0    0    -1  
$EndComp
Text HLabel 8700 3150 0    50   Output ~ 0
V_SOLAR
Wire Wire Line
	8900 3150 8700 3150
Wire Wire Line
	6900 2850 7000 2850
Connection ~ 6900 2850
Text HLabel 8700 3250 0    50   Output ~ 0
V_BAT
Wire Wire Line
	8700 3250 8900 3250
Text Label 7800 3350 0    50   ~ 0
V_OUT
Text HLabel 6300 3450 2    50   Output ~ 0
VBAT_OK
Text HLabel 8700 3450 0    50   Output ~ 0
VBAT_OK
Wire Wire Line
	8900 3450 8700 3450
NoConn ~ 8900 3550
$Comp
L power:GND #PWR?
U 1 1 5BE72358
P 8600 3800
F 0 "#PWR?" H 8600 3550 50  0001 C CNN
F 1 "GND" H 8605 3627 50  0000 C CNN
F 2 "" H 8600 3800 50  0001 C CNN
F 3 "" H 8600 3800 50  0001 C CNN
	1    8600 3800
	1    0    0    -1  
$EndComp
Wire Wire Line
	8900 3650 8600 3650
Wire Wire Line
	8600 3650 8600 3800
Text Label 8650 3650 0    50   ~ 0
GND
Wire Wire Line
	8900 3350 7600 3350
Wire Wire Line
	7600 3350 7600 4050
Wire Wire Line
	7600 4050 6600 4050
Connection ~ 6600 4050
$EndSCHEMATC
