EESchema Schematic File Version 4
LIBS:poc_cca_hms-cache
LIBS:CC1101-cache
EELAYER 26 0
EELAYER END
$Descr A4 11693 8268
encoding utf-8
Sheet 4 4
Title ""
Date ""
Rev ""
Comp ""
Comment1 ""
Comment2 ""
Comment3 ""
Comment4 ""
$EndDescr
$Comp
L capstone_library:CC1101RGP U?
U 1 1 5BDC1A38
P 2600 2150
AR Path="/5BDC1A38" Ref="U?"  Part="1" 
AR Path="/5BDC0033/5BDC1A38" Ref="U?"  Part="1" 
AR Path="/5BE4B7EC/5BDC1A38" Ref="U4"  Part="1" 
F 0 "U4" H 4000 2537 60  0000 C CNN
F 1 "CC1101RGP" H 4000 2431 60  0000 C CNN
F 2 "capstone_footprints:CC1101RGP" H 4000 2390 60  0001 C CNN
F 3 "http://www.ti.com/lit/ds/symlink/cc1101.pdf" H 4000 2431 60  0001 C CNN
	1    2600 2150
	1    0    0    -1  
$EndComp
$Comp
L Device:Crystal Y?
U 1 1 5BDC1A3F
P 2200 3600
AR Path="/5BDC1A3F" Ref="Y?"  Part="1" 
AR Path="/5BDC0033/5BDC1A3F" Ref="Y?"  Part="1" 
AR Path="/5BE4B7EC/5BDC1A3F" Ref="Y1"  Part="1" 
F 0 "Y1" H 2150 3450 50  0000 L CNN
F 1 "26.0MHz" H 2050 3750 50  0000 L CNN
F 2 "Crystal:Crystal_SMD_HC49-SD_HandSoldering" H 2200 3600 50  0001 C CNN
F 3 "~" H 2200 3600 50  0001 C CNN
	1    2200 3600
	1    0    0    -1  
$EndComp
$Comp
L Device:C C?
U 1 1 5BDC1A48
P 2450 3900
AR Path="/5BDC1A48" Ref="C?"  Part="1" 
AR Path="/5BDC0033/5BDC1A48" Ref="C?"  Part="1" 
AR Path="/5BE4B7EC/5BDC1A48" Ref="C15"  Part="1" 
F 0 "C15" H 2565 3946 50  0000 L CNN
F 1 "27p" H 2565 3855 50  0000 L CNN
F 2 "Capacitor_SMD:C_0603_1608Metric_Pad1.05x0.95mm_HandSolder" H 2488 3750 50  0001 C CNN
F 3 "~" H 2450 3900 50  0001 C CNN
F 4 "5%" H 2565 3855 50  0001 L CNN "SPEC"
F 5 "0402 NP0" H 2565 3764 50  0001 L CNN "NOTE"
	1    2450 3900
	1    0    0    -1  
$EndComp
$Comp
L Device:C C?
U 1 1 5BDC1A51
P 1950 3900
AR Path="/5BDC1A51" Ref="C?"  Part="1" 
AR Path="/5BDC0033/5BDC1A51" Ref="C?"  Part="1" 
AR Path="/5BE4B7EC/5BDC1A51" Ref="C14"  Part="1" 
F 0 "C14" H 2065 3946 50  0000 L CNN
F 1 "27p" H 2065 3855 50  0000 L CNN
F 2 "Capacitor_SMD:C_0603_1608Metric_Pad1.05x0.95mm_HandSolder" H 1988 3750 50  0001 C CNN
F 3 "~" H 1950 3900 50  0001 C CNN
F 4 "5%" H 2065 3855 50  0001 L CNN "SPEC"
F 5 "0402 NP0" H 2065 3764 50  0001 L CNN "NOTE"
	1    1950 3900
	1    0    0    -1  
$EndComp
Wire Wire Line
	2050 3600 1950 3600
Wire Wire Line
	1950 3600 1950 3750
Wire Wire Line
	2350 3600 2450 3600
Wire Wire Line
	2450 3600 2450 3750
$Comp
L power:GND #PWR?
U 1 1 5BDC1A5C
P 2450 4150
AR Path="/5BDC1A5C" Ref="#PWR?"  Part="1" 
AR Path="/5BDC0033/5BDC1A5C" Ref="#PWR?"  Part="1" 
AR Path="/5BE4B7EC/5BDC1A5C" Ref="#PWR?"  Part="1" 
F 0 "#PWR?" H 2450 3900 50  0001 C CNN
F 1 "GND" H 2455 3977 50  0000 C CNN
F 2 "" H 2450 4150 50  0001 C CNN
F 3 "" H 2450 4150 50  0001 C CNN
	1    2450 4150
	1    0    0    -1  
$EndComp
$Comp
L power:GND #PWR?
U 1 1 5BDC1A62
P 1950 4150
AR Path="/5BDC1A62" Ref="#PWR?"  Part="1" 
AR Path="/5BDC0033/5BDC1A62" Ref="#PWR?"  Part="1" 
AR Path="/5BE4B7EC/5BDC1A62" Ref="#PWR?"  Part="1" 
F 0 "#PWR?" H 1950 3900 50  0001 C CNN
F 1 "GND" H 1955 3977 50  0000 C CNN
F 2 "" H 1950 4150 50  0001 C CNN
F 3 "" H 1950 4150 50  0001 C CNN
	1    1950 4150
	1    0    0    -1  
$EndComp
Wire Wire Line
	1950 4050 1950 4150
Wire Wire Line
	2450 4050 2450 4150
Wire Wire Line
	2450 3600 2450 2950
Wire Wire Line
	2450 2950 2600 2950
Connection ~ 2450 3600
Wire Wire Line
	2600 2750 1950 2750
Wire Wire Line
	1950 2750 1950 3600
Connection ~ 1950 3600
$Comp
L Device:L L?
U 1 1 5BDC1A72
P 6650 3300
AR Path="/5BDC1A72" Ref="L?"  Part="1" 
AR Path="/5BDC0033/5BDC1A72" Ref="L?"  Part="1" 
AR Path="/5BE4B7EC/5BDC1A72" Ref="L4"  Part="1" 
F 0 "L4" V 6472 3300 50  0000 C CNN
F 1 "12n" V 6563 3300 50  0000 C CNN
F 2 "Inductor_SMD:L_0603_1608Metric_Pad1.05x0.95mm_HandSolder" H 6650 3300 50  0001 C CNN
F 3 "~" H 6650 3300 50  0001 C CNN
F 4 "5%" H 6650 3300 50  0001 C CNN "SPEC"
F 5 "0402" H 6650 3300 50  0001 C CNN "NOTE"
	1    6650 3300
	-1   0    0    1   
$EndComp
$Comp
L Device:L L?
U 1 1 5BDC1A7B
P 6950 3300
AR Path="/5BDC1A7B" Ref="L?"  Part="1" 
AR Path="/5BDC0033/5BDC1A7B" Ref="L?"  Part="1" 
AR Path="/5BE4B7EC/5BDC1A7B" Ref="L6"  Part="1" 
F 0 "L6" V 6772 3300 50  0000 C CNN
F 1 "12n" V 6863 3300 50  0000 C CNN
F 2 "Inductor_SMD:L_0603_1608Metric_Pad1.05x0.95mm_HandSolder" H 6950 3300 50  0001 C CNN
F 3 "~" H 6950 3300 50  0001 C CNN
F 4 "5%" H 6950 3300 50  0001 C CNN "SPEC"
F 5 "0402" H 6950 3300 50  0001 C CNN "NOTE"
	1    6950 3300
	-1   0    0    1   
$EndComp
$Comp
L Device:C C?
U 1 1 5BDC1A84
P 6800 3650
AR Path="/5BDC1A84" Ref="C?"  Part="1" 
AR Path="/5BDC0033/5BDC1A84" Ref="C?"  Part="1" 
AR Path="/5BE4B7EC/5BDC1A84" Ref="C24"  Part="1" 
F 0 "C24" H 6915 3696 50  0000 L CNN
F 1 "1p" H 6915 3605 50  0000 L CNN
F 2 "Capacitor_SMD:C_0603_1608Metric_Pad1.05x0.95mm_HandSolder" H 6838 3500 50  0001 C CNN
F 3 "~" H 6800 3650 50  0001 C CNN
F 4 "+-0.25p" H 6915 3605 50  0001 L CNN "SPEC"
F 5 "0402 NP0" H 6915 3514 50  0001 L CNN "NOTE"
	1    6800 3650
	0    1    1    0   
$EndComp
Wire Wire Line
	6950 3450 6950 3650
Wire Wire Line
	6650 3650 6650 3450
$Comp
L Device:L L?
U 1 1 5BDC1A8F
P 6500 3900
AR Path="/5BDC1A8F" Ref="L?"  Part="1" 
AR Path="/5BDC0033/5BDC1A8F" Ref="L?"  Part="1" 
AR Path="/5BE4B7EC/5BDC1A8F" Ref="L3"  Part="1" 
F 0 "L3" H 6459 3854 50  0000 R CNN
F 1 "18n" H 6459 3945 50  0000 R CNN
F 2 "Inductor_SMD:L_0603_1608Metric_Pad1.05x0.95mm_HandSolder" H 6500 3900 50  0001 C CNN
F 3 "~" H 6500 3900 50  0001 C CNN
F 4 "5%" H 6500 3900 50  0001 C CNN "SPEC"
F 5 "0402" H 6500 3900 50  0001 C CNN "NOTE"
	1    6500 3900
	0    -1   -1   0   
$EndComp
Wire Wire Line
	6650 3900 6650 3650
$Comp
L Device:C C?
U 1 1 5BDC1A99
P 6150 3900
AR Path="/5BDC1A99" Ref="C?"  Part="1" 
AR Path="/5BDC0033/5BDC1A99" Ref="C?"  Part="1" 
AR Path="/5BE4B7EC/5BDC1A99" Ref="C22"  Part="1" 
F 0 "C22" H 6265 3946 50  0000 L CNN
F 1 "100p" H 6265 3855 50  0000 L CNN
F 2 "Capacitor_SMD:C_0603_1608Metric_Pad1.05x0.95mm_HandSolder" H 6188 3750 50  0001 C CNN
F 3 "~" H 6150 3900 50  0001 C CNN
F 4 "5%" H 6150 3900 50  0001 C CNN "SPEC"
F 5 "0402 NP0" H 6150 3900 50  0001 C CNN "NOTE"
	1    6150 3900
	0    1    1    0   
$EndComp
Wire Wire Line
	6350 3900 6300 3900
$Comp
L power:GND #PWR?
U 1 1 5BDC1AA1
P 5950 3900
AR Path="/5BDC1AA1" Ref="#PWR?"  Part="1" 
AR Path="/5BDC0033/5BDC1AA1" Ref="#PWR?"  Part="1" 
AR Path="/5BE4B7EC/5BDC1AA1" Ref="#PWR?"  Part="1" 
F 0 "#PWR?" H 5950 3650 50  0001 C CNN
F 1 "GND" H 5955 3727 50  0000 C CNN
F 2 "" H 5950 3900 50  0001 C CNN
F 3 "" H 5950 3900 50  0001 C CNN
	1    5950 3900
	1    0    0    -1  
$EndComp
Wire Wire Line
	6000 3900 5950 3900
Connection ~ 6650 3650
$Comp
L Device:C C?
U 1 1 5BDC1AAB
P 7200 3900
AR Path="/5BDC1AAB" Ref="C?"  Part="1" 
AR Path="/5BDC0033/5BDC1AAB" Ref="C?"  Part="1" 
AR Path="/5BE4B7EC/5BDC1AAB" Ref="C26"  Part="1" 
F 0 "C26" H 7315 3946 50  0000 L CNN
F 1 "1.5p" H 7315 3855 50  0000 L CNN
F 2 "Capacitor_SMD:C_0603_1608Metric_Pad1.05x0.95mm_HandSolder" H 7238 3750 50  0001 C CNN
F 3 "~" H 7200 3900 50  0001 C CNN
F 4 "+-0.25p" H 7200 3900 50  0001 C CNN "SPEC"
F 5 "0402 NP0" H 7200 3900 50  0001 C CNN "NOTE"
	1    7200 3900
	0    1    1    0   
$EndComp
$Comp
L power:GND #PWR?
U 1 1 5BDC1AB2
P 7400 3900
AR Path="/5BDC1AB2" Ref="#PWR?"  Part="1" 
AR Path="/5BDC0033/5BDC1AB2" Ref="#PWR?"  Part="1" 
AR Path="/5BE4B7EC/5BDC1AB2" Ref="#PWR?"  Part="1" 
F 0 "#PWR?" H 7400 3650 50  0001 C CNN
F 1 "GND" H 7405 3727 50  0000 C CNN
F 2 "" H 7400 3900 50  0001 C CNN
F 3 "" H 7400 3900 50  0001 C CNN
	1    7400 3900
	1    0    0    -1  
$EndComp
Connection ~ 6950 3650
Wire Wire Line
	7350 3900 7400 3900
$Comp
L Device:L L?
U 1 1 5BDC1ABC
P 6950 4250
AR Path="/5BDC1ABC" Ref="L?"  Part="1" 
AR Path="/5BDC0033/5BDC1ABC" Ref="L?"  Part="1" 
AR Path="/5BE4B7EC/5BDC1ABC" Ref="L7"  Part="1" 
F 0 "L7" V 7140 4250 50  0000 C CNN
F 1 "18n" V 7049 4250 50  0000 C CNN
F 2 "Inductor_SMD:L_0603_1608Metric_Pad1.05x0.95mm_HandSolder" H 6950 4250 50  0001 C CNN
F 3 "~" H 6950 4250 50  0001 C CNN
F 4 "5%" H 6950 4250 50  0001 C CNN "SPEC"
F 5 "0402" H 6950 4250 50  0001 C CNN "NOTE"
	1    6950 4250
	1    0    0    -1  
$EndComp
$Comp
L Device:C C?
U 1 1 5BDC1AC5
P 6650 4250
AR Path="/5BDC1AC5" Ref="C?"  Part="1" 
AR Path="/5BDC0033/5BDC1AC5" Ref="C?"  Part="1" 
AR Path="/5BE4B7EC/5BDC1AC5" Ref="C23"  Part="1" 
F 0 "C23" V 6398 4250 50  0000 C CNN
F 1 "1.5p" V 6489 4250 50  0000 C CNN
F 2 "Capacitor_SMD:C_0603_1608Metric_Pad1.05x0.95mm_HandSolder" H 6688 4100 50  0001 C CNN
F 3 "~" H 6650 4250 50  0001 C CNN
F 4 "+-0.25p" V 6398 4250 50  0001 C CNN "SPEC"
F 5 "0402 NP0" V 6489 4250 50  0001 C CNN "NOTE"
	1    6650 4250
	-1   0    0    1   
$EndComp
Wire Wire Line
	6650 4100 6650 3900
Connection ~ 6650 3900
$Comp
L Device:L L?
U 1 1 5BDC1AD0
P 6800 4550
AR Path="/5BDC1AD0" Ref="L?"  Part="1" 
AR Path="/5BDC0033/5BDC1AD0" Ref="L?"  Part="1" 
AR Path="/5BE4B7EC/5BDC1AD0" Ref="L5"  Part="1" 
F 0 "L5" V 6990 4550 50  0000 C CNN
F 1 "12n" V 6899 4550 50  0000 C CNN
F 2 "Inductor_SMD:L_0603_1608Metric_Pad1.05x0.95mm_HandSolder" H 6800 4550 50  0001 C CNN
F 3 "~" H 6800 4550 50  0001 C CNN
F 4 "5%" H 6800 4550 50  0001 C CNN "SPEC"
F 5 "0402" H 6800 4550 50  0001 C CNN "NOTE"
	1    6800 4550
	1    0    0    -1  
$EndComp
Wire Wire Line
	6950 4400 6800 4400
Wire Wire Line
	6650 4400 6800 4400
Connection ~ 6800 4400
$Comp
L Device:C C?
U 1 1 5BDC1ADC
P 6800 5050
AR Path="/5BDC1ADC" Ref="C?"  Part="1" 
AR Path="/5BDC0033/5BDC1ADC" Ref="C?"  Part="1" 
AR Path="/5BE4B7EC/5BDC1ADC" Ref="C25"  Part="1" 
F 0 "C25" H 6915 5096 50  0000 L CNN
F 1 "3.3p" H 6915 5005 50  0000 L CNN
F 2 "Capacitor_SMD:C_0603_1608Metric_Pad1.05x0.95mm_HandSolder" H 6838 4900 50  0001 C CNN
F 3 "~" H 6800 5050 50  0001 C CNN
F 4 "+-0.25p" H 6800 5050 50  0001 C CNN "SPEC"
F 5 "0402 NP0" H 6800 5050 50  0001 C CNN "NOTE"
	1    6800 5050
	1    0    0    -1  
$EndComp
$Comp
L Device:L L?
U 1 1 5BDC1AE5
P 7000 4900
AR Path="/5BDC1AE5" Ref="L?"  Part="1" 
AR Path="/5BDC0033/5BDC1AE5" Ref="L?"  Part="1" 
AR Path="/5BE4B7EC/5BDC1AE5" Ref="L8"  Part="1" 
F 0 "L8" V 7190 4900 50  0000 C CNN
F 1 "12n" V 7099 4900 50  0000 C CNN
F 2 "Inductor_SMD:L_0603_1608Metric_Pad1.05x0.95mm_HandSolder" H 7000 4900 50  0001 C CNN
F 3 "~" H 7000 4900 50  0001 C CNN
F 4 "5%" H 7000 4900 50  0001 C CNN "SPEC"
F 5 "0402" H 7000 4900 50  0001 C CNN "NOTE"
	1    7000 4900
	0    -1   -1   0   
$EndComp
Wire Wire Line
	6850 4900 6800 4900
$Comp
L power:GND #PWR?
U 1 1 5BDC1AEF
P 6800 5250
AR Path="/5BDC1AEF" Ref="#PWR?"  Part="1" 
AR Path="/5BDC0033/5BDC1AEF" Ref="#PWR?"  Part="1" 
AR Path="/5BE4B7EC/5BDC1AEF" Ref="#PWR?"  Part="1" 
F 0 "#PWR?" H 6800 5000 50  0001 C CNN
F 1 "GND" H 6805 5077 50  0000 C CNN
F 2 "" H 6800 5250 50  0001 C CNN
F 3 "" H 6800 5250 50  0001 C CNN
	1    6800 5250
	1    0    0    -1  
$EndComp
Wire Wire Line
	6800 5200 6800 5250
$Comp
L Device:C C?
U 1 1 5BDC1AF8
P 7450 5300
AR Path="/5BDC1AF8" Ref="C?"  Part="1" 
AR Path="/5BDC0033/5BDC1AF8" Ref="C?"  Part="1" 
AR Path="/5BE4B7EC/5BDC1AF8" Ref="C27"  Part="1" 
F 0 "C27" V 7198 5300 50  0000 C CNN
F 1 "47p" V 7289 5300 50  0000 C CNN
F 2 "Capacitor_SMD:C_0603_1608Metric_Pad1.05x0.95mm_HandSolder" H 7488 5150 50  0001 C CNN
F 3 "~" H 7450 5300 50  0001 C CNN
F 4 "5%" H 7450 5300 50  0001 C CNN "SPEC"
F 5 "0402 NP0" H 7450 5300 50  0001 C CNN "NOTE"
	1    7450 5300
	0    1    1    0   
$EndComp
$Comp
L Device:L L?
U 1 1 5BDC1B01
P 7800 5300
AR Path="/5BDC1B01" Ref="L?"  Part="1" 
AR Path="/5BDC0033/5BDC1B01" Ref="L?"  Part="1" 
AR Path="/5BE4B7EC/5BDC1B01" Ref="L9"  Part="1" 
F 0 "L9" V 7990 5300 50  0000 C CNN
F 1 "3.3n" V 7899 5300 50  0000 C CNN
F 2 "Inductor_SMD:L_0603_1608Metric_Pad1.05x0.95mm_HandSolder" H 7800 5300 50  0001 C CNN
F 3 "~" H 7800 5300 50  0001 C CNN
F 4 "5%" H 7800 5300 50  0001 C CNN "SPEC"
F 5 "0402" H 7800 5300 50  0001 C CNN "NOTE"
	1    7800 5300
	0    -1   -1   0   
$EndComp
$Comp
L Device:C C?
U 1 1 5BDC1B0A
P 7600 4900
AR Path="/5BDC1B0A" Ref="C?"  Part="1" 
AR Path="/5BDC0033/5BDC1B0A" Ref="C?"  Part="1" 
AR Path="/5BE4B7EC/5BDC1B0A" Ref="C28"  Part="1" 
F 0 "C28" V 7348 4900 50  0000 C CNN
F 1 "12p" V 7439 4900 50  0000 C CNN
F 2 "Capacitor_SMD:C_0603_1608Metric_Pad1.05x0.95mm_HandSolder" H 7638 4750 50  0001 C CNN
F 3 "~" H 7600 4900 50  0001 C CNN
F 4 "5%" H 7600 4900 50  0001 C CNN "SPEC"
F 5 "0402 NP0" H 7600 4900 50  0001 C CNN "NOTE"
	1    7600 4900
	0    1    1    0   
$EndComp
Wire Wire Line
	7150 4900 7300 4900
Wire Wire Line
	7300 5300 7300 4900
Connection ~ 7300 4900
Wire Wire Line
	7300 4900 7450 4900
Wire Wire Line
	7600 5300 7650 5300
Wire Wire Line
	7750 4900 7950 4900
Wire Wire Line
	7950 5300 7950 4900
Wire Wire Line
	6950 3650 6950 3900
Wire Wire Line
	7050 3900 6950 3900
Connection ~ 6950 3900
Wire Wire Line
	6950 3900 6950 4100
$Comp
L Device:R_Small_US R?
U 1 1 5BDC1B27
P 6100 2350
AR Path="/5BDC1B27" Ref="R?"  Part="1" 
AR Path="/5BDC0033/5BDC1B27" Ref="R?"  Part="1" 
AR Path="/5BE4B7EC/5BDC1B27" Ref="R23"  Part="1" 
F 0 "R23" V 6000 2450 50  0000 C CNN
F 1 "56k1" V 6000 2300 50  0000 C CNN
F 2 "Resistor_SMD:R_0603_1608Metric_Pad1.05x0.95mm_HandSolder" V 6030 2350 50  0001 C CNN
F 3 "~" H 6100 2350 50  0001 C CNN
F 4 "1%" V 6100 2350 50  0001 C CNN "SPEC"
F 5 "0402 Koa RK73 series" V 6100 2350 50  0001 C CNN "NOTE"
	1    6100 2350
	0    1    1    0   
$EndComp
$Comp
L power:GND #PWR?
U 1 1 5BDC1B2E
P 6300 2350
AR Path="/5BDC1B2E" Ref="#PWR?"  Part="1" 
AR Path="/5BDC0033/5BDC1B2E" Ref="#PWR?"  Part="1" 
AR Path="/5BE4B7EC/5BDC1B2E" Ref="#PWR?"  Part="1" 
F 0 "#PWR?" H 6300 2100 50  0001 C CNN
F 1 "GND" V 6305 2222 50  0000 R CNN
F 2 "" H 6300 2350 50  0001 C CNN
F 3 "" H 6300 2350 50  0001 C CNN
	1    6300 2350
	0    -1   -1   0   
$EndComp
$Comp
L power:GND #PWR?
U 1 1 5BDC1B36
P 5950 2450
AR Path="/5BDC1B36" Ref="#PWR?"  Part="1" 
AR Path="/5BDC0033/5BDC1B36" Ref="#PWR?"  Part="1" 
AR Path="/5BE4B7EC/5BDC1B36" Ref="#PWR?"  Part="1" 
F 0 "#PWR?" H 5950 2200 50  0001 C CNN
F 1 "GND" V 5955 2322 50  0000 R CNN
F 2 "" H 5950 2450 50  0001 C CNN
F 3 "" H 5950 2450 50  0001 C CNN
	1    5950 2450
	0    -1   -1   0   
$EndComp
$Comp
L power:GND #PWR?
U 1 1 5BDC1B3C
P 5950 2150
AR Path="/5BDC1B3C" Ref="#PWR?"  Part="1" 
AR Path="/5BDC0033/5BDC1B3C" Ref="#PWR?"  Part="1" 
AR Path="/5BE4B7EC/5BDC1B3C" Ref="#PWR?"  Part="1" 
F 0 "#PWR?" H 5950 1900 50  0001 C CNN
F 1 "GND" V 5955 2022 50  0000 R CNN
F 2 "" H 5950 2150 50  0001 C CNN
F 3 "" H 5950 2150 50  0001 C CNN
	1    5950 2150
	0    -1   -1   0   
$EndComp
Wire Wire Line
	5950 2150 5400 2150
Wire Wire Line
	5400 2450 5950 2450
$Comp
L Device:C C?
U 1 1 5BDC1B46
P 1450 2450
AR Path="/5BDC1B46" Ref="C?"  Part="1" 
AR Path="/5BDC0033/5BDC1B46" Ref="C?"  Part="1" 
AR Path="/5BE4B7EC/5BDC1B46" Ref="C13"  Part="1" 
F 0 "C13" V 1198 2450 50  0000 C CNN
F 1 "100n" V 1289 2450 50  0000 C CNN
F 2 "Capacitor_SMD:C_0603_1608Metric_Pad1.05x0.95mm_HandSolder" H 1488 2300 50  0001 C CNN
F 3 "~" H 1450 2450 50  0001 C CNN
F 4 "10%" V 1198 2450 50  0001 C CNN "SPEC"
F 5 "0402 X5R" V 1289 2450 50  0001 C CNN "NOTE"
	1    1450 2450
	0    1    1    0   
$EndComp
$Comp
L power:GND #PWR?
U 1 1 5BDC1B4D
P 1250 2450
AR Path="/5BDC1B4D" Ref="#PWR?"  Part="1" 
AR Path="/5BDC0033/5BDC1B4D" Ref="#PWR?"  Part="1" 
AR Path="/5BE4B7EC/5BDC1B4D" Ref="#PWR?"  Part="1" 
F 0 "#PWR?" H 1250 2200 50  0001 C CNN
F 1 "GND" V 1255 2322 50  0000 R CNN
F 2 "" H 1250 2450 50  0001 C CNN
F 3 "" H 1250 2450 50  0001 C CNN
	1    1250 2450
	0    1    1    0   
$EndComp
Wire Wire Line
	1300 2450 1250 2450
$Comp
L power:GND #PWR?
U 1 1 5BDC1B64
P 4050 3450
AR Path="/5BDC1B64" Ref="#PWR?"  Part="1" 
AR Path="/5BDC0033/5BDC1B64" Ref="#PWR?"  Part="1" 
AR Path="/5BE4B7EC/5BDC1B64" Ref="#PWR?"  Part="1" 
F 0 "#PWR?" H 4050 3200 50  0001 C CNN
F 1 "GND" V 4055 3322 50  0000 R CNN
F 2 "" H 4050 3450 50  0001 C CNN
F 3 "" H 4050 3450 50  0001 C CNN
	1    4050 3450
	1    0    0    -1  
$EndComp
Text HLabel 1150 1400 0    50   Input ~ 0
SCLK_3V3
Text HLabel 1150 1500 0    50   Output ~ 0
MISO_3V3
Text HLabel 1150 1700 0    50   Input ~ 0
CS_3V3
Text HLabel 1150 1600 0    50   Input ~ 0
MOSI_3V3
Text HLabel 1150 1800 0    50   BiDi ~ 0
GDO2_3V3
Text HLabel 1150 1900 0    50   BiDi ~ 0
GDO0_3V3
Text GLabel 2300 2350 0    50   Input ~ 0
P3V3
Wire Wire Line
	2350 1400 2350 2050
Wire Wire Line
	2350 2050 2600 2050
Wire Wire Line
	2300 1500 2300 2150
Wire Wire Line
	2300 2150 2600 2150
Wire Wire Line
	2250 1800 2250 2250
Wire Wire Line
	2250 2250 2600 2250
Wire Wire Line
	1850 1900 1850 2550
Wire Wire Line
	1850 2550 2600 2550
Wire Wire Line
	1600 2450 2600 2450
Wire Wire Line
	1800 1700 1800 2650
Wire Wire Line
	1800 2650 2600 2650
Wire Wire Line
	5450 2050 5400 2050
Wire Wire Line
	4050 3350 4050 3450
$Comp
L Connector:Conn_Coaxial J6
U 1 1 5BE36CFB
P 8600 4900
F 0 "J6" H 8699 4876 50  0000 L CNN
F 1 "Conn_Coaxial" H 8699 4785 50  0000 L CNN
F 2 "Connector_Coaxial:SMA_Amphenol_132289_EdgeMount" H 8600 4900 50  0001 C CNN
F 3 " ~" H 8600 4900 50  0001 C CNN
	1    8600 4900
	1    0    0    -1  
$EndComp
$Comp
L power:GND #PWR?
U 1 1 5BE36DA1
P 8600 5600
AR Path="/5BE36DA1" Ref="#PWR?"  Part="1" 
AR Path="/5BDC0033/5BE36DA1" Ref="#PWR?"  Part="1" 
AR Path="/5BE4B7EC/5BE36DA1" Ref="#PWR?"  Part="1" 
F 0 "#PWR?" H 8600 5350 50  0001 C CNN
F 1 "GND" V 8605 5472 50  0000 R CNN
F 2 "" H 8600 5600 50  0001 C CNN
F 3 "" H 8600 5600 50  0001 C CNN
	1    8600 5600
	1    0    0    -1  
$EndComp
Wire Wire Line
	6800 4700 6800 4900
Connection ~ 6800 4900
$Comp
L Device:R_Small_US R25
U 1 1 5BE4BEAE
P 8350 3200
F 0 "R25" H 8420 3246 50  0000 L CNN
F 1 "0" H 8420 3155 50  0000 L CNN
F 2 "Resistor_SMD:R_0603_1608Metric_Pad1.05x0.95mm_HandSolder" V 8280 3200 50  0001 C CNN
F 3 "~" H 8350 3200 50  0001 C CNN
	1    8350 3200
	1    0    0    -1  
$EndComp
$Comp
L Device:R_Small_US R30
U 1 1 5BE4CEAD
P 8800 3200
F 0 "R30" H 8870 3246 50  0000 L CNN
F 1 "0" H 8870 3155 50  0000 L CNN
F 2 "Resistor_SMD:R_0603_1608Metric_Pad1.05x0.95mm_HandSolder" V 8730 3200 50  0001 C CNN
F 3 "~" H 8800 3200 50  0001 C CNN
	1    8800 3200
	1    0    0    -1  
$EndComp
$Comp
L Device:R_Small_US R27
U 1 1 5BE4CEF1
P 8600 5400
F 0 "R27" H 8670 5446 50  0000 L CNN
F 1 "0" H 8670 5355 50  0000 L CNN
F 2 "Resistor_SMD:R_0603_1608Metric_Pad1.05x0.95mm_HandSolder" V 8530 5400 50  0001 C CNN
F 3 "~" H 8600 5400 50  0001 C CNN
	1    8600 5400
	1    0    0    -1  
$EndComp
Wire Wire Line
	8600 5550 8600 5600
$Comp
L Device:R_Small_US R24
U 1 1 5BE54A71
P 8150 4900
F 0 "R24" V 7943 4900 50  0000 C CNN
F 1 "0" V 8034 4900 50  0000 C CNN
F 2 "Resistor_SMD:R_0603_1608Metric_Pad1.05x0.95mm_HandSolder" V 8080 4900 50  0001 C CNN
F 3 "~" H 8150 4900 50  0001 C CNN
	1    8150 4900
	0    1    1    0   
$EndComp
Connection ~ 7950 4900
Wire Wire Line
	8600 5100 8600 5150
Wire Wire Line
	8350 4900 8400 4900
Connection ~ 8350 4900
Wire Wire Line
	8350 2850 6650 2850
Wire Wire Line
	8800 5150 8600 5150
Connection ~ 8600 5150
Wire Wire Line
	6650 3150 6650 2850
Connection ~ 6650 2850
Wire Wire Line
	6950 3150 6950 2750
Connection ~ 6950 2750
Wire Wire Line
	6950 2750 8800 2750
$Comp
L Connector:Conn_01x08_Male J5
U 1 1 5BE66347
P 1600 950
F 0 "J5" V 1435 877 50  0000 C CNN
F 1 "Conn_01x08_Male" V 1526 877 50  0000 C CNN
F 2 "Connector_PinHeader_2.54mm:PinHeader_1x08_P2.54mm_Horizontal" H 1600 950 50  0001 C CNN
F 3 "~" H 1600 950 50  0001 C CNN
	1    1600 950 
	0    -1   1    0   
$EndComp
Wire Wire Line
	5450 1600 5450 2050
Wire Wire Line
	1150 1900 1500 1900
Wire Wire Line
	1150 1800 1600 1800
Wire Wire Line
	1150 1700 1400 1700
Wire Wire Line
	1150 1400 1800 1400
Wire Wire Line
	1150 1600 1900 1600
Wire Wire Line
	1150 1500 1700 1500
Wire Wire Line
	1900 1150 1900 1600
Connection ~ 1900 1600
Wire Wire Line
	1900 1600 5450 1600
Wire Wire Line
	1800 1150 1800 1400
Connection ~ 1800 1400
Wire Wire Line
	1800 1400 2350 1400
Wire Wire Line
	1700 1150 1700 1500
Connection ~ 1700 1500
Wire Wire Line
	1700 1500 2300 1500
Wire Wire Line
	1600 1150 1600 1800
Connection ~ 1600 1800
Wire Wire Line
	1600 1800 2250 1800
Wire Wire Line
	1500 1150 1500 1900
Connection ~ 1500 1900
Wire Wire Line
	1500 1900 1850 1900
Wire Wire Line
	1400 1150 1400 1700
Connection ~ 1400 1700
Wire Wire Line
	1400 1700 1800 1700
Text GLabel 2000 1250 2    50   Input ~ 0
P3V3
$Comp
L Device:C C?
U 1 1 5BEBABFE
P 3050 1050
AR Path="/5BEBABFE" Ref="C?"  Part="1" 
AR Path="/5BDC0033/5BEBABFE" Ref="C?"  Part="1" 
AR Path="/5BE4B7EC/5BEBABFE" Ref="C16"  Part="1" 
F 0 "C16" V 2798 1050 50  0000 C CNN
F 1 "100n" V 2889 1050 50  0000 C CNN
F 2 "Capacitor_SMD:C_0603_1608Metric_Pad1.05x0.95mm_HandSolder" H 3088 900 50  0001 C CNN
F 3 "~" H 3050 1050 50  0001 C CNN
F 4 "10%" V 2798 1050 50  0001 C CNN "SPEC"
F 5 "0402 X5R" V 2889 1050 50  0001 C CNN "NOTE"
	1    3050 1050
	1    0    0    -1  
$EndComp
Text Label 2350 2350 0    50   ~ 0
DVDD
Wire Wire Line
	2300 2350 2600 2350
Text GLabel 2300 2850 0    50   Input ~ 0
P3V3
Text Label 2350 2850 0    50   ~ 0
AVDD9
Wire Wire Line
	2300 2850 2600 2850
Text GLabel 5700 2950 2    50   Input ~ 0
P3V3
Text Label 5650 2950 2    50   ~ 0
AVDD11
Wire Wire Line
	5700 2950 5400 2950
Text GLabel 5700 2550 2    50   Input ~ 0
P3V3
Text Label 5650 2550 2    50   ~ 0
AVDD15
Wire Wire Line
	5700 2550 5400 2550
Text GLabel 5700 2650 2    50   Input ~ 0
P3V3
Text Label 5650 2650 2    50   ~ 0
AVDD14
Wire Wire Line
	5700 2650 5400 2650
Text GLabel 5700 2250 2    50   Input ~ 0
P3V3
Text Label 5650 2250 2    50   ~ 0
DGUARD
Wire Wire Line
	5700 2250 5400 2250
Wire Wire Line
	5400 2750 6950 2750
Wire Wire Line
	5400 2850 6650 2850
Text Label 3050 900  1    50   ~ 0
DVDD
$Comp
L power:GND #PWR?
U 1 1 5BEF801A
P 3050 1200
AR Path="/5BEF801A" Ref="#PWR?"  Part="1" 
AR Path="/5BDC0033/5BEF801A" Ref="#PWR?"  Part="1" 
AR Path="/5BE4B7EC/5BEF801A" Ref="#PWR?"  Part="1" 
F 0 "#PWR?" H 3050 950 50  0001 C CNN
F 1 "GND" H 3055 1027 50  0000 C CNN
F 2 "" H 3050 1200 50  0001 C CNN
F 3 "" H 3050 1200 50  0001 C CNN
	1    3050 1200
	1    0    0    -1  
$EndComp
$Comp
L Device:C C?
U 1 1 5BEFA92E
P 3450 1050
AR Path="/5BEFA92E" Ref="C?"  Part="1" 
AR Path="/5BDC0033/5BEFA92E" Ref="C?"  Part="1" 
AR Path="/5BE4B7EC/5BEFA92E" Ref="C17"  Part="1" 
F 0 "C17" V 3198 1050 50  0000 C CNN
F 1 "100n" V 3289 1050 50  0000 C CNN
F 2 "Capacitor_SMD:C_0603_1608Metric_Pad1.05x0.95mm_HandSolder" H 3488 900 50  0001 C CNN
F 3 "~" H 3450 1050 50  0001 C CNN
F 4 "10%" V 3198 1050 50  0001 C CNN "SPEC"
F 5 "0402 X5R" V 3289 1050 50  0001 C CNN "NOTE"
	1    3450 1050
	1    0    0    -1  
$EndComp
Text Label 3450 900  1    50   ~ 0
AVDD9
$Comp
L power:GND #PWR?
U 1 1 5BEFA936
P 3450 1200
AR Path="/5BEFA936" Ref="#PWR?"  Part="1" 
AR Path="/5BDC0033/5BEFA936" Ref="#PWR?"  Part="1" 
AR Path="/5BE4B7EC/5BEFA936" Ref="#PWR?"  Part="1" 
F 0 "#PWR?" H 3450 950 50  0001 C CNN
F 1 "GND" H 3455 1027 50  0000 C CNN
F 2 "" H 3450 1200 50  0001 C CNN
F 3 "" H 3450 1200 50  0001 C CNN
	1    3450 1200
	1    0    0    -1  
$EndComp
$Comp
L Device:C C?
U 1 1 5BEFD1EA
P 3850 1050
AR Path="/5BEFD1EA" Ref="C?"  Part="1" 
AR Path="/5BDC0033/5BEFD1EA" Ref="C?"  Part="1" 
AR Path="/5BE4B7EC/5BEFD1EA" Ref="C18"  Part="1" 
F 0 "C18" V 3598 1050 50  0000 C CNN
F 1 "100n" V 3689 1050 50  0000 C CNN
F 2 "Capacitor_SMD:C_0603_1608Metric_Pad1.05x0.95mm_HandSolder" H 3888 900 50  0001 C CNN
F 3 "~" H 3850 1050 50  0001 C CNN
F 4 "10%" V 3598 1050 50  0001 C CNN "SPEC"
F 5 "0402 X5R" V 3689 1050 50  0001 C CNN "NOTE"
	1    3850 1050
	1    0    0    -1  
$EndComp
Text Label 3850 900  1    50   ~ 0
AVDD11
$Comp
L power:GND #PWR?
U 1 1 5BEFD1F2
P 3850 1200
AR Path="/5BEFD1F2" Ref="#PWR?"  Part="1" 
AR Path="/5BDC0033/5BEFD1F2" Ref="#PWR?"  Part="1" 
AR Path="/5BE4B7EC/5BEFD1F2" Ref="#PWR?"  Part="1" 
F 0 "#PWR?" H 3850 950 50  0001 C CNN
F 1 "GND" H 3855 1027 50  0000 C CNN
F 2 "" H 3850 1200 50  0001 C CNN
F 3 "" H 3850 1200 50  0001 C CNN
	1    3850 1200
	1    0    0    -1  
$EndComp
$Comp
L Device:C C?
U 1 1 5BEFFA46
P 4250 1050
AR Path="/5BEFFA46" Ref="C?"  Part="1" 
AR Path="/5BDC0033/5BEFFA46" Ref="C?"  Part="1" 
AR Path="/5BE4B7EC/5BEFFA46" Ref="C19"  Part="1" 
F 0 "C19" V 3998 1050 50  0000 C CNN
F 1 "100n" V 4089 1050 50  0000 C CNN
F 2 "Capacitor_SMD:C_0603_1608Metric_Pad1.05x0.95mm_HandSolder" H 4288 900 50  0001 C CNN
F 3 "~" H 4250 1050 50  0001 C CNN
F 4 "10%" V 3998 1050 50  0001 C CNN "SPEC"
F 5 "0402 X5R" V 4089 1050 50  0001 C CNN "NOTE"
	1    4250 1050
	1    0    0    -1  
$EndComp
Text Label 4250 900  1    50   ~ 0
AVDD14
$Comp
L power:GND #PWR?
U 1 1 5BEFFA4E
P 4250 1200
AR Path="/5BEFFA4E" Ref="#PWR?"  Part="1" 
AR Path="/5BDC0033/5BEFFA4E" Ref="#PWR?"  Part="1" 
AR Path="/5BE4B7EC/5BEFFA4E" Ref="#PWR?"  Part="1" 
F 0 "#PWR?" H 4250 950 50  0001 C CNN
F 1 "GND" H 4255 1027 50  0000 C CNN
F 2 "" H 4250 1200 50  0001 C CNN
F 3 "" H 4250 1200 50  0001 C CNN
	1    4250 1200
	1    0    0    -1  
$EndComp
$Comp
L Device:C C?
U 1 1 5BF02294
P 4650 1050
AR Path="/5BF02294" Ref="C?"  Part="1" 
AR Path="/5BDC0033/5BF02294" Ref="C?"  Part="1" 
AR Path="/5BE4B7EC/5BF02294" Ref="C20"  Part="1" 
F 0 "C20" V 4398 1050 50  0000 C CNN
F 1 "100n" V 4489 1050 50  0000 C CNN
F 2 "Capacitor_SMD:C_0603_1608Metric_Pad1.05x0.95mm_HandSolder" H 4688 900 50  0001 C CNN
F 3 "~" H 4650 1050 50  0001 C CNN
F 4 "10%" V 4398 1050 50  0001 C CNN "SPEC"
F 5 "0402 X5R" V 4489 1050 50  0001 C CNN "NOTE"
	1    4650 1050
	1    0    0    -1  
$EndComp
Text Label 4650 900  1    50   ~ 0
AVDD15
$Comp
L power:GND #PWR?
U 1 1 5BF0229C
P 4650 1200
AR Path="/5BF0229C" Ref="#PWR?"  Part="1" 
AR Path="/5BDC0033/5BF0229C" Ref="#PWR?"  Part="1" 
AR Path="/5BE4B7EC/5BF0229C" Ref="#PWR?"  Part="1" 
F 0 "#PWR?" H 4650 950 50  0001 C CNN
F 1 "GND" H 4655 1027 50  0000 C CNN
F 2 "" H 4650 1200 50  0001 C CNN
F 3 "" H 4650 1200 50  0001 C CNN
	1    4650 1200
	1    0    0    -1  
$EndComp
$Comp
L Device:C C?
U 1 1 5BF04C77
P 5050 1050
AR Path="/5BF04C77" Ref="C?"  Part="1" 
AR Path="/5BDC0033/5BF04C77" Ref="C?"  Part="1" 
AR Path="/5BE4B7EC/5BF04C77" Ref="C21"  Part="1" 
F 0 "C21" V 4798 1050 50  0000 C CNN
F 1 "100n" V 4889 1050 50  0000 C CNN
F 2 "Capacitor_SMD:C_0603_1608Metric_Pad1.05x0.95mm_HandSolder" H 5088 900 50  0001 C CNN
F 3 "~" H 5050 1050 50  0001 C CNN
F 4 "10%" V 4798 1050 50  0001 C CNN "SPEC"
F 5 "0402 X5R" V 4889 1050 50  0001 C CNN "NOTE"
	1    5050 1050
	1    0    0    -1  
$EndComp
Text Label 5050 900  1    50   ~ 0
DGUARD
$Comp
L power:GND #PWR?
U 1 1 5BF04C7F
P 5050 1200
AR Path="/5BF04C7F" Ref="#PWR?"  Part="1" 
AR Path="/5BDC0033/5BF04C7F" Ref="#PWR?"  Part="1" 
AR Path="/5BE4B7EC/5BF04C7F" Ref="#PWR?"  Part="1" 
F 0 "#PWR?" H 5050 950 50  0001 C CNN
F 1 "GND" H 5055 1027 50  0000 C CNN
F 2 "" H 5050 1200 50  0001 C CNN
F 3 "" H 5050 1200 50  0001 C CNN
	1    5050 1200
	1    0    0    -1  
$EndComp
Wire Wire Line
	2000 1150 2000 1250
Wire Wire Line
	1300 1150 1300 1250
$Comp
L power:GND #PWR?
U 1 1 5BE5087F
P 1300 1250
AR Path="/5BE5087F" Ref="#PWR?"  Part="1" 
AR Path="/5BDC0033/5BE5087F" Ref="#PWR?"  Part="1" 
AR Path="/5BE4B7EC/5BE5087F" Ref="#PWR?"  Part="1" 
F 0 "#PWR?" H 1300 1000 50  0001 C CNN
F 1 "GND" V 1305 1122 50  0000 R CNN
F 2 "" H 1300 1250 50  0001 C CNN
F 3 "" H 1300 1250 50  0001 C CNN
	1    1300 1250
	0    1    1    0   
$EndComp
$Comp
L Device:R_Small_US R26
U 1 1 5BE4ED1A
P 8350 5400
F 0 "R26" H 8420 5446 50  0000 L CNN
F 1 "0" H 8420 5355 50  0000 L CNN
F 2 "Resistor_SMD:R_0603_1608Metric_Pad1.05x0.95mm_HandSolder" V 8280 5400 50  0001 C CNN
F 3 "~" H 8350 5400 50  0001 C CNN
	1    8350 5400
	1    0    0    -1  
$EndComp
Wire Wire Line
	8600 5150 8350 5150
Wire Wire Line
	8350 5550 8600 5550
Wire Wire Line
	8350 2850 8350 3100
Wire Wire Line
	8800 2750 8800 3100
Wire Wire Line
	8800 3300 8800 5150
Wire Wire Line
	8350 3300 8350 4900
Wire Wire Line
	8250 4900 8350 4900
Wire Wire Line
	7950 4900 8050 4900
Wire Wire Line
	8350 5150 8350 5300
Wire Wire Line
	8600 5150 8600 5300
Wire Wire Line
	8600 5500 8600 5550
Connection ~ 8600 5550
Wire Wire Line
	8350 5550 8350 5500
Wire Wire Line
	5400 2350 6000 2350
Wire Wire Line
	6200 2350 6300 2350
$EndSCHEMATC
