EESchema Schematic File Version 4
LIBS:poc_cca_hms-cache
EELAYER 26 0
EELAYER END
$Descr A4 11693 8268
encoding utf-8
Sheet 1 1
Title ""
Date ""
Rev ""
Comp ""
Comment1 ""
Comment2 ""
Comment3 ""
Comment4 ""
$EndDescr
$Comp
L MCU_Module:Arduino_Nano_v3.x A1
U 1 1 5BE07416
P 8600 2300
F 0 "A1" H 9100 3400 50  0000 C CNN
F 1 "Arduino_Nano_v3.x" H 9400 3300 50  0000 C CNN
F 2 "capstone_footprints:Arduino_Nano_Modified" H 8750 1350 50  0001 L CNN
F 3 "http://www.mouser.com/pdfdocs/Gravitech_Arduino_Nano3_0.pdf" H 8600 1300 50  0001 C CNN
	1    8600 2300
	1    0    0    -1  
$EndComp
Text Notes 8600 700  0    79   ~ 16
Arduino Nano
Text GLabel 8350 1150 0    50   Input ~ 0
P5V_VIN
Text GLabel 8350 950  0    50   Input ~ 0
P5V
Text GLabel 8350 1050 0    50   Input ~ 0
P3V3
NoConn ~ 9100 1700
NoConn ~ 9100 1800
NoConn ~ 9100 2100
$Comp
L power:GND #PWR010
U 1 1 5BE0B4DB
P 8650 3500
F 0 "#PWR010" H 8650 3250 50  0001 C CNN
F 1 "GND" H 8655 3327 50  0000 C CNN
F 2 "" H 8650 3500 50  0001 C CNN
F 3 "" H 8650 3500 50  0001 C CNN
	1    8650 3500
	1    0    0    -1  
$EndComp
Wire Wire Line
	8600 3450 8650 3450
Wire Wire Line
	8650 3450 8650 3500
Wire Wire Line
	8600 3300 8600 3450
Wire Wire Line
	8700 3300 8700 3450
Wire Wire Line
	8700 3450 8650 3450
Connection ~ 8650 3450
Wire Wire Line
	8500 1300 8500 1150
Wire Wire Line
	8500 1150 8350 1150
Wire Wire Line
	8350 1050 8700 1050
Wire Wire Line
	8700 1050 8700 1300
Wire Wire Line
	8800 1300 8800 950 
Wire Wire Line
	8800 950  8350 950 
$Comp
L Connector:Conn_01x08_Female J1
U 1 1 5BE4E199
P 1900 3900
F 0 "J1" V 2065 3830 50  0000 C CNN
F 1 "CC1101_Connector" V 1974 3830 50  0000 C CNN
F 2 "Connector_PinHeader_2.54mm:PinHeader_1x08_P2.54mm_Vertical" H 1900 3900 50  0001 C CNN
F 3 "~" H 1900 3900 50  0001 C CNN
	1    1900 3900
	0    -1   -1   0   
$EndComp
Text GLabel 2300 4200 2    50   Input ~ 0
P3V3
Wire Wire Line
	2300 4100 2300 4200
$Comp
L power:GND #PWR03
U 1 1 5BE4FC85
P 1600 4200
F 0 "#PWR03" H 1600 3950 50  0001 C CNN
F 1 "GND" H 1605 4027 50  0000 C CNN
F 2 "" H 1600 4200 50  0001 C CNN
F 3 "" H 1600 4200 50  0001 C CNN
	1    1600 4200
	1    0    0    -1  
$EndComp
Wire Wire Line
	1600 4100 1600 4200
Wire Wire Line
	1500 4500 2100 4500
Wire Wire Line
	2100 4500 2100 4100
Wire Wire Line
	1500 4600 2000 4600
Wire Wire Line
	2000 4600 2000 4100
Wire Wire Line
	1500 4700 2200 4700
Wire Wire Line
	2200 4700 2200 4100
Wire Wire Line
	1500 4800 1700 4800
Wire Wire Line
	1700 4800 1700 4100
Wire Wire Line
	1500 4950 1900 4950
Text GLabel 3700 4350 0    50   Input ~ 0
SCLK_5V
Text GLabel 3700 4800 0    50   Input ~ 0
MISO_5V
Text GLabel 3700 5250 0    50   Input ~ 0
MOSI_5V
Text GLabel 3700 5700 0    50   Input ~ 0
CS1_5V
$Comp
L Device:R_Small_US R1
U 1 1 5BE6326A
P 3850 4350
F 0 "R1" V 3643 4350 50  0000 C CNN
F 1 "2.2k" V 3734 4350 50  0000 C CNN
F 2 "Resistor_THT:R_Axial_DIN0309_L9.0mm_D3.2mm_P12.70mm_Horizontal" V 3780 4350 50  0001 C CNN
F 3 "~" H 3850 4350 50  0001 C CNN
	1    3850 4350
	0    -1   -1   0   
$EndComp
Text GLabel 4000 4200 2    50   Input ~ 0
SCLK_3.3V
Text GLabel 4000 4650 2    50   Input ~ 0
MISO_3.3V
Text GLabel 4000 5100 2    50   Input ~ 0
MOSI_3.3V
Text GLabel 4000 5550 2    50   Input ~ 0
CS1_3.3V
$Comp
L Device:R_Small_US R5
U 1 1 5BE6B702
P 4150 4350
F 0 "R5" V 3943 4350 50  0000 C CNN
F 1 "3.3k" V 4034 4350 50  0000 C CNN
F 2 "Resistor_THT:R_Axial_DIN0309_L9.0mm_D3.2mm_P12.70mm_Horizontal" V 4080 4350 50  0001 C CNN
F 3 "~" H 4150 4350 50  0001 C CNN
	1    4150 4350
	0    -1   -1   0   
$EndComp
$Comp
L power:GND #PWR05
U 1 1 5BE6CEB6
P 4300 4350
F 0 "#PWR05" H 4300 4100 50  0001 C CNN
F 1 "GND" V 4305 4222 50  0000 R CNN
F 2 "" H 4300 4350 50  0001 C CNN
F 3 "" H 4300 4350 50  0001 C CNN
	1    4300 4350
	0    -1   -1   0   
$EndComp
Wire Wire Line
	4250 4350 4300 4350
Wire Wire Line
	3950 4350 4000 4350
Wire Wire Line
	3750 4350 3700 4350
Wire Wire Line
	4000 4200 4000 4350
Connection ~ 4000 4350
Wire Wire Line
	4000 4350 4050 4350
$Comp
L Device:R_Small_US R2
U 1 1 5BE7E8CB
P 3850 4800
F 0 "R2" V 3643 4800 50  0000 C CNN
F 1 "2.2k" V 3734 4800 50  0000 C CNN
F 2 "Resistor_THT:R_Axial_DIN0309_L9.0mm_D3.2mm_P12.70mm_Horizontal" V 3780 4800 50  0001 C CNN
F 3 "~" H 3850 4800 50  0001 C CNN
	1    3850 4800
	0    -1   -1   0   
$EndComp
$Comp
L Device:R_Small_US R6
U 1 1 5BE7E8D3
P 4150 4800
F 0 "R6" V 3943 4800 50  0000 C CNN
F 1 "3.3k" V 4034 4800 50  0000 C CNN
F 2 "Resistor_THT:R_Axial_DIN0309_L9.0mm_D3.2mm_P12.70mm_Horizontal" V 4080 4800 50  0001 C CNN
F 3 "~" H 4150 4800 50  0001 C CNN
	1    4150 4800
	0    -1   -1   0   
$EndComp
$Comp
L power:GND #PWR06
U 1 1 5BE7E8DA
P 4300 4800
F 0 "#PWR06" H 4300 4550 50  0001 C CNN
F 1 "GND" V 4305 4672 50  0000 R CNN
F 2 "" H 4300 4800 50  0001 C CNN
F 3 "" H 4300 4800 50  0001 C CNN
	1    4300 4800
	0    -1   -1   0   
$EndComp
Wire Wire Line
	4250 4800 4300 4800
Wire Wire Line
	3950 4800 4000 4800
Wire Wire Line
	4000 4650 4000 4800
Connection ~ 4000 4800
Wire Wire Line
	4000 4800 4050 4800
Wire Wire Line
	3750 4800 3700 4800
$Comp
L Device:R_Small_US R3
U 1 1 5BE82224
P 3850 5250
F 0 "R3" V 3643 5250 50  0000 C CNN
F 1 "2.2k" V 3734 5250 50  0000 C CNN
F 2 "Resistor_THT:R_Axial_DIN0309_L9.0mm_D3.2mm_P12.70mm_Horizontal" V 3780 5250 50  0001 C CNN
F 3 "~" H 3850 5250 50  0001 C CNN
	1    3850 5250
	0    -1   -1   0   
$EndComp
$Comp
L Device:R_Small_US R7
U 1 1 5BE8222B
P 4150 5250
F 0 "R7" V 3943 5250 50  0000 C CNN
F 1 "3.3k" V 4034 5250 50  0000 C CNN
F 2 "Resistor_THT:R_Axial_DIN0309_L9.0mm_D3.2mm_P12.70mm_Horizontal" V 4080 5250 50  0001 C CNN
F 3 "~" H 4150 5250 50  0001 C CNN
	1    4150 5250
	0    -1   -1   0   
$EndComp
$Comp
L power:GND #PWR07
U 1 1 5BE82232
P 4300 5250
F 0 "#PWR07" H 4300 5000 50  0001 C CNN
F 1 "GND" V 4305 5122 50  0000 R CNN
F 2 "" H 4300 5250 50  0001 C CNN
F 3 "" H 4300 5250 50  0001 C CNN
	1    4300 5250
	0    -1   -1   0   
$EndComp
Wire Wire Line
	4250 5250 4300 5250
Wire Wire Line
	3950 5250 4000 5250
Wire Wire Line
	4000 5100 4000 5250
Connection ~ 4000 5250
Wire Wire Line
	4000 5250 4050 5250
Wire Wire Line
	3750 5250 3700 5250
$Comp
L Device:R_Small_US R4
U 1 1 5BE86249
P 3850 5700
F 0 "R4" V 3643 5700 50  0000 C CNN
F 1 "2.2k" V 3734 5700 50  0000 C CNN
F 2 "Resistor_THT:R_Axial_DIN0309_L9.0mm_D3.2mm_P12.70mm_Horizontal" V 3780 5700 50  0001 C CNN
F 3 "~" H 3850 5700 50  0001 C CNN
	1    3850 5700
	0    -1   -1   0   
$EndComp
$Comp
L Device:R_Small_US R8
U 1 1 5BE86250
P 4150 5700
F 0 "R8" V 3943 5700 50  0000 C CNN
F 1 "3.3k" V 4034 5700 50  0000 C CNN
F 2 "Resistor_THT:R_Axial_DIN0309_L9.0mm_D3.2mm_P12.70mm_Horizontal" V 4080 5700 50  0001 C CNN
F 3 "~" H 4150 5700 50  0001 C CNN
	1    4150 5700
	0    -1   -1   0   
$EndComp
$Comp
L power:GND #PWR08
U 1 1 5BE86257
P 4300 5700
F 0 "#PWR08" H 4300 5450 50  0001 C CNN
F 1 "GND" V 4305 5572 50  0000 R CNN
F 2 "" H 4300 5700 50  0001 C CNN
F 3 "" H 4300 5700 50  0001 C CNN
	1    4300 5700
	0    -1   -1   0   
$EndComp
Wire Wire Line
	4250 5700 4300 5700
Wire Wire Line
	3950 5700 4000 5700
Wire Wire Line
	4000 5550 4000 5700
Connection ~ 4000 5700
Wire Wire Line
	4000 5700 4050 5700
Wire Wire Line
	3750 5700 3700 5700
Text GLabel 8050 3000 0    50   Input ~ 0
SCLK_5V
Wire Wire Line
	8100 3000 8050 3000
Text GLabel 8050 2900 0    50   Input ~ 0
MISO_5V
Text GLabel 8050 2700 0    50   Input ~ 0
CS1_5V
Text GLabel 8050 2800 0    50   Input ~ 0
MOSI_5V
Wire Wire Line
	8100 2800 8050 2800
Wire Wire Line
	8100 2900 8050 2900
Wire Wire Line
	8100 2700 8050 2700
Text GLabel 8050 2600 0    50   Input ~ 0
CS2_5V
Wire Wire Line
	8100 2600 8050 2600
Text GLabel 3700 6150 0    50   Input ~ 0
CS2_5V
Text GLabel 4000 6000 2    50   Input ~ 0
CS2_3.3V
$Comp
L Device:R_Small_US R28
U 1 1 5BED7B10
P 3850 6150
F 0 "R28" V 3643 6150 50  0000 C CNN
F 1 "2.2k" V 3734 6150 50  0000 C CNN
F 2 "Resistor_THT:R_Axial_DIN0309_L9.0mm_D3.2mm_P12.70mm_Horizontal" V 3780 6150 50  0001 C CNN
F 3 "~" H 3850 6150 50  0001 C CNN
	1    3850 6150
	0    -1   -1   0   
$EndComp
$Comp
L Device:R_Small_US R29
U 1 1 5BED7B17
P 4150 6150
F 0 "R29" V 3943 6150 50  0000 C CNN
F 1 "3.3k" V 4034 6150 50  0000 C CNN
F 2 "Resistor_THT:R_Axial_DIN0309_L9.0mm_D3.2mm_P12.70mm_Horizontal" V 4080 6150 50  0001 C CNN
F 3 "~" H 4150 6150 50  0001 C CNN
	1    4150 6150
	0    -1   -1   0   
$EndComp
$Comp
L power:GND #PWR09
U 1 1 5BED7B1E
P 4300 6150
F 0 "#PWR09" H 4300 5900 50  0001 C CNN
F 1 "GND" V 4305 6022 50  0000 R CNN
F 2 "" H 4300 6150 50  0001 C CNN
F 3 "" H 4300 6150 50  0001 C CNN
	1    4300 6150
	0    -1   -1   0   
$EndComp
Wire Wire Line
	4250 6150 4300 6150
Wire Wire Line
	3950 6150 4000 6150
Wire Wire Line
	4000 6000 4000 6150
Connection ~ 4000 6150
Wire Wire Line
	4000 6150 4050 6150
Wire Wire Line
	3750 6150 3700 6150
Text Notes 2650 3950 0    79   ~ 16
RF Comm via SPI
Wire Notes Line
	6450 500  6450 3850
Wire Notes Line
	6450 3850 11150 3850
Wire Notes Line
	11150 3850 11150 500 
Wire Notes Line
	11150 500  6450 500 
$Comp
L Connector_Generic:Conn_02x07_Odd_Even J2
U 1 1 5BE6B3F1
P 2050 5800
F 0 "J2" H 2100 6317 50  0000 C CNN
F 1 "RFM95_Connector" H 2100 6226 50  0000 C CNN
F 2 "Connector_PinHeader_2.54mm:PinHeader_2x07_P2.54mm_Vertical" H 2050 5800 50  0001 C CNN
F 3 "~" H 2050 5800 50  0001 C CNN
	1    2050 5800
	1    0    0    -1  
$EndComp
Wire Wire Line
	1450 6450 1650 6450
Wire Wire Line
	1450 6750 1600 6750
Wire Wire Line
	1450 6550 1750 6550
Wire Wire Line
	1450 6650 1700 6650
Text GLabel 2500 5500 2    50   Input ~ 0
P3V3
Wire Wire Line
	2500 5500 2350 5500
$Comp
L power:GND #PWR02
U 1 1 5BE7297E
P 1450 5550
F 0 "#PWR02" H 1450 5300 50  0001 C CNN
F 1 "GND" H 1455 5377 50  0000 C CNN
F 2 "" H 1450 5550 50  0001 C CNN
F 3 "" H 1450 5550 50  0001 C CNN
	1    1450 5550
	1    0    0    -1  
$EndComp
Wire Wire Line
	1850 5500 1450 5500
$Comp
L power:GND #PWR04
U 1 1 5BE74F49
P 1850 6200
F 0 "#PWR04" H 1850 5950 50  0001 C CNN
F 1 "GND" H 1855 6027 50  0000 C CNN
F 2 "" H 1850 6200 50  0001 C CNN
F 3 "" H 1850 6200 50  0001 C CNN
	1    1850 6200
	1    0    0    -1  
$EndComp
Wire Wire Line
	1850 6100 1850 6200
Wire Wire Line
	1850 6000 1750 6000
Wire Wire Line
	1750 6000 1750 6550
Wire Wire Line
	1850 5900 1700 5900
Wire Wire Line
	1700 5900 1700 6650
Wire Wire Line
	1850 5800 1650 5800
Wire Wire Line
	1650 5800 1650 6450
Wire Wire Line
	1850 5700 1600 5700
Wire Wire Line
	1600 5700 1600 6750
Wire Wire Line
	1850 5600 1550 5600
Wire Wire Line
	2350 7500 1450 7500
Wire Wire Line
	2350 6000 2400 6000
Wire Wire Line
	2400 7300 1450 7300
Wire Wire Line
	2350 5900 2450 5900
Wire Wire Line
	2450 7400 1450 7400
Wire Wire Line
	2350 5800 2500 5800
Wire Wire Line
	2500 7200 1450 7200
Wire Wire Line
	2350 5700 2550 5700
Wire Wire Line
	2550 7100 1450 7100
Wire Wire Line
	2350 5600 2600 5600
Wire Wire Line
	2600 7000 1450 7000
Wire Notes Line
	550  7750 550  3550
Wire Notes Line
	550  3550 4750 3550
Wire Notes Line
	4750 3550 4750 7800
Wire Notes Line
	4750 7750 550  7750
Text Label 1450 7200 2    50   ~ 0
RFM95_DIO0_3V3
Text Label 1450 7100 2    50   ~ 0
RFM95_DIO1_3V3
Text Label 1450 7000 2    50   ~ 0
RFM95_DIO2_3V3
Text Label 1450 7300 2    50   ~ 0
RFM95_DIO3_3V3
Text Label 1450 7400 2    50   ~ 0
RFM95_DIO4_3V3
Text Label 1450 7500 2    50   ~ 0
RFM95_DIO5_3V3
Text GLabel 1450 6450 0    50   Input ~ 0
SCLK_3.3V
Text GLabel 1450 6550 0    50   Input ~ 0
MISO_3.3V
Text GLabel 1450 6650 0    50   Input ~ 0
MOSI_3.3V
Text GLabel 1450 6750 0    50   Input ~ 0
CS2_3.3V
Text Label 1450 6900 2    50   ~ 0
RFM95_RST_3V3
Wire Wire Line
	1550 6900 1450 6900
Wire Wire Line
	2600 5600 2600 7000
Wire Wire Line
	2550 5700 2550 7100
Wire Wire Line
	2500 5800 2500 7200
Wire Wire Line
	2450 5900 2450 7400
Wire Wire Line
	2400 6000 2400 7300
Wire Wire Line
	2350 6100 2350 7500
Wire Wire Line
	1550 5600 1550 6900
Wire Wire Line
	1450 5500 1450 5550
Text Label 1500 4950 2    50   ~ 0
CC1101_GDO2_3V3
Text Label 1500 5050 2    50   ~ 0
CC1101_GDO0_3V3
Wire Wire Line
	1800 5050 1500 5050
Text GLabel 1500 4500 0    50   Input ~ 0
SCLK_3.3V
Text GLabel 1500 4600 0    50   Input ~ 0
MISO_3.3V
Text GLabel 1500 4700 0    50   Input ~ 0
MOSI_3.3V
Text GLabel 1500 4800 0    50   Input ~ 0
CS1_3.3V
Wire Wire Line
	1900 4100 1900 4950
Wire Wire Line
	1800 4100 1800 5050
Wire Wire Line
	9750 3000 9100 3000
Wire Wire Line
	9750 2900 9100 2900
Wire Wire Line
	9750 2800 9100 2800
Wire Wire Line
	9750 2700 9100 2700
Wire Wire Line
	9750 2600 9100 2600
$Comp
L Connector:Conn_01x05_Female J3
U 1 1 5BED1E0F
P 1500 1100
F 0 "J3" V 1650 1150 50  0000 R CNN
F 1 "Sensors_Connector" V 1550 1400 50  0000 R CNN
F 2 "Connector_PinHeader_2.54mm:PinHeader_1x05_P2.54mm_Vertical" H 1500 1100 50  0001 C CNN
F 3 "~" H 1500 1100 50  0001 C CNN
	1    1500 1100
	0    -1   -1   0   
$EndComp
$Comp
L power:GND #PWR01
U 1 1 5BED5015
P 1300 1400
F 0 "#PWR01" H 1300 1150 50  0001 C CNN
F 1 "GND" H 1200 1350 50  0000 R CNN
F 2 "" H 1300 1400 50  0001 C CNN
F 3 "" H 1300 1400 50  0001 C CNN
	1    1300 1400
	1    0    0    -1  
$EndComp
Wire Wire Line
	1300 1300 1300 1400
Text GLabel 1700 1400 2    50   Input ~ 0
P5V
Wire Wire Line
	1700 1300 1700 1400
Text Label 1300 1650 2    50   ~ 0
V_THERM
Text Label 1300 1750 2    50   ~ 0
V_PHOTO
Text Label 1300 1850 2    50   ~ 0
V_TMP23
Text Notes 1300 850  0    79   ~ 16
Sensor Connections
Wire Notes Line
	500  500  2850 500 
Wire Notes Line
	2850 500  2850 2150
Wire Notes Line
	2850 2150 500  2150
Wire Notes Line
	500  2150 500  500 
Wire Wire Line
	1400 1650 1300 1650
Wire Wire Line
	1500 1750 1300 1750
Wire Wire Line
	1600 1850 1300 1850
Text Label 9200 2400 0    50   ~ 0
V_PHOTO
Text Label 9200 2300 0    50   ~ 0
V_THERM
Text Label 9200 2500 0    50   ~ 0
V_TMP23
Wire Wire Line
	9200 2300 9100 2300
Wire Wire Line
	9100 2400 9200 2400
Wire Wire Line
	9200 2500 9100 2500
NoConn ~ 8100 1700
NoConn ~ 8100 1800
NoConn ~ 8100 2100
NoConn ~ 8100 2200
NoConn ~ 8100 2300
NoConn ~ 8100 2400
NoConn ~ 8100 2500
Wire Wire Line
	1400 1300 1400 1650
Wire Wire Line
	1500 1300 1500 1750
Wire Wire Line
	1600 1300 1600 1850
Text Label 8000 2000 2    50   ~ 0
RFM95_DIO0_3V3
Wire Wire Line
	8100 2000 8000 2000
Text Label 4000 6500 0    50   ~ 0
RFM95_RST_3V3
$Comp
L Device:R_Small_US R9
U 1 1 5BF2BE8C
P 3850 6650
F 0 "R9" V 3643 6650 50  0000 C CNN
F 1 "2.2k" V 3734 6650 50  0000 C CNN
F 2 "Resistor_THT:R_Axial_DIN0309_L9.0mm_D3.2mm_P12.70mm_Horizontal" V 3780 6650 50  0001 C CNN
F 3 "~" H 3850 6650 50  0001 C CNN
	1    3850 6650
	0    -1   -1   0   
$EndComp
$Comp
L Device:R_Small_US R10
U 1 1 5BF2BEE2
P 4150 6650
F 0 "R10" V 3943 6650 50  0000 C CNN
F 1 "3.3k" V 4034 6650 50  0000 C CNN
F 2 "Resistor_THT:R_Axial_DIN0309_L9.0mm_D3.2mm_P12.70mm_Horizontal" V 4080 6650 50  0001 C CNN
F 3 "~" H 4150 6650 50  0001 C CNN
	1    4150 6650
	0    -1   -1   0   
$EndComp
Wire Wire Line
	4000 6500 4000 6650
Wire Wire Line
	4000 6650 3950 6650
Wire Wire Line
	4050 6650 4000 6650
Connection ~ 4000 6650
$Comp
L power:GND #PWR0101
U 1 1 5BF33D5E
P 4300 6650
F 0 "#PWR0101" H 4300 6400 50  0001 C CNN
F 1 "GND" V 4305 6522 50  0000 R CNN
F 2 "" H 4300 6650 50  0001 C CNN
F 3 "" H 4300 6650 50  0001 C CNN
	1    4300 6650
	0    -1   -1   0   
$EndComp
Wire Wire Line
	4300 6650 4250 6650
Text Label 3700 6650 2    50   ~ 0
RFM95_RST_5V
Wire Wire Line
	3750 6650 3700 6650
Text Label 8000 1900 2    50   ~ 0
RFM95_RST_5V
Wire Wire Line
	8100 1900 8000 1900
$Comp
L Connector:Conn_01x05_Male J4
U 1 1 5BF330D1
P 9950 2800
F 0 "J4" H 9923 2730 50  0000 R CNN
F 1 "Misc_Analog" H 9923 2821 50  0000 R CNN
F 2 "Connector_PinHeader_2.54mm:PinHeader_1x05_P2.54mm_Vertical" H 9950 2800 50  0001 C CNN
F 3 "~" H 9950 2800 50  0001 C CNN
	1    9950 2800
	-1   0    0    1   
$EndComp
$EndSCHEMATC
