EESchema Schematic File Version 4
LIBS:poc_cca_hms-cache
EELAYER 26 0
EELAYER END
$Descr A4 11693 8268
encoding utf-8
Sheet 2 2
Title ""
Date ""
Rev ""
Comp ""
Comment1 ""
Comment2 ""
Comment3 ""
Comment4 ""
$EndDescr
$Comp
L Battery_Management:BQ25504 U?
U 1 1 5BE6E393
P 5950 4000
F 0 "U?" H 6550 4650 50  0000 L CNN
F 1 "BQ25504" H 6550 4550 50  0000 L CNN
F 2 "Package_DFN_QFN:QFN-16-1EP_3x3mm_P0.5mm_EP1.8x1.8mm" H 6000 2800 50  0001 C CNN
F 3 "http://www.ti.com/lit/ds/symlink/bq25504.pdf" H 5650 4800 50  0001 C CNN
	1    5950 4000
	1    0    0    -1  
$EndComp
Text Notes 6150 2100 0    79   ~ 16
Battery Charging Circuit\n
Wire Wire Line
	6150 4800 6150 4950
Wire Wire Line
	5650 4950 5650 4800
$Comp
L power:GND #PWR?
U 1 1 5BE6E39D
P 5950 5100
F 0 "#PWR?" H 5950 4850 50  0001 C CNN
F 1 "GND" H 5955 4927 50  0000 C CNN
F 2 "" H 5950 5100 50  0001 C CNN
F 3 "" H 5950 5100 50  0001 C CNN
	1    5950 5100
	1    0    0    -1  
$EndComp
Wire Wire Line
	5950 4800 5950 4950
Connection ~ 5950 4950
Wire Wire Line
	5950 4950 5650 4950
Wire Wire Line
	5950 4950 5950 5100
Wire Wire Line
	6350 3200 6350 3100
Wire Wire Line
	5950 4950 6150 4950
Wire Wire Line
	5550 3200 5550 3100
Connection ~ 5650 4950
Wire Wire Line
	5250 4100 5250 4200
Wire Wire Line
	5250 4950 5650 4950
Wire Wire Line
	5350 4100 5250 4100
Wire Wire Line
	5350 4200 5250 4200
Connection ~ 5250 4200
Wire Wire Line
	5250 4200 5250 4400
Wire Wire Line
	5350 4400 5250 4400
Connection ~ 5250 4400
Wire Wire Line
	5250 4400 5250 4950
$Comp
L Device:L_Small L?
U 1 1 5BE6E3BD
P 5800 3100
F 0 "L?" V 5985 3100 50  0000 C CNN
F 1 "22uH 20%" V 5894 3100 50  0000 C CNN
F 2 "" H 5800 3100 50  0001 C CNN
F 3 "~" H 5800 3100 50  0001 C CNN
	1    5800 3100
	0    -1   -1   0   
$EndComp
Wire Wire Line
	5550 3100 5700 3100
Wire Wire Line
	5900 3100 6050 3100
Wire Wire Line
	6050 3100 6050 3200
$Comp
L Device:R_Small_US R?
U 1 1 5BE6E3C7
P 3850 3550
F 0 "R?" H 3918 3596 50  0000 L CNN
F 1 "ROC2" H 3918 3505 50  0000 L CNN
F 2 "" H 3850 3550 50  0001 C CNN
F 3 "~" H 3850 3550 50  0001 C CNN
	1    3850 3550
	1    0    0    -1  
$EndComp
$Comp
L Device:R_Small_US R?
U 1 1 5BE6E3CE
P 3850 3850
F 0 "R?" H 3918 3896 50  0000 L CNN
F 1 "ROC1" H 3918 3805 50  0000 L CNN
F 2 "" H 3850 3850 50  0001 C CNN
F 3 "~" H 3850 3850 50  0001 C CNN
	1    3850 3850
	1    0    0    -1  
$EndComp
$Comp
L Device:C_Small C?
U 1 1 5BE6E3D5
P 6650 4600
F 0 "C?" H 6700 4700 50  0000 L CNN
F 1 "0.1uF" H 6700 4500 50  0000 L CNN
F 2 "" H 6650 4600 50  0001 C CNN
F 3 "~" H 6650 4600 50  0001 C CNN
	1    6650 4600
	1    0    0    -1  
$EndComp
$Comp
L Device:C_Small C?
U 1 1 5BE6E3DC
P 5100 4750
F 0 "C?" H 4900 4800 50  0000 L CNN
F 1 "0.01uF" H 4800 4650 50  0000 L CNN
F 2 "" H 5100 4750 50  0001 C CNN
F 3 "~" H 5100 4750 50  0001 C CNN
	1    5100 4750
	1    0    0    -1  
$EndComp
$Comp
L Device:R_Small_US R?
U 1 1 5BE6E3E3
P 4200 4000
F 0 "R?" H 4268 4046 50  0000 L CNN
F 1 "ROV2" H 4268 3955 50  0000 L CNN
F 2 "" H 4200 4000 50  0001 C CNN
F 3 "~" H 4200 4000 50  0001 C CNN
	1    4200 4000
	1    0    0    -1  
$EndComp
$Comp
L Device:R_Small_US R?
U 1 1 5BE6E3EA
P 4200 4300
F 0 "R?" H 4268 4346 50  0000 L CNN
F 1 "ROV1" H 4268 4255 50  0000 L CNN
F 2 "" H 4200 4300 50  0001 C CNN
F 3 "~" H 4200 4300 50  0001 C CNN
	1    4200 4300
	1    0    0    -1  
$EndComp
$Comp
L Device:R_Small_US R?
U 1 1 5BE6E3F1
P 4650 4200
F 0 "R?" H 4718 4246 50  0000 L CNN
F 1 "RUV2" H 4718 4155 50  0000 L CNN
F 2 "" H 4650 4200 50  0001 C CNN
F 3 "~" H 4650 4200 50  0001 C CNN
	1    4650 4200
	1    0    0    -1  
$EndComp
$Comp
L Device:R_Small_US R?
U 1 1 5BE6E3F8
P 4650 4500
F 0 "R?" H 4718 4546 50  0000 L CNN
F 1 "RUV1" H 4718 4455 50  0000 L CNN
F 2 "" H 4650 4500 50  0001 C CNN
F 3 "~" H 4650 4500 50  0001 C CNN
	1    4650 4500
	1    0    0    -1  
$EndComp
$Comp
L Device:CP1_Small C?
U 1 1 5BE6E3FF
P 7250 4050
F 0 "C?" H 7341 4096 50  0000 L CNN
F 1 "100uF" H 7341 4005 50  0000 L CNN
F 2 "" H 7250 4050 50  0001 C CNN
F 3 "~" H 7250 4050 50  0001 C CNN
	1    7250 4050
	1    0    0    -1  
$EndComp
$Comp
L Device:Battery_Cell BT?
U 1 1 5BE6E406
P 7750 4100
F 0 "BT?" H 7868 4196 50  0000 L CNN
F 1 "Battery_Cell" H 7868 4105 50  0000 L CNN
F 2 "" V 7750 4160 50  0001 C CNN
F 3 "~" V 7750 4160 50  0001 C CNN
	1    7750 4100
	1    0    0    -1  
$EndComp
Wire Wire Line
	7750 3900 7750 3100
Wire Wire Line
	7750 4200 7750 4950
Connection ~ 5250 4950
Connection ~ 5550 3100
Wire Wire Line
	3850 3650 3850 3700
Connection ~ 3850 3700
Wire Wire Line
	3850 3700 3850 3750
Wire Wire Line
	5350 4300 5100 4300
Wire Wire Line
	5100 4300 5100 4650
Wire Wire Line
	5100 4850 5100 4950
Connection ~ 5100 4950
Wire Wire Line
	5100 4950 5250 4950
Wire Wire Line
	5350 3800 4650 3800
Wire Wire Line
	4200 3800 4200 3900
Wire Wire Line
	4650 4100 4650 3800
Wire Wire Line
	4200 4100 4200 4150
Wire Wire Line
	4200 4150 4500 4150
Wire Wire Line
	4500 4150 4500 3900
Wire Wire Line
	4500 3900 5350 3900
Connection ~ 4200 4150
Wire Wire Line
	4200 4150 4200 4200
Wire Wire Line
	4650 4300 4650 4350
Wire Wire Line
	4650 4350 5000 4350
Wire Wire Line
	5000 4350 5000 4000
Wire Wire Line
	5000 4000 5350 4000
Connection ~ 4650 4350
Wire Wire Line
	4650 4350 4650 4400
Wire Wire Line
	4200 4400 4200 4950
Connection ~ 4200 4950
Wire Wire Line
	4650 4600 4650 4950
Wire Wire Line
	3850 3950 3850 4950
Wire Wire Line
	3850 3100 3850 3450
Connection ~ 4650 3800
Connection ~ 4650 4950
Wire Wire Line
	4650 4950 5100 4950
Wire Wire Line
	4200 3800 4650 3800
Wire Wire Line
	4200 4950 4650 4950
Wire Wire Line
	3850 4950 4200 4950
Wire Wire Line
	3850 3700 5350 3700
$Comp
L Device:D_Zener_Small_ALT D?
U 1 1 5BE6E435
P 3550 3950
F 0 "D?" V 3504 4018 50  0000 L CNN
F 1 "D_OV" V 3595 4018 50  0000 L CNN
F 2 "" V 3550 3950 50  0001 C CNN
F 3 "~" V 3550 3950 50  0001 C CNN
	1    3550 3950
	0    1    1    0   
$EndComp
Wire Wire Line
	3550 3100 3550 3850
Wire Wire Line
	3300 3100 3550 3100
Wire Wire Line
	3550 4050 3550 4950
Wire Wire Line
	3550 4950 3300 4950
Wire Wire Line
	6350 3100 7250 3100
Wire Wire Line
	7250 3950 7250 3100
Wire Wire Line
	7250 4150 7250 4950
Wire Wire Line
	6950 4300 6650 4300
Connection ~ 6650 4300
Wire Wire Line
	6650 4950 6150 4950
Connection ~ 6150 4950
Connection ~ 6650 4950
$Comp
L Device:C_Small C?
U 1 1 5BE6E448
P 4850 2400
F 0 "C?" H 4900 2500 50  0000 L CNN
F 1 "0.1uF" H 4900 2300 50  0000 L CNN
F 2 "" H 4850 2400 50  0001 C CNN
F 3 "~" H 4850 2400 50  0001 C CNN
	1    4850 2400
	1    0    0    -1  
$EndComp
Text Label 4300 3100 0    50   ~ 0
V_SOLAR
Text Label 6800 3100 0    50   ~ 0
V_BAT
Text Label 4850 2200 1    50   ~ 0
V_SOLAR
Wire Wire Line
	4850 2200 4850 2300
$Comp
L power:GND #PWR?
U 1 1 5BE6E453
P 4850 2600
F 0 "#PWR?" H 4850 2350 50  0001 C CNN
F 1 "GND" H 4855 2427 50  0000 C CNN
F 2 "" H 4850 2600 50  0001 C CNN
F 3 "" H 4850 2600 50  0001 C CNN
	1    4850 2600
	1    0    0    -1  
$EndComp
Wire Wire Line
	4850 2600 4850 2500
Text Label 5250 2200 1    50   ~ 0
V_SOLAR
Wire Wire Line
	5250 2200 5250 2300
$Comp
L power:GND #PWR?
U 1 1 5BE6E45C
P 5250 2600
F 0 "#PWR?" H 5250 2350 50  0001 C CNN
F 1 "GND" H 5255 2427 50  0000 C CNN
F 2 "" H 5250 2600 50  0001 C CNN
F 3 "" H 5250 2600 50  0001 C CNN
	1    5250 2600
	1    0    0    -1  
$EndComp
Wire Wire Line
	5250 2600 5250 2500
$Comp
L Device:C_Small C?
U 1 1 5BE6E463
P 5250 2400
F 0 "C?" H 5350 2500 50  0000 L CNN
F 1 "4.7uF" H 5300 2300 50  0000 L CNN
F 2 "" H 5250 2400 50  0001 C CNN
F 3 "~" H 5250 2400 50  0001 C CNN
	1    5250 2400
	1    0    0    -1  
$EndComp
Wire Wire Line
	3850 3100 3550 3100
Connection ~ 3850 3100
Connection ~ 3550 3100
Wire Wire Line
	3550 4950 3850 4950
Connection ~ 3550 4950
Connection ~ 3850 4950
Connection ~ 7250 3100
Connection ~ 7250 4950
Wire Wire Line
	7250 3100 7750 3100
Wire Wire Line
	7250 4950 7750 4950
Text Notes 7300 3900 0    50   ~ 0
100uF Min
Text Notes 7900 4250 0    50   ~ 0
4.2V Max
Connection ~ 6950 4950
Wire Wire Line
	6950 4950 6650 4950
Wire Wire Line
	6550 4300 6650 4300
Wire Wire Line
	6950 4950 7250 4950
Wire Wire Line
	6950 4700 6950 4950
Wire Wire Line
	6650 4700 6650 4950
Wire Wire Line
	6650 4300 6650 4500
Wire Wire Line
	6950 4300 6950 4500
$Comp
L Device:C_Small C?
U 1 1 5BE6E47E
P 6950 4600
F 0 "C?" H 7000 4700 50  0000 L CNN
F 1 "4.7uF" H 7000 4500 50  0000 L CNN
F 2 "" H 6950 4600 50  0001 C CNN
F 3 "~" H 6950 4600 50  0001 C CNN
	1    6950 4600
	1    0    0    -1  
$EndComp
Text HLabel 6650 3700 2    50   Output ~ 0
VBAT_OK
Wire Wire Line
	6650 3700 6550 3700
Text Notes 6800 5100 0    50   ~ 0
4.7uF Min
Text Notes 5400 2650 0    50   ~ 0
4.7uF Min
Wire Wire Line
	3300 3950 3300 4950
Wire Wire Line
	3300 3100 3300 3850
$Comp
L Connector:Conn_01x02_Male J?
U 1 1 5BE6E3A7
P 3100 3850
F 0 "J?" H 3100 4050 50  0000 C CNN
F 1 "SOLAR" H 3100 3950 50  0000 C CNN
F 2 "" H 3100 3850 50  0001 C CNN
F 3 "~" H 3100 3850 50  0001 C CNN
	1    3100 3850
	1    0    0    -1  
$EndComp
Text HLabel 3300 3000 1    50   Output ~ 0
V_SOLAR
Wire Wire Line
	3850 3100 5550 3100
Wire Wire Line
	3300 3000 3300 3100
Connection ~ 3300 3100
Text HLabel 7750 3000 1    50   Output ~ 0
V_BAT
Wire Wire Line
	7750 3000 7750 3100
Connection ~ 7750 3100
$EndSCHEMATC
