M48
;DRILL file {KiCad 5.0.1-33cea8e~68~ubuntu18.04.1} date Wed 14 Nov 2018 01:54:09 PM EST
;FORMAT={-:-/ absolute / metric / decimal}
FMAT,2
METRIC,TZ
T1C0.800
T2C0.900
T3C1.000
T4C1.200
%
G90
G05
M71
T1
X149.75Y-83.975
X156.Y-83.975
X92.2Y-70.38
X92.2Y-78.
X126.38Y-75.25
X134.Y-75.25
X104.5Y-75.44
X104.5Y-77.98
X104.5Y-80.52
X104.5Y-83.06
X104.5Y-85.6
X104.5Y-88.14
X104.5Y-90.68
X104.5Y-93.22
X104.5Y-95.76
X104.5Y-98.3
X104.5Y-100.84
X104.5Y-103.38
X104.5Y-105.92
X104.5Y-108.46
X104.5Y-111.
X119.74Y-75.44
X119.74Y-77.98
X119.74Y-80.52
X119.74Y-83.06
X119.74Y-85.6
X119.74Y-88.14
X119.74Y-90.68
X119.74Y-93.22
X119.74Y-95.76
X119.74Y-98.3
X119.74Y-100.84
X119.74Y-103.38
X119.74Y-105.92
X119.74Y-108.46
X119.74Y-111.
X126.5Y-102.75
X134.12Y-102.75
X126.5Y-85.5
X134.12Y-85.5
X88.8Y-70.38
X88.8Y-78.
X125.38Y-112.25
X133.Y-112.25
X88.75Y-108.5
X88.75Y-116.12
X155.Y-73.63
X155.Y-81.25
X126.5Y-95.75
X134.12Y-95.75
X147.75Y-77.75
X150.25Y-77.75
X126.5Y-82.
X134.12Y-82.
X126.5Y-99.5
X134.12Y-99.5
X126.5Y-78.75
X134.12Y-78.75
X112.5Y-99.
X112.5Y-106.62
X126.38Y-72.
X134.Y-72.
X92.2Y-108.5
X92.2Y-116.12
X126.5Y-92.5
X134.12Y-92.5
X126.5Y-88.75
X134.12Y-88.75
X137.5Y-114.
X140.Y-114.
X108.8Y-75.38
X108.8Y-83.
X132.Y-108.5
X139.62Y-108.5
X109.Y-99.
X109.Y-106.62
T2
X141.Y-76.5
X141.Y-79.04
X89.25Y-89.75
X91.79Y-89.75
X89.25Y-96.75
X91.79Y-96.75
X89.25Y-82.75
X91.79Y-82.75
X89.25Y-103.75
X91.79Y-103.75
T3
X151.5Y-113.5
X151.5Y-116.04
X109.76Y-115.5
X112.3Y-115.5
X114.84Y-115.5
X151.5Y-105.41
X151.5Y-107.95
X151.5Y-101.
X154.04Y-101.
X156.58Y-101.
X126.Y-108.5
X128.54Y-108.5
T4
X141.35Y-93.725
X146.35Y-93.725
T0
M30
