(export (version D)
  (design
    (source /home/aleks/Documents/school/4TB6A/capstone-proof-of-concept/ltc-battery-power/ltc-battery-power.sch)
    (date "Thu 08 Nov 2018 03:04:08 PM EST")
    (tool "Eeschema 5.0.1-33cea8e~68~ubuntu18.04.1")
    (sheet (number 1) (name /) (tstamps /)
      (title_block
        (title)
        (company)
        (rev)
        (date)
        (source ltc-battery-power.sch)
        (comment (number 1) (value ""))
        (comment (number 2) (value ""))
        (comment (number 3) (value ""))
        (comment (number 4) (value "")))))
  (components
    (comp (ref C4)
      (value 10uF)
      (footprint Capacitor_SMD:C_1206_3216Metric_Pad1.42x1.75mm_HandSolder)
      (datasheet ~)
      (libsource (lib Device) (part C_Small) (description "Unpolarized capacitor, small symbol"))
      (sheetpath (names /) (tstamps /))
      (tstamp 5BE15114))
    (comp (ref L1)
      (value 10uH)
      (footprint Inductor_SMD:L_Wuerth_MAPI-4020)
      (datasheet ~)
      (libsource (lib Device) (part L_Small) (description "Inductor, small symbol"))
      (sheetpath (names /) (tstamps /))
      (tstamp 5BE1524E))
    (comp (ref R1)
      (value 200kR)
      (footprint Resistor_SMD:R_0603_1608Metric_Pad1.05x0.95mm_HandSolder)
      (datasheet ~)
      (libsource (lib Device) (part R_Small_US) (description "Resistor, small US symbol"))
      (sheetpath (names /) (tstamps /))
      (tstamp 5BE16868))
    (comp (ref C2)
      (value 1uF)
      (footprint Capacitor_SMD:C_0603_1608Metric_Pad1.05x0.95mm_HandSolder)
      (datasheet ~)
      (libsource (lib Device) (part C_Small) (description "Unpolarized capacitor, small symbol"))
      (sheetpath (names /) (tstamps /))
      (tstamp 5BE1697C))
    (comp (ref R2)
      (value 1MR)
      (footprint Resistor_SMD:R_0603_1608Metric_Pad1.05x0.95mm_HandSolder)
      (datasheet ~)
      (libsource (lib Device) (part R_Small_US) (description "Resistor, small US symbol"))
      (sheetpath (names /) (tstamps /))
      (tstamp 5BE16A6E))
    (comp (ref R3)
      (value 301kR)
      (footprint Resistor_SMD:R_0603_1608Metric_Pad1.05x0.95mm_HandSolder)
      (datasheet ~)
      (libsource (lib Device) (part R_Small_US) (description "Resistor, small US symbol"))
      (sheetpath (names /) (tstamps /))
      (tstamp 5BE16B07))
    (comp (ref C1)
      (value 10uF)
      (footprint Capacitor_SMD:C_1206_3216Metric_Pad1.42x1.75mm_HandSolder)
      (datasheet ~)
      (libsource (lib Device) (part C_Small) (description "Unpolarized capacitor, small symbol"))
      (sheetpath (names /) (tstamps /))
      (tstamp 5BE152FE))
    (comp (ref U1)
      (value LTC3105)
      (footprint Package_SO:MSOP-12_3x4mm_P0.65mm)
      (datasheet https://www.analog.com/media/en/technical-documentation/data-sheets/3105fb.pdf)
      (libsource (lib capstone_library) (part LTC3105) (description ""))
      (sheetpath (names /) (tstamps /))
      (tstamp 5BE24B21))
    (comp (ref U2)
      (value LTC4071)
      (footprint Package_SO:MSOP-8-1EP_3x3mm_P0.65mm_EP2.54x2.8mm)
      (datasheet https://www.analog.com/media/en/technical-documentation/data-sheets/4071fc.pdf)
      (libsource (lib capstone_library) (part LTC4071) (description ""))
      (sheetpath (names /) (tstamps /))
      (tstamp 5BE25083))
    (comp (ref J1)
      (value MAIN-CCA)
      (footprint Connector_PinHeader_2.54mm:PinHeader_1x06_P2.54mm_Horizontal)
      (datasheet ~)
      (libsource (lib Connector) (part Conn_01x06_Male) (description "Generic connector, single row, 01x06, script generated (kicad-library-utils/schlib/autogen/connector/)"))
      (sheetpath (names /) (tstamps /))
      (tstamp 5BE2A8A8))
    (comp (ref R4)
      (value 0R)
      (footprint Resistor_SMD:R_0603_1608Metric_Pad1.05x0.95mm_HandSolder)
      (datasheet ~)
      (libsource (lib Device) (part R_Small_US) (description "Resistor, small US symbol"))
      (sheetpath (names /) (tstamps /))
      (tstamp 5BE4CDA4))
    (comp (ref R5)
      (value 0R)
      (footprint Resistor_SMD:R_0603_1608Metric_Pad1.05x0.95mm_HandSolder)
      (datasheet ~)
      (libsource (lib Device) (part R_Small_US) (description "Resistor, small US symbol"))
      (sheetpath (names /) (tstamps /))
      (tstamp 5BE50013))
    (comp (ref C3)
      (value 0.1uF)
      (footprint Capacitor_SMD:C_0603_1608Metric_Pad1.05x0.95mm_HandSolder)
      (datasheet ~)
      (libsource (lib Device) (part C_Small) (description "Unpolarized capacitor, small symbol"))
      (sheetpath (names /) (tstamps /))
      (tstamp 5BE7AAEB))
    (comp (ref C5)
      (value 0.1uF)
      (footprint Capacitor_SMD:C_0603_1608Metric_Pad1.05x0.95mm_HandSolder)
      (datasheet ~)
      (libsource (lib Device) (part C_Small) (description "Unpolarized capacitor, small symbol"))
      (sheetpath (names /) (tstamps /))
      (tstamp 5BE7AC02))
    (comp (ref C6)
      (value 0.1uF)
      (footprint Capacitor_SMD:C_0603_1608Metric_Pad1.05x0.95mm_HandSolder)
      (datasheet ~)
      (libsource (lib Device) (part C_Small) (description "Unpolarized capacitor, small symbol"))
      (sheetpath (names /) (tstamps /))
      (tstamp 5BE7AC44))
    (comp (ref D1)
      (value 5.5V)
      (footprint Diode_THT:D_DO-35_SOD27_P7.62mm_Horizontal)
      (datasheet ~)
      (libsource (lib Device) (part D_Zener_Small_ALT) (description "Zener diode, small symbol, filled shape"))
      (sheetpath (names /) (tstamps /))
      (tstamp 5BE88F36))
    (comp (ref D2)
      (value ~~0.3V)
      (footprint Diode_SMD:D_SC-80_HandSoldering)
      (datasheet ~)
      (libsource (lib Device) (part D_Schottky_Small_ALT) (description "Schottky diode, small symbol, filled shape"))
      (sheetpath (names /) (tstamps /))
      (tstamp 5BE4B654))
    (comp (ref TP2)
      (value HBO)
      (footprint TestPoint:TestPoint_Pad_3.0x3.0mm)
      (datasheet ~)
      (libsource (lib Connector) (part TestPoint) (description "test point"))
      (sheetpath (names /) (tstamps /))
      (tstamp 5BE59893))
    (comp (ref TP1)
      (value PG_CHRG)
      (footprint TestPoint:TestPoint_Pad_3.0x3.0mm)
      (datasheet ~)
      (libsource (lib Connector) (part TestPoint) (description "test point"))
      (sheetpath (names /) (tstamps /))
      (tstamp 5BE59B44)))
  (libparts
    (libpart (lib Connector) (part Conn_01x06_Male)
      (description "Generic connector, single row, 01x06, script generated (kicad-library-utils/schlib/autogen/connector/)")
      (docs ~)
      (footprints
        (fp Connector*:*_1x??_*))
      (fields
        (field (name Reference) J)
        (field (name Value) Conn_01x06_Male))
      (pins
        (pin (num 1) (name Pin_1) (type passive))
        (pin (num 2) (name Pin_2) (type passive))
        (pin (num 3) (name Pin_3) (type passive))
        (pin (num 4) (name Pin_4) (type passive))
        (pin (num 5) (name Pin_5) (type passive))
        (pin (num 6) (name Pin_6) (type passive))))
    (libpart (lib Connector) (part TestPoint)
      (description "test point")
      (docs ~)
      (footprints
        (fp Pin*)
        (fp Test*))
      (fields
        (field (name Reference) TP)
        (field (name Value) TestPoint))
      (pins
        (pin (num 1) (name 1) (type passive))))
    (libpart (lib Device) (part C_Small)
      (description "Unpolarized capacitor, small symbol")
      (docs ~)
      (footprints
        (fp C_*))
      (fields
        (field (name Reference) C)
        (field (name Value) C_Small))
      (pins
        (pin (num 1) (name ~) (type passive))
        (pin (num 2) (name ~) (type passive))))
    (libpart (lib Device) (part D_Schottky_Small_ALT)
      (description "Schottky diode, small symbol, filled shape")
      (docs ~)
      (footprints
        (fp TO-???*)
        (fp *_Diode_*)
        (fp *SingleDiode*)
        (fp D_*))
      (fields
        (field (name Reference) D)
        (field (name Value) D_Schottky_Small_ALT))
      (pins
        (pin (num 1) (name K) (type passive))
        (pin (num 2) (name A) (type passive))))
    (libpart (lib Device) (part D_Zener_Small_ALT)
      (description "Zener diode, small symbol, filled shape")
      (docs ~)
      (footprints
        (fp TO-???*)
        (fp *_Diode_*)
        (fp *SingleDiode*)
        (fp D_*))
      (fields
        (field (name Reference) D)
        (field (name Value) D_Zener_Small_ALT))
      (pins
        (pin (num 1) (name K) (type passive))
        (pin (num 2) (name A) (type passive))))
    (libpart (lib Device) (part L_Small)
      (description "Inductor, small symbol")
      (docs ~)
      (footprints
        (fp Choke_*)
        (fp *Coil*)
        (fp Inductor_*)
        (fp L_*))
      (fields
        (field (name Reference) L)
        (field (name Value) L_Small))
      (pins
        (pin (num 1) (name ~) (type passive))
        (pin (num 2) (name ~) (type passive))))
    (libpart (lib Device) (part R_Small_US)
      (description "Resistor, small US symbol")
      (docs ~)
      (footprints
        (fp R_*))
      (fields
        (field (name Reference) R)
        (field (name Value) R_Small_US))
      (pins
        (pin (num 1) (name ~) (type passive))
        (pin (num 2) (name ~) (type passive))))
    (libpart (lib capstone_library) (part LTC3105)
      (fields
        (field (name Reference) U)
        (field (name Value) LTC3105)
        (field (name Footprint) Package_SO:MSOP-12_3x4mm_P0.65mm)
        (field (name Datasheet) https://www.analog.com/media/en/technical-documentation/data-sheets/3105fb.pdf))
      (pins
        (pin (num 1) (name FB) (type input))
        (pin (num 2) (name LDO) (type input))
        (pin (num 3) (name FBLDO) (type input))
        (pin (num 4) (name ~SHDN) (type input))
        (pin (num 5) (name MPPC) (type input))
        (pin (num 6) (name GND) (type input))
        (pin (num 7) (name GND) (type input))
        (pin (num 8) (name VIN) (type input))
        (pin (num 9) (name SW) (type input))
        (pin (num 10) (name PGOOD) (type input))
        (pin (num 11) (name VOUT) (type power_out))
        (pin (num 12) (name AUX) (type input))))
    (libpart (lib capstone_library) (part LTC4071)
      (fields
        (field (name Reference) U)
        (field (name Value) LTC4071)
        (field (name Footprint) Package_SO:MSOP-8-1EP_3x3mm_P0.65mm_EP2.54x2.8mm)
        (field (name Datasheet) https://www.analog.com/media/en/technical-documentation/data-sheets/4071fc.pdf))
      (pins
        (pin (num 1) (name NTCBIAS) (type output))
        (pin (num 2) (name NTC) (type input))
        (pin (num 3) (name ADJ) (type input))
        (pin (num 4) (name HBO) (type output))
        (pin (num 5) (name LBSEL) (type input))
        (pin (num 6) (name GND) (type input))
        (pin (num 7) (name BAT) (type BiDi))
        (pin (num 8) (name VCC) (type power_in))
        (pin (num 9) (name GND) (type input)))))
  (libraries
    (library (logical Connector)
      (uri /home/aleks/Documents/resources/libraries/kicad/kicad-symbols/Connector.lib))
    (library (logical Device)
      (uri /home/aleks/Documents/resources/libraries/kicad/kicad-symbols/Device.lib))
    (library (logical capstone_library)
      (uri /home/aleks/Documents/school/4TB6A/kicad-libraries/capstone_library.lib)))
  (nets
    (net (code 1) (name GND)
      (node (ref R3) (pin 2))
      (node (ref R1) (pin 2))
      (node (ref C4) (pin 2))
      (node (ref C2) (pin 2))
      (node (ref C6) (pin 2))
      (node (ref C5) (pin 2))
      (node (ref C3) (pin 2))
      (node (ref U1) (pin 7))
      (node (ref U1) (pin 6))
      (node (ref U1) (pin 3))
      (node (ref C1) (pin 2))
      (node (ref D1) (pin 2))
      (node (ref U2) (pin 9))
      (node (ref R5) (pin 2))
      (node (ref U2) (pin 6))
      (node (ref J1) (pin 6)))
    (net (code 2) (name "Net-(R4-Pad2)")
      (node (ref R4) (pin 2))
      (node (ref R5) (pin 1))
      (node (ref U2) (pin 5)))
    (net (code 3) (name "Net-(J1-Pad4)")
      (node (ref J1) (pin 4)))
    (net (code 4) (name "Net-(U2-Pad2)")
      (node (ref U2) (pin 2)))
    (net (code 5) (name /V_BAT)
      (node (ref C6) (pin 1))
      (node (ref J1) (pin 2))
      (node (ref U2) (pin 7)))
    (net (code 6) (name "Net-(J1-Pad5)")
      (node (ref J1) (pin 5)))
    (net (code 7) (name /V_SOLAR)
      (node (ref J1) (pin 1))
      (node (ref D2) (pin 2)))
    (net (code 8) (name /PG_CHRG)
      (node (ref TP1) (pin 1))
      (node (ref U1) (pin 10)))
    (net (code 9) (name "Net-(U2-Pad1)")
      (node (ref U2) (pin 1)))
    (net (code 10) (name /HBO)
      (node (ref TP2) (pin 1))
      (node (ref U2) (pin 4)))
    (net (code 11) (name "Net-(R2-Pad1)")
      (node (ref R2) (pin 1))
      (node (ref U1) (pin 1))
      (node (ref R3) (pin 1)))
    (net (code 12) (name "Net-(U1-Pad2)")
      (node (ref U1) (pin 2)))
    (net (code 13) (name /V_SOLAR_PP)
      (node (ref C1) (pin 1))
      (node (ref D2) (pin 1))
      (node (ref D1) (pin 1))
      (node (ref C3) (pin 1))
      (node (ref U1) (pin 8))
      (node (ref L1) (pin 1)))
    (net (code 14) (name "Net-(L1-Pad2)")
      (node (ref U1) (pin 9))
      (node (ref L1) (pin 2)))
    (net (code 15) (name "Net-(U1-Pad4)")
      (node (ref U1) (pin 4)))
    (net (code 16) (name "Net-(C2-Pad1)")
      (node (ref C2) (pin 1))
      (node (ref U1) (pin 12)))
    (net (code 17) (name /V_OUT)
      (node (ref R4) (pin 1))
      (node (ref C4) (pin 1))
      (node (ref C5) (pin 1))
      (node (ref U2) (pin 3))
      (node (ref U2) (pin 8))
      (node (ref R2) (pin 2))
      (node (ref U1) (pin 11))
      (node (ref J1) (pin 3)))
    (net (code 18) (name "Net-(R1-Pad1)")
      (node (ref U1) (pin 5))
      (node (ref R1) (pin 1)))))