G04 #@! TF.GenerationSoftware,KiCad,Pcbnew,5.0.1-33cea8e~68~ubuntu18.04.1*
G04 #@! TF.CreationDate,2018-11-12T12:40:33-05:00*
G04 #@! TF.ProjectId,ltc-battery-power,6C74632D626174746572792D706F7765,rev?*
G04 #@! TF.SameCoordinates,Original*
G04 #@! TF.FileFunction,Profile,NP*
%FSLAX46Y46*%
G04 Gerber Fmt 4.6, Leading zero omitted, Abs format (unit mm)*
G04 Created by KiCad (PCBNEW 5.0.1-33cea8e~68~ubuntu18.04.1) date Mon 12 Nov 2018 12:40:33 PM EST*
%MOMM*%
%LPD*%
G01*
G04 APERTURE LIST*
%ADD10C,0.150000*%
G04 APERTURE END LIST*
D10*
X133000000Y-119000000D02*
X133000000Y-100500000D01*
X158000000Y-119000000D02*
X133000000Y-119000000D01*
X158000000Y-100500000D02*
X158000000Y-119000000D01*
X133000000Y-100500000D02*
X158000000Y-100500000D01*
M02*
