G04 #@! TF.GenerationSoftware,KiCad,Pcbnew,5.0.1-33cea8e~68~ubuntu18.04.1*
G04 #@! TF.CreationDate,2018-11-12T14:03:51-05:00*
G04 #@! TF.ProjectId,RFM95,52464D39352E6B696361645F70636200,rev?*
G04 #@! TF.SameCoordinates,Original*
G04 #@! TF.FileFunction,Soldermask,Top*
G04 #@! TF.FilePolarity,Negative*
%FSLAX46Y46*%
G04 Gerber Fmt 4.6, Leading zero omitted, Abs format (unit mm)*
G04 Created by KiCad (PCBNEW 5.0.1-33cea8e~68~ubuntu18.04.1) date Mon 12 Nov 2018 02:03:51 PM EST*
%MOMM*%
%LPD*%
G01*
G04 APERTURE LIST*
%ADD10C,0.100000*%
G04 APERTURE END LIST*
D10*
G36*
X161550000Y-90650000D02*
X160550000Y-90650000D01*
X160550000Y-85650000D01*
X161550000Y-85650000D01*
X161550000Y-90650000D01*
X161550000Y-90650000D01*
G37*
G36*
X159550000Y-90650000D02*
X158550000Y-90650000D01*
X158550000Y-85650000D01*
X159550000Y-85650000D01*
X159550000Y-90650000D01*
X159550000Y-90650000D01*
G37*
G36*
X147550000Y-90650000D02*
X146550000Y-90650000D01*
X146550000Y-85650000D01*
X147550000Y-85650000D01*
X147550000Y-90650000D01*
X147550000Y-90650000D01*
G37*
G36*
X149550000Y-90650000D02*
X148550000Y-90650000D01*
X148550000Y-85650000D01*
X149550000Y-85650000D01*
X149550000Y-90650000D01*
X149550000Y-90650000D01*
G37*
G36*
X151550000Y-90650000D02*
X150550000Y-90650000D01*
X150550000Y-85650000D01*
X151550000Y-85650000D01*
X151550000Y-90650000D01*
X151550000Y-90650000D01*
G37*
G36*
X153550000Y-90650000D02*
X152550000Y-90650000D01*
X152550000Y-85650000D01*
X153550000Y-85650000D01*
X153550000Y-90650000D01*
X153550000Y-90650000D01*
G37*
G36*
X155550000Y-90650000D02*
X154550000Y-90650000D01*
X154550000Y-85650000D01*
X155550000Y-85650000D01*
X155550000Y-90650000D01*
X155550000Y-90650000D01*
G37*
G36*
X157550000Y-90650000D02*
X156550000Y-90650000D01*
X156550000Y-85650000D01*
X157550000Y-85650000D01*
X157550000Y-90650000D01*
X157550000Y-90650000D01*
G37*
G36*
X138626630Y-86792299D02*
X138786855Y-86840903D01*
X138934520Y-86919831D01*
X139063949Y-87026051D01*
X139170169Y-87155480D01*
X139249097Y-87303145D01*
X139297701Y-87463370D01*
X139314112Y-87630000D01*
X139297701Y-87796630D01*
X139249097Y-87956855D01*
X139170169Y-88104520D01*
X139063949Y-88233949D01*
X138934520Y-88340169D01*
X138786855Y-88419097D01*
X138626630Y-88467701D01*
X138501752Y-88480000D01*
X138418248Y-88480000D01*
X138293370Y-88467701D01*
X138133145Y-88419097D01*
X137985480Y-88340169D01*
X137856051Y-88233949D01*
X137749831Y-88104520D01*
X137670903Y-87956855D01*
X137622299Y-87796630D01*
X137605888Y-87630000D01*
X137622299Y-87463370D01*
X137670903Y-87303145D01*
X137749831Y-87155480D01*
X137856051Y-87026051D01*
X137985480Y-86919831D01*
X138133145Y-86840903D01*
X138293370Y-86792299D01*
X138418248Y-86780000D01*
X138501752Y-86780000D01*
X138626630Y-86792299D01*
X138626630Y-86792299D01*
G37*
G36*
X141166630Y-86792299D02*
X141326855Y-86840903D01*
X141474520Y-86919831D01*
X141603949Y-87026051D01*
X141710169Y-87155480D01*
X141789097Y-87303145D01*
X141837701Y-87463370D01*
X141854112Y-87630000D01*
X141837701Y-87796630D01*
X141789097Y-87956855D01*
X141710169Y-88104520D01*
X141603949Y-88233949D01*
X141474520Y-88340169D01*
X141326855Y-88419097D01*
X141166630Y-88467701D01*
X141041752Y-88480000D01*
X140958248Y-88480000D01*
X140833370Y-88467701D01*
X140673145Y-88419097D01*
X140525480Y-88340169D01*
X140396051Y-88233949D01*
X140289831Y-88104520D01*
X140210903Y-87956855D01*
X140162299Y-87796630D01*
X140145888Y-87630000D01*
X140162299Y-87463370D01*
X140210903Y-87303145D01*
X140289831Y-87155480D01*
X140396051Y-87026051D01*
X140525480Y-86919831D01*
X140673145Y-86840903D01*
X140833370Y-86792299D01*
X140958248Y-86780000D01*
X141041752Y-86780000D01*
X141166630Y-86792299D01*
X141166630Y-86792299D01*
G37*
G36*
X141166630Y-84252299D02*
X141326855Y-84300903D01*
X141474520Y-84379831D01*
X141603949Y-84486051D01*
X141710169Y-84615480D01*
X141789097Y-84763145D01*
X141837701Y-84923370D01*
X141854112Y-85090000D01*
X141837701Y-85256630D01*
X141789097Y-85416855D01*
X141710169Y-85564520D01*
X141603949Y-85693949D01*
X141474520Y-85800169D01*
X141326855Y-85879097D01*
X141166630Y-85927701D01*
X141041752Y-85940000D01*
X140958248Y-85940000D01*
X140833370Y-85927701D01*
X140673145Y-85879097D01*
X140525480Y-85800169D01*
X140396051Y-85693949D01*
X140289831Y-85564520D01*
X140210903Y-85416855D01*
X140162299Y-85256630D01*
X140145888Y-85090000D01*
X140162299Y-84923370D01*
X140210903Y-84763145D01*
X140289831Y-84615480D01*
X140396051Y-84486051D01*
X140525480Y-84379831D01*
X140673145Y-84300903D01*
X140833370Y-84252299D01*
X140958248Y-84240000D01*
X141041752Y-84240000D01*
X141166630Y-84252299D01*
X141166630Y-84252299D01*
G37*
G36*
X138626630Y-84252299D02*
X138786855Y-84300903D01*
X138934520Y-84379831D01*
X139063949Y-84486051D01*
X139170169Y-84615480D01*
X139249097Y-84763145D01*
X139297701Y-84923370D01*
X139314112Y-85090000D01*
X139297701Y-85256630D01*
X139249097Y-85416855D01*
X139170169Y-85564520D01*
X139063949Y-85693949D01*
X138934520Y-85800169D01*
X138786855Y-85879097D01*
X138626630Y-85927701D01*
X138501752Y-85940000D01*
X138418248Y-85940000D01*
X138293370Y-85927701D01*
X138133145Y-85879097D01*
X137985480Y-85800169D01*
X137856051Y-85693949D01*
X137749831Y-85564520D01*
X137670903Y-85416855D01*
X137622299Y-85256630D01*
X137605888Y-85090000D01*
X137622299Y-84923370D01*
X137670903Y-84763145D01*
X137749831Y-84615480D01*
X137856051Y-84486051D01*
X137985480Y-84379831D01*
X138133145Y-84300903D01*
X138293370Y-84252299D01*
X138418248Y-84240000D01*
X138501752Y-84240000D01*
X138626630Y-84252299D01*
X138626630Y-84252299D01*
G37*
G36*
X141166630Y-81712299D02*
X141326855Y-81760903D01*
X141474520Y-81839831D01*
X141603949Y-81946051D01*
X141710169Y-82075480D01*
X141789097Y-82223145D01*
X141837701Y-82383370D01*
X141854112Y-82550000D01*
X141837701Y-82716630D01*
X141789097Y-82876855D01*
X141710169Y-83024520D01*
X141603949Y-83153949D01*
X141474520Y-83260169D01*
X141326855Y-83339097D01*
X141166630Y-83387701D01*
X141041752Y-83400000D01*
X140958248Y-83400000D01*
X140833370Y-83387701D01*
X140673145Y-83339097D01*
X140525480Y-83260169D01*
X140396051Y-83153949D01*
X140289831Y-83024520D01*
X140210903Y-82876855D01*
X140162299Y-82716630D01*
X140145888Y-82550000D01*
X140162299Y-82383370D01*
X140210903Y-82223145D01*
X140289831Y-82075480D01*
X140396051Y-81946051D01*
X140525480Y-81839831D01*
X140673145Y-81760903D01*
X140833370Y-81712299D01*
X140958248Y-81700000D01*
X141041752Y-81700000D01*
X141166630Y-81712299D01*
X141166630Y-81712299D01*
G37*
G36*
X138626630Y-81712299D02*
X138786855Y-81760903D01*
X138934520Y-81839831D01*
X139063949Y-81946051D01*
X139170169Y-82075480D01*
X139249097Y-82223145D01*
X139297701Y-82383370D01*
X139314112Y-82550000D01*
X139297701Y-82716630D01*
X139249097Y-82876855D01*
X139170169Y-83024520D01*
X139063949Y-83153949D01*
X138934520Y-83260169D01*
X138786855Y-83339097D01*
X138626630Y-83387701D01*
X138501752Y-83400000D01*
X138418248Y-83400000D01*
X138293370Y-83387701D01*
X138133145Y-83339097D01*
X137985480Y-83260169D01*
X137856051Y-83153949D01*
X137749831Y-83024520D01*
X137670903Y-82876855D01*
X137622299Y-82716630D01*
X137605888Y-82550000D01*
X137622299Y-82383370D01*
X137670903Y-82223145D01*
X137749831Y-82075480D01*
X137856051Y-81946051D01*
X137985480Y-81839831D01*
X138133145Y-81760903D01*
X138293370Y-81712299D01*
X138418248Y-81700000D01*
X138501752Y-81700000D01*
X138626630Y-81712299D01*
X138626630Y-81712299D01*
G37*
G36*
X141166630Y-79172299D02*
X141326855Y-79220903D01*
X141474520Y-79299831D01*
X141603949Y-79406051D01*
X141710169Y-79535480D01*
X141789097Y-79683145D01*
X141837701Y-79843370D01*
X141854112Y-80010000D01*
X141837701Y-80176630D01*
X141789097Y-80336855D01*
X141710169Y-80484520D01*
X141603949Y-80613949D01*
X141474520Y-80720169D01*
X141326855Y-80799097D01*
X141166630Y-80847701D01*
X141041752Y-80860000D01*
X140958248Y-80860000D01*
X140833370Y-80847701D01*
X140673145Y-80799097D01*
X140525480Y-80720169D01*
X140396051Y-80613949D01*
X140289831Y-80484520D01*
X140210903Y-80336855D01*
X140162299Y-80176630D01*
X140145888Y-80010000D01*
X140162299Y-79843370D01*
X140210903Y-79683145D01*
X140289831Y-79535480D01*
X140396051Y-79406051D01*
X140525480Y-79299831D01*
X140673145Y-79220903D01*
X140833370Y-79172299D01*
X140958248Y-79160000D01*
X141041752Y-79160000D01*
X141166630Y-79172299D01*
X141166630Y-79172299D01*
G37*
G36*
X138626630Y-79172299D02*
X138786855Y-79220903D01*
X138934520Y-79299831D01*
X139063949Y-79406051D01*
X139170169Y-79535480D01*
X139249097Y-79683145D01*
X139297701Y-79843370D01*
X139314112Y-80010000D01*
X139297701Y-80176630D01*
X139249097Y-80336855D01*
X139170169Y-80484520D01*
X139063949Y-80613949D01*
X138934520Y-80720169D01*
X138786855Y-80799097D01*
X138626630Y-80847701D01*
X138501752Y-80860000D01*
X138418248Y-80860000D01*
X138293370Y-80847701D01*
X138133145Y-80799097D01*
X137985480Y-80720169D01*
X137856051Y-80613949D01*
X137749831Y-80484520D01*
X137670903Y-80336855D01*
X137622299Y-80176630D01*
X137605888Y-80010000D01*
X137622299Y-79843370D01*
X137670903Y-79683145D01*
X137749831Y-79535480D01*
X137856051Y-79406051D01*
X137985480Y-79299831D01*
X138133145Y-79220903D01*
X138293370Y-79172299D01*
X138418248Y-79160000D01*
X138501752Y-79160000D01*
X138626630Y-79172299D01*
X138626630Y-79172299D01*
G37*
G36*
X170180000Y-79295000D02*
X165100000Y-79295000D01*
X165100000Y-77795000D01*
X170180000Y-77795000D01*
X170180000Y-79295000D01*
X170180000Y-79295000D01*
G37*
G36*
X141166630Y-76632299D02*
X141326855Y-76680903D01*
X141474520Y-76759831D01*
X141603949Y-76866051D01*
X141710169Y-76995480D01*
X141789097Y-77143145D01*
X141837701Y-77303370D01*
X141854112Y-77470000D01*
X141837701Y-77636630D01*
X141789097Y-77796855D01*
X141710169Y-77944520D01*
X141603949Y-78073949D01*
X141474520Y-78180169D01*
X141326855Y-78259097D01*
X141166630Y-78307701D01*
X141041752Y-78320000D01*
X140958248Y-78320000D01*
X140833370Y-78307701D01*
X140673145Y-78259097D01*
X140525480Y-78180169D01*
X140396051Y-78073949D01*
X140289831Y-77944520D01*
X140210903Y-77796855D01*
X140162299Y-77636630D01*
X140145888Y-77470000D01*
X140162299Y-77303370D01*
X140210903Y-77143145D01*
X140289831Y-76995480D01*
X140396051Y-76866051D01*
X140525480Y-76759831D01*
X140673145Y-76680903D01*
X140833370Y-76632299D01*
X140958248Y-76620000D01*
X141041752Y-76620000D01*
X141166630Y-76632299D01*
X141166630Y-76632299D01*
G37*
G36*
X138626630Y-76632299D02*
X138786855Y-76680903D01*
X138934520Y-76759831D01*
X139063949Y-76866051D01*
X139170169Y-76995480D01*
X139249097Y-77143145D01*
X139297701Y-77303370D01*
X139314112Y-77470000D01*
X139297701Y-77636630D01*
X139249097Y-77796855D01*
X139170169Y-77944520D01*
X139063949Y-78073949D01*
X138934520Y-78180169D01*
X138786855Y-78259097D01*
X138626630Y-78307701D01*
X138501752Y-78320000D01*
X138418248Y-78320000D01*
X138293370Y-78307701D01*
X138133145Y-78259097D01*
X137985480Y-78180169D01*
X137856051Y-78073949D01*
X137749831Y-77944520D01*
X137670903Y-77796855D01*
X137622299Y-77636630D01*
X137605888Y-77470000D01*
X137622299Y-77303370D01*
X137670903Y-77143145D01*
X137749831Y-76995480D01*
X137856051Y-76866051D01*
X137985480Y-76759831D01*
X138133145Y-76680903D01*
X138293370Y-76632299D01*
X138418248Y-76620000D01*
X138501752Y-76620000D01*
X138626630Y-76632299D01*
X138626630Y-76632299D01*
G37*
G36*
X147550000Y-76150000D02*
X146550000Y-76150000D01*
X146550000Y-71150000D01*
X147550000Y-71150000D01*
X147550000Y-76150000D01*
X147550000Y-76150000D01*
G37*
G36*
X149550000Y-76150000D02*
X148550000Y-76150000D01*
X148550000Y-71150000D01*
X149550000Y-71150000D01*
X149550000Y-76150000D01*
X149550000Y-76150000D01*
G37*
G36*
X151550000Y-76150000D02*
X150550000Y-76150000D01*
X150550000Y-71150000D01*
X151550000Y-71150000D01*
X151550000Y-76150000D01*
X151550000Y-76150000D01*
G37*
G36*
X153550000Y-76150000D02*
X152550000Y-76150000D01*
X152550000Y-71150000D01*
X153550000Y-71150000D01*
X153550000Y-76150000D01*
X153550000Y-76150000D01*
G37*
G36*
X155550000Y-76150000D02*
X154550000Y-76150000D01*
X154550000Y-71150000D01*
X155550000Y-71150000D01*
X155550000Y-76150000D01*
X155550000Y-76150000D01*
G37*
G36*
X157550000Y-76150000D02*
X156550000Y-76150000D01*
X156550000Y-71150000D01*
X157550000Y-71150000D01*
X157550000Y-76150000D01*
X157550000Y-76150000D01*
G37*
G36*
X159550000Y-76150000D02*
X158550000Y-76150000D01*
X158550000Y-71150000D01*
X159550000Y-71150000D01*
X159550000Y-76150000D01*
X159550000Y-76150000D01*
G37*
G36*
X161550000Y-76150000D02*
X160550000Y-76150000D01*
X160550000Y-71150000D01*
X161550000Y-71150000D01*
X161550000Y-76150000D01*
X161550000Y-76150000D01*
G37*
G36*
X138626630Y-74092299D02*
X138786855Y-74140903D01*
X138934520Y-74219831D01*
X139063949Y-74326051D01*
X139170169Y-74455480D01*
X139249097Y-74603145D01*
X139297701Y-74763370D01*
X139314112Y-74930000D01*
X139297701Y-75096630D01*
X139249097Y-75256855D01*
X139170169Y-75404520D01*
X139063949Y-75533949D01*
X138934520Y-75640169D01*
X138786855Y-75719097D01*
X138626630Y-75767701D01*
X138501752Y-75780000D01*
X138418248Y-75780000D01*
X138293370Y-75767701D01*
X138133145Y-75719097D01*
X137985480Y-75640169D01*
X137856051Y-75533949D01*
X137749831Y-75404520D01*
X137670903Y-75256855D01*
X137622299Y-75096630D01*
X137605888Y-74930000D01*
X137622299Y-74763370D01*
X137670903Y-74603145D01*
X137749831Y-74455480D01*
X137856051Y-74326051D01*
X137985480Y-74219831D01*
X138133145Y-74140903D01*
X138293370Y-74092299D01*
X138418248Y-74080000D01*
X138501752Y-74080000D01*
X138626630Y-74092299D01*
X138626630Y-74092299D01*
G37*
G36*
X141166630Y-74092299D02*
X141326855Y-74140903D01*
X141474520Y-74219831D01*
X141603949Y-74326051D01*
X141710169Y-74455480D01*
X141789097Y-74603145D01*
X141837701Y-74763370D01*
X141854112Y-74930000D01*
X141837701Y-75096630D01*
X141789097Y-75256855D01*
X141710169Y-75404520D01*
X141603949Y-75533949D01*
X141474520Y-75640169D01*
X141326855Y-75719097D01*
X141166630Y-75767701D01*
X141041752Y-75780000D01*
X140958248Y-75780000D01*
X140833370Y-75767701D01*
X140673145Y-75719097D01*
X140525480Y-75640169D01*
X140396051Y-75533949D01*
X140289831Y-75404520D01*
X140210903Y-75256855D01*
X140162299Y-75096630D01*
X140145888Y-74930000D01*
X140162299Y-74763370D01*
X140210903Y-74603145D01*
X140289831Y-74455480D01*
X140396051Y-74326051D01*
X140525480Y-74219831D01*
X140673145Y-74140903D01*
X140833370Y-74092299D01*
X140958248Y-74080000D01*
X141041752Y-74080000D01*
X141166630Y-74092299D01*
X141166630Y-74092299D01*
G37*
G36*
X170180000Y-75045000D02*
X165100000Y-75045000D01*
X165100000Y-73545000D01*
X170180000Y-73545000D01*
X170180000Y-75045000D01*
X170180000Y-75045000D01*
G37*
G36*
X141166630Y-71552299D02*
X141326855Y-71600903D01*
X141474520Y-71679831D01*
X141603949Y-71786051D01*
X141710169Y-71915480D01*
X141789097Y-72063145D01*
X141837701Y-72223370D01*
X141854112Y-72390000D01*
X141837701Y-72556630D01*
X141789097Y-72716855D01*
X141710169Y-72864520D01*
X141603949Y-72993949D01*
X141474520Y-73100169D01*
X141326855Y-73179097D01*
X141166630Y-73227701D01*
X141041752Y-73240000D01*
X140958248Y-73240000D01*
X140833370Y-73227701D01*
X140673145Y-73179097D01*
X140525480Y-73100169D01*
X140396051Y-72993949D01*
X140289831Y-72864520D01*
X140210903Y-72716855D01*
X140162299Y-72556630D01*
X140145888Y-72390000D01*
X140162299Y-72223370D01*
X140210903Y-72063145D01*
X140289831Y-71915480D01*
X140396051Y-71786051D01*
X140525480Y-71679831D01*
X140673145Y-71600903D01*
X140833370Y-71552299D01*
X140958248Y-71540000D01*
X141041752Y-71540000D01*
X141166630Y-71552299D01*
X141166630Y-71552299D01*
G37*
G36*
X139310000Y-73240000D02*
X137610000Y-73240000D01*
X137610000Y-71540000D01*
X139310000Y-71540000D01*
X139310000Y-73240000D01*
X139310000Y-73240000D01*
G37*
G36*
X170180000Y-70795000D02*
X165100000Y-70795000D01*
X165100000Y-69295000D01*
X170180000Y-69295000D01*
X170180000Y-70795000D01*
X170180000Y-70795000D01*
G37*
G36*
X155159024Y-69028955D02*
X155191736Y-69038879D01*
X155221890Y-69054997D01*
X155248316Y-69076684D01*
X155270003Y-69103110D01*
X155286121Y-69133264D01*
X155296045Y-69165976D01*
X155300000Y-69206138D01*
X155300000Y-69793862D01*
X155296045Y-69834024D01*
X155286121Y-69866736D01*
X155270003Y-69896890D01*
X155248316Y-69923316D01*
X155221890Y-69945003D01*
X155191736Y-69961121D01*
X155159024Y-69971045D01*
X155118862Y-69975000D01*
X154431138Y-69975000D01*
X154390976Y-69971045D01*
X154358264Y-69961121D01*
X154328110Y-69945003D01*
X154301684Y-69923316D01*
X154279997Y-69896890D01*
X154263879Y-69866736D01*
X154253955Y-69834024D01*
X154250000Y-69793862D01*
X154250000Y-69206138D01*
X154253955Y-69165976D01*
X154263879Y-69133264D01*
X154279997Y-69103110D01*
X154301684Y-69076684D01*
X154328110Y-69054997D01*
X154358264Y-69038879D01*
X154390976Y-69028955D01*
X154431138Y-69025000D01*
X155118862Y-69025000D01*
X155159024Y-69028955D01*
X155159024Y-69028955D01*
G37*
G36*
X153409024Y-69028955D02*
X153441736Y-69038879D01*
X153471890Y-69054997D01*
X153498316Y-69076684D01*
X153520003Y-69103110D01*
X153536121Y-69133264D01*
X153546045Y-69165976D01*
X153550000Y-69206138D01*
X153550000Y-69793862D01*
X153546045Y-69834024D01*
X153536121Y-69866736D01*
X153520003Y-69896890D01*
X153498316Y-69923316D01*
X153471890Y-69945003D01*
X153441736Y-69961121D01*
X153409024Y-69971045D01*
X153368862Y-69975000D01*
X152681138Y-69975000D01*
X152640976Y-69971045D01*
X152608264Y-69961121D01*
X152578110Y-69945003D01*
X152551684Y-69923316D01*
X152529997Y-69896890D01*
X152513879Y-69866736D01*
X152503955Y-69834024D01*
X152500000Y-69793862D01*
X152500000Y-69206138D01*
X152503955Y-69165976D01*
X152513879Y-69133264D01*
X152529997Y-69103110D01*
X152551684Y-69076684D01*
X152578110Y-69054997D01*
X152608264Y-69038879D01*
X152640976Y-69028955D01*
X152681138Y-69025000D01*
X153368862Y-69025000D01*
X153409024Y-69028955D01*
X153409024Y-69028955D01*
G37*
M02*
