G04 #@! TF.GenerationSoftware,KiCad,Pcbnew,5.0.1-33cea8e~68~ubuntu18.04.1*
G04 #@! TF.CreationDate,2018-11-12T14:03:51-05:00*
G04 #@! TF.ProjectId,RFM95,52464D39352E6B696361645F70636200,rev?*
G04 #@! TF.SameCoordinates,Original*
G04 #@! TF.FileFunction,Copper,L2,Bot,Signal*
G04 #@! TF.FilePolarity,Positive*
%FSLAX46Y46*%
G04 Gerber Fmt 4.6, Leading zero omitted, Abs format (unit mm)*
G04 Created by KiCad (PCBNEW 5.0.1-33cea8e~68~ubuntu18.04.1) date Mon 12 Nov 2018 02:03:51 PM EST*
%MOMM*%
%LPD*%
G01*
G04 APERTURE LIST*
G04 #@! TA.AperFunction,SMDPad,CuDef*
%ADD10R,5.080000X1.500000*%
G04 #@! TD*
G04 #@! TA.AperFunction,ComponentPad*
%ADD11R,1.700000X1.700000*%
G04 #@! TD*
G04 #@! TA.AperFunction,ComponentPad*
%ADD12O,1.700000X1.700000*%
G04 #@! TD*
G04 APERTURE END LIST*
D10*
G04 #@! TO.P,J1,2*
G04 #@! TO.N,GND*
X167640000Y-78545000D03*
X167640000Y-70045000D03*
G04 #@! TD*
D11*
G04 #@! TO.P,J2,1*
G04 #@! TO.N,GND*
X138460000Y-72390000D03*
D12*
G04 #@! TO.P,J2,2*
G04 #@! TO.N,P3V3*
X141000000Y-72390000D03*
G04 #@! TO.P,J2,3*
G04 #@! TO.N,/RST_3V3*
X138460000Y-74930000D03*
G04 #@! TO.P,J2,4*
G04 #@! TO.N,/DIO0_3V3*
X141000000Y-74930000D03*
G04 #@! TO.P,J2,5*
G04 #@! TO.N,/CS_3V3*
X138460000Y-77470000D03*
G04 #@! TO.P,J2,6*
G04 #@! TO.N,/DIO1_3V3*
X141000000Y-77470000D03*
G04 #@! TO.P,J2,7*
G04 #@! TO.N,/SCLK_3V3*
X138460000Y-80010000D03*
G04 #@! TO.P,J2,8*
G04 #@! TO.N,/DIO2_3V3*
X141000000Y-80010000D03*
G04 #@! TO.P,J2,9*
G04 #@! TO.N,/MOSI_3V3*
X138460000Y-82550000D03*
G04 #@! TO.P,J2,10*
G04 #@! TO.N,/DIO4_3V3*
X141000000Y-82550000D03*
G04 #@! TO.P,J2,11*
G04 #@! TO.N,/MISO_3V3*
X138460000Y-85090000D03*
G04 #@! TO.P,J2,12*
G04 #@! TO.N,/DIO3_3V3*
X141000000Y-85090000D03*
G04 #@! TO.P,J2,13*
G04 #@! TO.N,GND*
X138460000Y-87630000D03*
G04 #@! TO.P,J2,14*
G04 #@! TO.N,/DIO5_3V3*
X141000000Y-87630000D03*
G04 #@! TD*
M02*
